[2023-08-29T00:10:36.767+0200][gc] Using G1
[2023-08-29T00:10:36.784+0200][gc,init] Version: 17.0.8+7-Ubuntu-122.04 (release)
[2023-08-29T00:10:36.784+0200][gc,init] CPUs: 4 total, 4 available
[2023-08-29T00:10:36.784+0200][gc,init] Memory: 7843M
[2023-08-29T00:10:36.784+0200][gc,init] Large Page Support: Disabled
[2023-08-29T00:10:36.784+0200][gc,init] NUMA Support: Disabled
[2023-08-29T00:10:36.784+0200][gc,init] Compressed Oops: Enabled (32-bit)
[2023-08-29T00:10:36.784+0200][gc,init] Heap Region Size: 1M
[2023-08-29T00:10:36.784+0200][gc,init] Heap Min Capacity: 1G
[2023-08-29T00:10:36.784+0200][gc,init] Heap Initial Capacity: 1G
[2023-08-29T00:10:36.784+0200][gc,init] Heap Max Capacity: 1G
[2023-08-29T00:10:36.784+0200][gc,init] Pre-touch: Disabled
[2023-08-29T00:10:36.784+0200][gc,init] Parallel Workers: 4
[2023-08-29T00:10:36.784+0200][gc,init] Concurrent Workers: 1
[2023-08-29T00:10:36.784+0200][gc,init] Concurrent Refinement Workers: 4
[2023-08-29T00:10:36.784+0200][gc,init] Periodic GC: Disabled
[2023-08-29T00:10:36.792+0200][gc,metaspace] CDS archive(s) mapped at: [0x00007fdeef000000-0x00007fdeefbeb000-0x00007fdeefbeb000), size 12496896, SharedBaseAddress: 0x00007fdeef000000, ArchiveRelocationMode: 1.
[2023-08-29T00:10:36.792+0200][gc,metaspace] Compressed class space mapped at: 0x00007fdef0000000-0x00007fdf30000000, reserved size: 1073741824
[2023-08-29T00:10:36.792+0200][gc,metaspace] Narrow klass base: 0x00007fdeef000000, Narrow klass shift: 0, Narrow klass range: 0x100000000
[2023-08-29T00:10:38.543+0200][gc,start    ] GC(0) Pause Young (Normal) (G1 Evacuation Pause)
[2023-08-29T00:10:38.543+0200][gc,task     ] GC(0) Using 4 workers of 4 for evacuation
[2023-08-29T00:10:38.552+0200][gc,phases   ] GC(0)   Pre Evacuate Collection Set: 0,1ms
[2023-08-29T00:10:38.552+0200][gc,phases   ] GC(0)   Merge Heap Roots: 0,1ms
[2023-08-29T00:10:38.552+0200][gc,phases   ] GC(0)   Evacuate Collection Set: 7,6ms
[2023-08-29T00:10:38.552+0200][gc,phases   ] GC(0)   Post Evacuate Collection Set: 0,6ms
[2023-08-29T00:10:38.552+0200][gc,phases   ] GC(0)   Other: 0,6ms
[2023-08-29T00:10:38.552+0200][gc,heap     ] GC(0) Eden regions: 51->0(44)
[2023-08-29T00:10:38.552+0200][gc,heap     ] GC(0) Survivor regions: 0->7(7)
[2023-08-29T00:10:38.552+0200][gc,heap     ] GC(0) Old regions: 0->1
[2023-08-29T00:10:38.552+0200][gc,heap     ] GC(0) Archive regions: 2->2
[2023-08-29T00:10:38.552+0200][gc,heap     ] GC(0) Humongous regions: 0->0
[2023-08-29T00:10:38.552+0200][gc,metaspace] GC(0) Metaspace: 19383K(19648K)->19383K(19648K) NonClass: 16779K(16896K)->16779K(16896K) Class: 2604K(2752K)->2604K(2752K)
[2023-08-29T00:10:38.552+0200][gc          ] GC(0) Pause Young (Normal) (G1 Evacuation Pause) 51M->8M(1024M) 9,164ms
[2023-08-29T00:10:38.552+0200][gc,cpu      ] GC(0) User=0,03s Sys=0,00s Real=0,02s
[2023-08-29T00:10:38.787+0200][gc,start    ] GC(1) Pause Young (Concurrent Start) (Metadata GC Threshold)
[2023-08-29T00:10:38.787+0200][gc,task     ] GC(1) Using 4 workers of 4 for evacuation
[2023-08-29T00:10:38.794+0200][gc,phases   ] GC(1)   Pre Evacuate Collection Set: 0,1ms
[2023-08-29T00:10:38.794+0200][gc,phases   ] GC(1)   Merge Heap Roots: 0,0ms
[2023-08-29T00:10:38.794+0200][gc,phases   ] GC(1)   Evacuate Collection Set: 6,6ms
[2023-08-29T00:10:38.794+0200][gc,phases   ] GC(1)   Post Evacuate Collection Set: 0,4ms
[2023-08-29T00:10:38.794+0200][gc,phases   ] GC(1)   Other: 0,2ms
[2023-08-29T00:10:38.794+0200][gc,heap     ] GC(1) Eden regions: 9->0(49)
[2023-08-29T00:10:38.794+0200][gc,heap     ] GC(1) Survivor regions: 7->2(7)
[2023-08-29T00:10:38.794+0200][gc,heap     ] GC(1) Old regions: 1->8
[2023-08-29T00:10:38.794+0200][gc,heap     ] GC(1) Archive regions: 2->2
[2023-08-29T00:10:38.794+0200][gc,heap     ] GC(1) Humongous regions: 129->129
[2023-08-29T00:10:38.794+0200][gc,metaspace] GC(1) Metaspace: 21266K(21504K)->21266K(21504K) NonClass: 18395K(18496K)->18395K(18496K) Class: 2871K(3008K)->2871K(3008K)
[2023-08-29T00:10:38.794+0200][gc          ] GC(1) Pause Young (Concurrent Start) (Metadata GC Threshold) 145M->138M(1024M) 7,490ms
[2023-08-29T00:10:38.794+0200][gc,cpu      ] GC(1) User=0,01s Sys=0,01s Real=0,01s
[2023-08-29T00:10:38.794+0200][gc          ] GC(2) Concurrent Mark Cycle
[2023-08-29T00:10:38.794+0200][gc,marking  ] GC(2) Concurrent Clear Claimed Marks
[2023-08-29T00:10:38.794+0200][gc,marking  ] GC(2) Concurrent Clear Claimed Marks 0,023ms
[2023-08-29T00:10:38.794+0200][gc,marking  ] GC(2) Concurrent Scan Root Regions
[2023-08-29T00:10:38.800+0200][gc,marking  ] GC(2) Concurrent Scan Root Regions 5,202ms
[2023-08-29T00:10:38.800+0200][gc,marking  ] GC(2) Concurrent Mark
[2023-08-29T00:10:38.800+0200][gc,marking  ] GC(2) Concurrent Mark From Roots
[2023-08-29T00:10:38.800+0200][gc,task     ] GC(2) Using 1 workers of 1 for marking
[2023-08-29T00:10:38.804+0200][gc,marking  ] GC(2) Concurrent Mark From Roots 4,100ms
[2023-08-29T00:10:38.804+0200][gc,marking  ] GC(2) Concurrent Preclean
[2023-08-29T00:10:38.804+0200][gc,marking  ] GC(2) Concurrent Preclean 0,088ms
[2023-08-29T00:10:38.804+0200][gc,start    ] GC(2) Pause Remark
[2023-08-29T00:10:38.806+0200][gc          ] GC(2) Pause Remark 139M->139M(1024M) 1,720ms
[2023-08-29T00:10:38.806+0200][gc,cpu      ] GC(2) User=0,01s Sys=0,00s Real=0,00s
[2023-08-29T00:10:38.806+0200][gc,marking  ] GC(2) Concurrent Mark 6,192ms
[2023-08-29T00:10:38.806+0200][gc,marking  ] GC(2) Concurrent Rebuild Remembered Sets
[2023-08-29T00:10:38.811+0200][gc,marking  ] GC(2) Concurrent Rebuild Remembered Sets 5,007ms
[2023-08-29T00:10:38.814+0200][gc,start    ] GC(2) Pause Cleanup
[2023-08-29T00:10:38.815+0200][gc          ] GC(2) Pause Cleanup 139M->139M(1024M) 0,285ms
[2023-08-29T00:10:38.815+0200][gc,cpu      ] GC(2) User=0,00s Sys=0,00s Real=0,00s
[2023-08-29T00:10:38.815+0200][gc,marking  ] GC(2) Concurrent Cleanup for Next Mark
[2023-08-29T00:10:38.830+0200][gc,marking  ] GC(2) Concurrent Cleanup for Next Mark 14,825ms
[2023-08-29T00:10:38.830+0200][gc          ] GC(2) Concurrent Mark Cycle 35,334ms
[2023-08-29T00:10:40.030+0200][gc,start    ] GC(3) Pause Young (Normal) (G1 Evacuation Pause)
[2023-08-29T00:10:40.030+0200][gc,task     ] GC(3) Using 4 workers of 4 for evacuation
[2023-08-29T00:10:40.038+0200][gc,phases   ] GC(3)   Pre Evacuate Collection Set: 0,1ms
[2023-08-29T00:10:40.038+0200][gc,phases   ] GC(3)   Merge Heap Roots: 0,0ms
[2023-08-29T00:10:40.038+0200][gc,phases   ] GC(3)   Evacuate Collection Set: 6,7ms
[2023-08-29T00:10:40.038+0200][gc,phases   ] GC(3)   Post Evacuate Collection Set: 0,5ms
[2023-08-29T00:10:40.038+0200][gc,phases   ] GC(3)   Other: 0,2ms
[2023-08-29T00:10:40.038+0200][gc,heap     ] GC(3) Eden regions: 49->0(45)
[2023-08-29T00:10:40.038+0200][gc,heap     ] GC(3) Survivor regions: 2->6(7)
[2023-08-29T00:10:40.038+0200][gc,heap     ] GC(3) Old regions: 8->8
[2023-08-29T00:10:40.038+0200][gc,heap     ] GC(3) Archive regions: 2->2
[2023-08-29T00:10:40.038+0200][gc,heap     ] GC(3) Humongous regions: 129->129
[2023-08-29T00:10:40.038+0200][gc,metaspace] GC(3) Metaspace: 32699K(32960K)->32699K(32960K) NonClass: 28710K(28864K)->28710K(28864K) Class: 3989K(4096K)->3989K(4096K)
[2023-08-29T00:10:40.038+0200][gc          ] GC(3) Pause Young (Normal) (G1 Evacuation Pause) 187M->142M(1024M) 7,649ms
[2023-08-29T00:10:40.038+0200][gc,cpu      ] GC(3) User=0,02s Sys=0,00s Real=0,01s
[2023-08-29T00:12:48.364+0200][gc,start    ] GC(4) Pause Young (Concurrent Start) (Metadata GC Threshold)
[2023-08-29T00:12:48.364+0200][gc,task     ] GC(4) Using 4 workers of 4 for evacuation
[2023-08-29T00:12:48.398+0200][gc,mmu      ] GC(4) MMU target violated: 21,0ms (20,0ms/21,0ms)
[2023-08-29T00:12:48.398+0200][gc,phases   ] GC(4)   Pre Evacuate Collection Set: 0,5ms
[2023-08-29T00:12:48.398+0200][gc,phases   ] GC(4)   Merge Heap Roots: 0,1ms
[2023-08-29T00:12:48.398+0200][gc,phases   ] GC(4)   Evacuate Collection Set: 32,8ms
[2023-08-29T00:12:48.398+0200][gc,phases   ] GC(4)   Post Evacuate Collection Set: 0,7ms
[2023-08-29T00:12:48.398+0200][gc,phases   ] GC(4)   Other: 0,3ms
[2023-08-29T00:12:48.398+0200][gc,heap     ] GC(4) Eden regions: 17->0(49)
[2023-08-29T00:12:48.398+0200][gc,heap     ] GC(4) Survivor regions: 6->2(7)
[2023-08-29T00:12:48.398+0200][gc,heap     ] GC(4) Old regions: 8->13
[2023-08-29T00:12:48.398+0200][gc,heap     ] GC(4) Archive regions: 2->2
[2023-08-29T00:12:48.398+0200][gc,heap     ] GC(4) Humongous regions: 129->129
[2023-08-29T00:12:48.398+0200][gc,metaspace] GC(4) Metaspace: 35764K(36096K)->35764K(36096K) NonClass: 31254K(31424K)->31254K(31424K) Class: 4509K(4672K)->4509K(4672K)
[2023-08-29T00:12:48.398+0200][gc          ] GC(4) Pause Young (Concurrent Start) (Metadata GC Threshold) 158M->143M(1024M) 34,594ms
[2023-08-29T00:12:48.398+0200][gc,cpu      ] GC(4) User=0,06s Sys=0,01s Real=0,03s
[2023-08-29T00:12:48.398+0200][gc          ] GC(5) Concurrent Mark Cycle
[2023-08-29T00:12:48.398+0200][gc,marking  ] GC(5) Concurrent Clear Claimed Marks
[2023-08-29T00:12:48.398+0200][gc,marking  ] GC(5) Concurrent Clear Claimed Marks 0,036ms
[2023-08-29T00:12:48.398+0200][gc,marking  ] GC(5) Concurrent Scan Root Regions
[2023-08-29T00:12:48.428+0200][gc,marking  ] GC(5) Concurrent Scan Root Regions 30,067ms
[2023-08-29T00:12:48.428+0200][gc,marking  ] GC(5) Concurrent Mark
[2023-08-29T00:12:48.429+0200][gc,marking  ] GC(5) Concurrent Mark From Roots
[2023-08-29T00:12:48.429+0200][gc,task     ] GC(5) Using 1 workers of 1 for marking
[2023-08-29T00:12:48.458+0200][gc,marking  ] GC(5) Concurrent Mark From Roots 29,041ms
[2023-08-29T00:12:48.458+0200][gc,marking  ] GC(5) Concurrent Preclean
[2023-08-29T00:12:48.458+0200][gc,marking  ] GC(5) Concurrent Preclean 0,203ms
[2023-08-29T00:12:48.460+0200][gc,start    ] GC(5) Pause Remark
[2023-08-29T00:12:48.464+0200][gc          ] GC(5) Pause Remark 145M->145M(1024M) 4,066ms
[2023-08-29T00:12:48.464+0200][gc,cpu      ] GC(5) User=0,01s Sys=0,00s Real=0,01s
[2023-08-29T00:12:48.464+0200][gc,marking  ] GC(5) Concurrent Mark 35,794ms
[2023-08-29T00:12:48.464+0200][gc,marking  ] GC(5) Concurrent Rebuild Remembered Sets
[2023-08-29T00:12:48.479+0200][gc,marking  ] GC(5) Concurrent Rebuild Remembered Sets 15,077ms
[2023-08-29T00:12:48.480+0200][gc,start    ] GC(5) Pause Cleanup
[2023-08-29T00:12:48.480+0200][gc          ] GC(5) Pause Cleanup 146M->146M(1024M) 0,229ms
[2023-08-29T00:12:48.480+0200][gc,cpu      ] GC(5) User=0,00s Sys=0,00s Real=0,00s
[2023-08-29T00:12:48.480+0200][gc,marking  ] GC(5) Concurrent Cleanup for Next Mark
[2023-08-29T00:12:48.514+0200][gc,marking  ] GC(5) Concurrent Cleanup for Next Mark 33,808ms
[2023-08-29T00:12:48.514+0200][gc          ] GC(5) Concurrent Mark Cycle 115,428ms
[2023-08-29T18:54:32.532+0200][gc,heap,exit] Heap
[2023-08-29T18:54:32.533+0200][gc,heap,exit]  garbage-first heap   total 1048576K, used 193372K [0x00000000c0000000, 0x0000000100000000)
[2023-08-29T18:54:32.533+0200][gc,heap,exit]   region size 1024K, 47 young (48128K), 2 survivors (2048K)
[2023-08-29T18:54:32.533+0200][gc,heap,exit]  Metaspace       used 39675K, committed 40128K, reserved 1114112K
[2023-08-29T18:54:32.533+0200][gc,heap,exit]   class space    used 5089K, committed 5312K, reserved 1048576K
