[2023-08-26T04:18:42.152+0200][gc] Using G1
[2023-08-26T04:18:42.168+0200][gc,init] Version: 17.0.8+7-Ubuntu-122.04 (release)
[2023-08-26T04:18:42.168+0200][gc,init] CPUs: 4 total, 4 available
[2023-08-26T04:18:42.169+0200][gc,init] Memory: 7843M
[2023-08-26T04:18:42.169+0200][gc,init] Large Page Support: Disabled
[2023-08-26T04:18:42.169+0200][gc,init] NUMA Support: Disabled
[2023-08-26T04:18:42.169+0200][gc,init] Compressed Oops: Enabled (32-bit)
[2023-08-26T04:18:42.169+0200][gc,init] Heap Region Size: 1M
[2023-08-26T04:18:42.169+0200][gc,init] Heap Min Capacity: 1G
[2023-08-26T04:18:42.169+0200][gc,init] Heap Initial Capacity: 1G
[2023-08-26T04:18:42.169+0200][gc,init] Heap Max Capacity: 1G
[2023-08-26T04:18:42.169+0200][gc,init] Pre-touch: Disabled
[2023-08-26T04:18:42.169+0200][gc,init] Parallel Workers: 4
[2023-08-26T04:18:42.169+0200][gc,init] Concurrent Workers: 1
[2023-08-26T04:18:42.169+0200][gc,init] Concurrent Refinement Workers: 4
[2023-08-26T04:18:42.169+0200][gc,init] Periodic GC: Disabled
[2023-08-26T04:18:42.177+0200][gc,metaspace] CDS archive(s) mapped at: [0x00007f9937000000-0x00007f9937beb000-0x00007f9937beb000), size 12496896, SharedBaseAddress: 0x00007f9937000000, ArchiveRelocationMode: 1.
[2023-08-26T04:18:42.177+0200][gc,metaspace] Compressed class space mapped at: 0x00007f9938000000-0x00007f9978000000, reserved size: 1073741824
[2023-08-26T04:18:42.177+0200][gc,metaspace] Narrow klass base: 0x00007f9937000000, Narrow klass shift: 0, Narrow klass range: 0x100000000
[2023-08-26T04:18:43.703+0200][gc,start    ] GC(0) Pause Young (Normal) (G1 Evacuation Pause)
[2023-08-26T04:18:43.703+0200][gc,task     ] GC(0) Using 4 workers of 4 for evacuation
[2023-08-26T04:18:43.715+0200][gc,phases   ] GC(0)   Pre Evacuate Collection Set: 0,2ms
[2023-08-26T04:18:43.715+0200][gc,phases   ] GC(0)   Merge Heap Roots: 0,1ms
[2023-08-26T04:18:43.715+0200][gc,phases   ] GC(0)   Evacuate Collection Set: 11,0ms
[2023-08-26T04:18:43.715+0200][gc,phases   ] GC(0)   Post Evacuate Collection Set: 0,6ms
[2023-08-26T04:18:43.715+0200][gc,phases   ] GC(0)   Other: 0,7ms
[2023-08-26T04:18:43.715+0200][gc,heap     ] GC(0) Eden regions: 51->0(44)
[2023-08-26T04:18:43.715+0200][gc,heap     ] GC(0) Survivor regions: 0->7(7)
[2023-08-26T04:18:43.715+0200][gc,heap     ] GC(0) Old regions: 0->1
[2023-08-26T04:18:43.715+0200][gc,heap     ] GC(0) Archive regions: 2->2
[2023-08-26T04:18:43.715+0200][gc,heap     ] GC(0) Humongous regions: 2->2
[2023-08-26T04:18:43.715+0200][gc,metaspace] GC(0) Metaspace: 14886K(15104K)->14886K(15104K) NonClass: 12938K(13056K)->12938K(13056K) Class: 1948K(2048K)->1948K(2048K)
[2023-08-26T04:18:43.716+0200][gc          ] GC(0) Pause Young (Normal) (G1 Evacuation Pause) 53M->10M(1024M) 12,797ms
[2023-08-26T04:18:43.716+0200][gc,cpu      ] GC(0) User=0,04s Sys=0,00s Real=0,01s
[2023-08-26T04:18:44.407+0200][gc,start    ] GC(1) Pause Young (Concurrent Start) (Metadata GC Threshold)
[2023-08-26T04:18:44.407+0200][gc,task     ] GC(1) Using 4 workers of 4 for evacuation
[2023-08-26T04:18:44.416+0200][gc,phases   ] GC(1)   Pre Evacuate Collection Set: 0,1ms
[2023-08-26T04:18:44.416+0200][gc,phases   ] GC(1)   Merge Heap Roots: 0,1ms
[2023-08-26T04:18:44.416+0200][gc,phases   ] GC(1)   Evacuate Collection Set: 7,4ms
[2023-08-26T04:18:44.416+0200][gc,phases   ] GC(1)   Post Evacuate Collection Set: 0,6ms
[2023-08-26T04:18:44.416+0200][gc,phases   ] GC(1)   Other: 0,2ms
[2023-08-26T04:18:44.416+0200][gc,heap     ] GC(1) Eden regions: 36->0(49)
[2023-08-26T04:18:44.416+0200][gc,heap     ] GC(1) Survivor regions: 7->2(7)
[2023-08-26T04:18:44.416+0200][gc,heap     ] GC(1) Old regions: 1->8
[2023-08-26T04:18:44.416+0200][gc,heap     ] GC(1) Archive regions: 2->2
[2023-08-26T04:18:44.416+0200][gc,heap     ] GC(1) Humongous regions: 2->2
[2023-08-26T04:18:44.416+0200][gc,metaspace] GC(1) Metaspace: 21215K(21504K)->21215K(21504K) NonClass: 18473K(18624K)->18473K(18624K) Class: 2741K(2880K)->2741K(2880K)
[2023-08-26T04:18:44.416+0200][gc          ] GC(1) Pause Young (Concurrent Start) (Metadata GC Threshold) 46M->12M(1024M) 8,595ms
[2023-08-26T04:18:44.416+0200][gc,cpu      ] GC(1) User=0,03s Sys=0,00s Real=0,00s
[2023-08-26T04:18:44.416+0200][gc          ] GC(2) Concurrent Mark Cycle
[2023-08-26T04:18:44.416+0200][gc,marking  ] GC(2) Concurrent Clear Claimed Marks
[2023-08-26T04:18:44.416+0200][gc,marking  ] GC(2) Concurrent Clear Claimed Marks 0,031ms
[2023-08-26T04:18:44.416+0200][gc,marking  ] GC(2) Concurrent Scan Root Regions
[2023-08-26T04:18:44.422+0200][gc,marking  ] GC(2) Concurrent Scan Root Regions 6,489ms
[2023-08-26T04:18:44.422+0200][gc,marking  ] GC(2) Concurrent Mark
[2023-08-26T04:18:44.422+0200][gc,marking  ] GC(2) Concurrent Mark From Roots
[2023-08-26T04:18:44.423+0200][gc,task     ] GC(2) Using 1 workers of 1 for marking
[2023-08-26T04:18:44.428+0200][gc,marking  ] GC(2) Concurrent Mark From Roots 5,911ms
[2023-08-26T04:18:44.428+0200][gc,marking  ] GC(2) Concurrent Preclean
[2023-08-26T04:18:44.429+0200][gc,marking  ] GC(2) Concurrent Preclean 0,093ms
[2023-08-26T04:18:44.429+0200][gc,start    ] GC(2) Pause Remark
[2023-08-26T04:18:44.431+0200][gc          ] GC(2) Pause Remark 14M->14M(1024M) 2,518ms
[2023-08-26T04:18:44.431+0200][gc,cpu      ] GC(2) User=0,01s Sys=0,00s Real=0,00s
[2023-08-26T04:18:44.431+0200][gc,marking  ] GC(2) Concurrent Mark 8,870ms
[2023-08-26T04:18:44.431+0200][gc,marking  ] GC(2) Concurrent Rebuild Remembered Sets
[2023-08-26T04:18:44.439+0200][gc,marking  ] GC(2) Concurrent Rebuild Remembered Sets 7,241ms
[2023-08-26T04:18:44.439+0200][gc,start    ] GC(2) Pause Cleanup
[2023-08-26T04:18:44.439+0200][gc          ] GC(2) Pause Cleanup 14M->14M(1024M) 0,181ms
[2023-08-26T04:18:44.439+0200][gc,cpu      ] GC(2) User=0,00s Sys=0,00s Real=0,00s
[2023-08-26T04:18:44.439+0200][gc,marking  ] GC(2) Concurrent Cleanup for Next Mark
[2023-08-26T04:18:44.452+0200][gc,marking  ] GC(2) Concurrent Cleanup for Next Mark 12,939ms
[2023-08-26T04:18:44.452+0200][gc          ] GC(2) Concurrent Mark Cycle 36,215ms
[2023-08-26T04:18:45.180+0200][gc,start    ] GC(3) Pause Young (Normal) (G1 Evacuation Pause)
[2023-08-26T04:18:45.180+0200][gc,task     ] GC(3) Using 4 workers of 4 for evacuation
[2023-08-26T04:18:45.186+0200][gc,phases   ] GC(3)   Pre Evacuate Collection Set: 0,2ms
[2023-08-26T04:18:45.187+0200][gc,phases   ] GC(3)   Merge Heap Roots: 0,1ms
[2023-08-26T04:18:45.187+0200][gc,phases   ] GC(3)   Evacuate Collection Set: 5,6ms
[2023-08-26T04:18:45.187+0200][gc,phases   ] GC(3)   Post Evacuate Collection Set: 0,5ms
[2023-08-26T04:18:45.187+0200][gc,phases   ] GC(3)   Other: 0,2ms
[2023-08-26T04:18:45.187+0200][gc,heap     ] GC(3) Eden regions: 49->0(47)
[2023-08-26T04:18:45.187+0200][gc,heap     ] GC(3) Survivor regions: 2->4(7)
[2023-08-26T04:18:45.187+0200][gc,heap     ] GC(3) Old regions: 8->8
[2023-08-26T04:18:45.187+0200][gc,heap     ] GC(3) Archive regions: 2->2
[2023-08-26T04:18:45.187+0200][gc,heap     ] GC(3) Humongous regions: 131->131
[2023-08-26T04:18:45.187+0200][gc,metaspace] GC(3) Metaspace: 29063K(29376K)->29063K(29376K) NonClass: 25390K(25536K)->25390K(25536K) Class: 3672K(3840K)->3672K(3840K)
[2023-08-26T04:18:45.187+0200][gc          ] GC(3) Pause Young (Normal) (G1 Evacuation Pause) 190M->142M(1024M) 6,770ms
[2023-08-26T04:18:45.187+0200][gc,cpu      ] GC(3) User=0,03s Sys=0,00s Real=0,01s
[2023-08-26T04:18:46.113+0200][gc,start    ] GC(4) Pause Young (Normal) (G1 Evacuation Pause)
[2023-08-26T04:18:46.113+0200][gc,task     ] GC(4) Using 4 workers of 4 for evacuation
[2023-08-26T04:18:46.121+0200][gc,phases   ] GC(4)   Pre Evacuate Collection Set: 0,1ms
[2023-08-26T04:18:46.121+0200][gc,phases   ] GC(4)   Merge Heap Roots: 0,1ms
[2023-08-26T04:18:46.121+0200][gc,phases   ] GC(4)   Evacuate Collection Set: 7,7ms
[2023-08-26T04:18:46.121+0200][gc,phases   ] GC(4)   Post Evacuate Collection Set: 0,7ms
[2023-08-26T04:18:46.121+0200][gc,phases   ] GC(4)   Other: 0,1ms
[2023-08-26T04:18:46.121+0200][gc,heap     ] GC(4) Eden regions: 47->0(44)
[2023-08-26T04:18:46.121+0200][gc,heap     ] GC(4) Survivor regions: 4->7(7)
[2023-08-26T04:18:46.121+0200][gc,heap     ] GC(4) Old regions: 8->8
[2023-08-26T04:18:46.121+0200][gc,heap     ] GC(4) Archive regions: 2->2
[2023-08-26T04:18:46.122+0200][gc,heap     ] GC(4) Humongous regions: 131->131
[2023-08-26T04:18:46.122+0200][gc,metaspace] GC(4) Metaspace: 35627K(35968K)->35627K(35968K) NonClass: 31234K(31424K)->31234K(31424K) Class: 4393K(4544K)->4393K(4544K)
[2023-08-26T04:18:46.122+0200][gc          ] GC(4) Pause Young (Normal) (G1 Evacuation Pause) 189M->146M(1024M) 8,811ms
[2023-08-26T04:18:46.122+0200][gc,cpu      ] GC(4) User=0,02s Sys=0,00s Real=0,01s
[2023-08-26T04:18:46.154+0200][gc,start    ] GC(5) Pause Young (Concurrent Start) (GCLocker Initiated GC)
[2023-08-26T04:18:46.154+0200][gc,task     ] GC(5) Using 4 workers of 4 for evacuation
[2023-08-26T04:18:46.163+0200][gc,phases   ] GC(5)   Pre Evacuate Collection Set: 0,2ms
[2023-08-26T04:18:46.163+0200][gc,phases   ] GC(5)   Merge Heap Roots: 0,1ms
[2023-08-26T04:18:46.163+0200][gc,phases   ] GC(5)   Evacuate Collection Set: 8,5ms
[2023-08-26T04:18:46.163+0200][gc,phases   ] GC(5)   Post Evacuate Collection Set: 0,5ms
[2023-08-26T04:18:46.163+0200][gc,phases   ] GC(5)   Other: 0,2ms
[2023-08-26T04:18:46.163+0200][gc,heap     ] GC(5) Eden regions: 5->0(50)
[2023-08-26T04:18:46.163+0200][gc,heap     ] GC(5) Survivor regions: 7->1(7)
[2023-08-26T04:18:46.163+0200][gc,heap     ] GC(5) Old regions: 8->15
[2023-08-26T04:18:46.163+0200][gc,heap     ] GC(5) Archive regions: 2->2
[2023-08-26T04:18:46.163+0200][gc,heap     ] GC(5) Humongous regions: 131->131
[2023-08-26T04:18:46.163+0200][gc,metaspace] GC(5) Metaspace: 36072K(36480K)->36072K(36480K) NonClass: 31648K(31872K)->31648K(31872K) Class: 4424K(4608K)->4424K(4608K)
[2023-08-26T04:18:46.163+0200][gc          ] GC(5) Pause Young (Concurrent Start) (GCLocker Initiated GC) 151M->147M(1024M) 9,626ms
[2023-08-26T04:18:46.163+0200][gc,cpu      ] GC(5) User=0,03s Sys=0,00s Real=0,01s
[2023-08-26T04:18:46.163+0200][gc          ] GC(6) Concurrent Mark Cycle
[2023-08-26T04:18:46.163+0200][gc,marking  ] GC(6) Concurrent Clear Claimed Marks
[2023-08-26T04:18:46.163+0200][gc,marking  ] GC(6) Concurrent Clear Claimed Marks 0,040ms
[2023-08-26T04:18:46.163+0200][gc,marking  ] GC(6) Concurrent Scan Root Regions
[2023-08-26T04:18:46.172+0200][gc,marking  ] GC(6) Concurrent Scan Root Regions 8,154ms
[2023-08-26T04:18:46.172+0200][gc,marking  ] GC(6) Concurrent Mark
[2023-08-26T04:18:46.172+0200][gc,marking  ] GC(6) Concurrent Mark From Roots
[2023-08-26T04:18:46.172+0200][gc,task     ] GC(6) Using 1 workers of 1 for marking
[2023-08-26T04:18:46.192+0200][gc,marking  ] GC(6) Concurrent Mark From Roots 20,169ms
[2023-08-26T04:18:46.192+0200][gc,marking  ] GC(6) Concurrent Preclean
[2023-08-26T04:18:46.192+0200][gc,marking  ] GC(6) Concurrent Preclean 0,151ms
[2023-08-26T04:18:46.197+0200][gc,start    ] GC(6) Pause Remark
[2023-08-26T04:18:46.200+0200][gc          ] GC(6) Pause Remark 151M->151M(1024M) 3,221ms
[2023-08-26T04:18:46.200+0200][gc,cpu      ] GC(6) User=0,01s Sys=0,01s Real=0,00s
[2023-08-26T04:18:46.200+0200][gc,marking  ] GC(6) Concurrent Mark 28,316ms
[2023-08-26T04:18:46.200+0200][gc,marking  ] GC(6) Concurrent Rebuild Remembered Sets
[2023-08-26T04:18:46.232+0200][gc,marking  ] GC(6) Concurrent Rebuild Remembered Sets 32,273ms
[2023-08-26T04:18:46.234+0200][gc,start    ] GC(6) Pause Cleanup
[2023-08-26T04:18:46.234+0200][gc          ] GC(6) Pause Cleanup 157M->157M(1024M) 0,228ms
[2023-08-26T04:18:46.234+0200][gc,cpu      ] GC(6) User=0,00s Sys=0,00s Real=0,00s
[2023-08-26T04:18:46.236+0200][gc,marking  ] GC(6) Concurrent Cleanup for Next Mark
[2023-08-26T04:18:46.274+0200][gc,marking  ] GC(6) Concurrent Cleanup for Next Mark 38,168ms
[2023-08-26T04:18:46.274+0200][gc          ] GC(6) Concurrent Mark Cycle 110,794ms
[2023-08-26T04:18:46.510+0200][gc,start    ] GC(7) Pause Young (Prepare Mixed) (G1 Evacuation Pause)
[2023-08-26T04:18:46.510+0200][gc,task     ] GC(7) Using 4 workers of 4 for evacuation
[2023-08-26T04:18:46.513+0200][gc,phases   ] GC(7)   Pre Evacuate Collection Set: 0,1ms
[2023-08-26T04:18:46.513+0200][gc,phases   ] GC(7)   Merge Heap Roots: 0,1ms
[2023-08-26T04:18:46.513+0200][gc,phases   ] GC(7)   Evacuate Collection Set: 2,2ms
[2023-08-26T04:18:46.513+0200][gc,phases   ] GC(7)   Post Evacuate Collection Set: 0,6ms
[2023-08-26T04:18:46.513+0200][gc,phases   ] GC(7)   Other: 0,2ms
[2023-08-26T04:18:46.513+0200][gc,heap     ] GC(7) Eden regions: 50->0(50)
[2023-08-26T04:18:46.513+0200][gc,heap     ] GC(7) Survivor regions: 1->1(7)
[2023-08-26T04:18:46.513+0200][gc,heap     ] GC(7) Old regions: 15->15
[2023-08-26T04:18:46.513+0200][gc,heap     ] GC(7) Archive regions: 2->2
[2023-08-26T04:18:46.513+0200][gc,heap     ] GC(7) Humongous regions: 131->131
[2023-08-26T04:18:46.513+0200][gc,metaspace] GC(7) Metaspace: 38064K(38464K)->38064K(38464K) NonClass: 33375K(33600K)->33375K(33600K) Class: 4689K(4864K)->4689K(4864K)
[2023-08-26T04:18:46.513+0200][gc          ] GC(7) Pause Young (Prepare Mixed) (G1 Evacuation Pause) 197M->147M(1024M) 3,382ms
[2023-08-26T04:18:46.513+0200][gc,cpu      ] GC(7) User=0,01s Sys=0,00s Real=0,00s
[2023-08-26T04:18:46.812+0200][gc,start    ] GC(8) Pause Young (Mixed) (G1 Evacuation Pause)
[2023-08-26T04:18:46.812+0200][gc,task     ] GC(8) Using 4 workers of 4 for evacuation
[2023-08-26T04:18:46.825+0200][gc,phases   ] GC(8)   Pre Evacuate Collection Set: 0,2ms
[2023-08-26T04:18:46.825+0200][gc,phases   ] GC(8)   Merge Heap Roots: 0,2ms
[2023-08-26T04:18:46.825+0200][gc,phases   ] GC(8)   Evacuate Collection Set: 12,3ms
[2023-08-26T04:18:46.825+0200][gc,phases   ] GC(8)   Post Evacuate Collection Set: 0,6ms
[2023-08-26T04:18:46.825+0200][gc,phases   ] GC(8)   Other: 0,2ms
[2023-08-26T04:18:46.825+0200][gc,heap     ] GC(8) Eden regions: 50->0(50)
[2023-08-26T04:18:46.825+0200][gc,heap     ] GC(8) Survivor regions: 1->1(7)
[2023-08-26T04:18:46.825+0200][gc,heap     ] GC(8) Old regions: 15->15
[2023-08-26T04:18:46.825+0200][gc,heap     ] GC(8) Archive regions: 2->2
[2023-08-26T04:18:46.825+0200][gc,heap     ] GC(8) Humongous regions: 131->131
[2023-08-26T04:18:46.825+0200][gc,metaspace] GC(8) Metaspace: 38448K(38848K)->38448K(38848K) NonClass: 33695K(33920K)->33695K(33920K) Class: 4752K(4928K)->4752K(4928K)
[2023-08-26T04:18:46.825+0200][gc          ] GC(8) Pause Young (Mixed) (G1 Evacuation Pause) 197M->147M(1024M) 13,698ms
[2023-08-26T04:18:46.825+0200][gc,cpu      ] GC(8) User=0,04s Sys=0,01s Real=0,02s
[2023-08-26T04:18:47.146+0200][gc,start    ] GC(9) Pause Young (Normal) (G1 Evacuation Pause)
[2023-08-26T04:18:47.146+0200][gc,task     ] GC(9) Using 4 workers of 4 for evacuation
[2023-08-26T04:18:47.151+0200][gc,phases   ] GC(9)   Pre Evacuate Collection Set: 0,2ms
[2023-08-26T04:18:47.151+0200][gc,phases   ] GC(9)   Merge Heap Roots: 0,1ms
[2023-08-26T04:18:47.151+0200][gc,phases   ] GC(9)   Evacuate Collection Set: 3,6ms
[2023-08-26T04:18:47.151+0200][gc,phases   ] GC(9)   Post Evacuate Collection Set: 0,4ms
[2023-08-26T04:18:47.151+0200][gc,phases   ] GC(9)   Other: 0,2ms
[2023-08-26T04:18:47.151+0200][gc,heap     ] GC(9) Eden regions: 50->0(60)
[2023-08-26T04:18:47.151+0200][gc,heap     ] GC(9) Survivor regions: 1->2(7)
[2023-08-26T04:18:47.151+0200][gc,heap     ] GC(9) Old regions: 15->15
[2023-08-26T04:18:47.151+0200][gc,heap     ] GC(9) Archive regions: 2->2
[2023-08-26T04:18:47.151+0200][gc,heap     ] GC(9) Humongous regions: 131->131
[2023-08-26T04:18:47.151+0200][gc,metaspace] GC(9) Metaspace: 38494K(38848K)->38494K(38848K) NonClass: 33734K(33920K)->33734K(33920K) Class: 4760K(4928K)->4760K(4928K)
[2023-08-26T04:18:47.151+0200][gc          ] GC(9) Pause Young (Normal) (G1 Evacuation Pause) 197M->147M(1024M) 4,490ms
[2023-08-26T04:18:47.151+0200][gc,cpu      ] GC(9) User=0,00s Sys=0,01s Real=0,00s
[2023-08-26T04:18:47.589+0200][gc,start    ] GC(10) Pause Young (Normal) (G1 Evacuation Pause)
[2023-08-26T04:18:47.589+0200][gc,task     ] GC(10) Using 4 workers of 4 for evacuation
[2023-08-26T04:18:47.593+0200][gc,phases   ] GC(10)   Pre Evacuate Collection Set: 0,2ms
[2023-08-26T04:18:47.593+0200][gc,phases   ] GC(10)   Merge Heap Roots: 0,1ms
[2023-08-26T04:18:47.593+0200][gc,phases   ] GC(10)   Evacuate Collection Set: 3,9ms
[2023-08-26T04:18:47.593+0200][gc,phases   ] GC(10)   Post Evacuate Collection Set: 0,4ms
[2023-08-26T04:18:47.594+0200][gc,phases   ] GC(10)   Other: 0,2ms
[2023-08-26T04:18:47.594+0200][gc,heap     ] GC(10) Eden regions: 60->0(218)
[2023-08-26T04:18:47.594+0200][gc,heap     ] GC(10) Survivor regions: 2->2(8)
[2023-08-26T04:18:47.594+0200][gc,heap     ] GC(10) Old regions: 15->15
[2023-08-26T04:18:47.594+0200][gc,heap     ] GC(10) Archive regions: 2->2
[2023-08-26T04:18:47.594+0200][gc,heap     ] GC(10) Humongous regions: 131->131
[2023-08-26T04:18:47.594+0200][gc,metaspace] GC(10) Metaspace: 38551K(38912K)->38551K(38912K) NonClass: 33778K(33984K)->33778K(33984K) Class: 4773K(4928K)->4773K(4928K)
[2023-08-26T04:18:47.594+0200][gc          ] GC(10) Pause Young (Normal) (G1 Evacuation Pause) 207M->147M(1024M) 4,985ms
[2023-08-26T04:18:47.594+0200][gc,cpu      ] GC(10) User=0,01s Sys=0,00s Real=0,00s
[2023-08-26T04:18:48.795+0200][gc,start    ] GC(11) Pause Young (Normal) (G1 Evacuation Pause)
[2023-08-26T04:18:48.795+0200][gc,task     ] GC(11) Using 4 workers of 4 for evacuation
[2023-08-26T04:18:48.800+0200][gc,phases   ] GC(11)   Pre Evacuate Collection Set: 0,2ms
[2023-08-26T04:18:48.800+0200][gc,phases   ] GC(11)   Merge Heap Roots: 0,1ms
[2023-08-26T04:18:48.800+0200][gc,phases   ] GC(11)   Evacuate Collection Set: 3,4ms
[2023-08-26T04:18:48.800+0200][gc,phases   ] GC(11)   Post Evacuate Collection Set: 0,5ms
[2023-08-26T04:18:48.800+0200][gc,phases   ] GC(11)   Other: 0,2ms
[2023-08-26T04:18:48.800+0200][gc,heap     ] GC(11) Eden regions: 218->0(448)
[2023-08-26T04:18:48.800+0200][gc,heap     ] GC(11) Survivor regions: 2->2(28)
[2023-08-26T04:18:48.800+0200][gc,heap     ] GC(11) Old regions: 15->15
[2023-08-26T04:18:48.800+0200][gc,heap     ] GC(11) Archive regions: 2->2
[2023-08-26T04:18:48.800+0200][gc,heap     ] GC(11) Humongous regions: 131->131
[2023-08-26T04:18:48.800+0200][gc,metaspace] GC(11) Metaspace: 38624K(38976K)->38624K(38976K) NonClass: 33843K(34048K)->33843K(34048K) Class: 4781K(4928K)->4781K(4928K)
[2023-08-26T04:18:48.800+0200][gc          ] GC(11) Pause Young (Normal) (G1 Evacuation Pause) 365M->148M(1024M) 4,560ms
[2023-08-26T04:18:48.800+0200][gc,cpu      ] GC(11) User=0,02s Sys=0,00s Real=0,01s
[2023-08-26T04:18:50.720+0200][gc,start    ] GC(12) Pause Young (Normal) (G1 Evacuation Pause)
[2023-08-26T04:18:50.720+0200][gc,task     ] GC(12) Using 4 workers of 4 for evacuation
[2023-08-26T04:18:50.725+0200][gc,phases   ] GC(12)   Pre Evacuate Collection Set: 0,2ms
[2023-08-26T04:18:50.725+0200][gc,phases   ] GC(12)   Merge Heap Roots: 0,1ms
[2023-08-26T04:18:50.725+0200][gc,phases   ] GC(12)   Evacuate Collection Set: 4,1ms
[2023-08-26T04:18:50.725+0200][gc,phases   ] GC(12)   Post Evacuate Collection Set: 0,6ms
[2023-08-26T04:18:50.725+0200][gc,phases   ] GC(12)   Other: 0,3ms
[2023-08-26T04:18:50.725+0200][gc,heap     ] GC(12) Eden regions: 448->0(612)
[2023-08-26T04:18:50.725+0200][gc,heap     ] GC(12) Survivor regions: 2->2(57)
[2023-08-26T04:18:50.725+0200][gc,heap     ] GC(12) Old regions: 15->15
[2023-08-26T04:18:50.725+0200][gc,heap     ] GC(12) Archive regions: 2->2
[2023-08-26T04:18:50.725+0200][gc,heap     ] GC(12) Humongous regions: 131->131
[2023-08-26T04:18:50.725+0200][gc,metaspace] GC(12) Metaspace: 38685K(39040K)->38685K(39040K) NonClass: 33904K(34112K)->33904K(34112K) Class: 4781K(4928K)->4781K(4928K)
[2023-08-26T04:18:50.725+0200][gc          ] GC(12) Pause Young (Normal) (G1 Evacuation Pause) 596M->147M(1024M) 5,424ms
[2023-08-26T04:18:50.725+0200][gc,cpu      ] GC(12) User=0,02s Sys=0,00s Real=0,01s
[2023-08-26T04:18:53.053+0200][gc,start    ] GC(13) Pause Young (Normal) (G1 Evacuation Pause)
[2023-08-26T04:18:53.053+0200][gc,task     ] GC(13) Using 4 workers of 4 for evacuation
[2023-08-26T04:18:53.057+0200][gc,phases   ] GC(13)   Pre Evacuate Collection Set: 0,1ms
[2023-08-26T04:18:53.057+0200][gc,phases   ] GC(13)   Merge Heap Roots: 0,1ms
[2023-08-26T04:18:53.057+0200][gc,phases   ] GC(13)   Evacuate Collection Set: 3,4ms
[2023-08-26T04:18:53.057+0200][gc,phases   ] GC(13)   Post Evacuate Collection Set: 0,7ms
[2023-08-26T04:18:53.057+0200][gc,phases   ] GC(13)   Other: 0,3ms
[2023-08-26T04:18:53.057+0200][gc,heap     ] GC(13) Eden regions: 612->0(612)
[2023-08-26T04:18:53.057+0200][gc,heap     ] GC(13) Survivor regions: 2->2(77)
[2023-08-26T04:18:53.057+0200][gc,heap     ] GC(13) Old regions: 15->15
[2023-08-26T04:18:53.057+0200][gc,heap     ] GC(13) Archive regions: 2->2
[2023-08-26T04:18:53.057+0200][gc,heap     ] GC(13) Humongous regions: 131->131
[2023-08-26T04:18:53.057+0200][gc,metaspace] GC(13) Metaspace: 38839K(39296K)->38839K(39296K) NonClass: 34039K(34304K)->34039K(34304K) Class: 4799K(4992K)->4799K(4992K)
[2023-08-26T04:18:53.057+0200][gc          ] GC(13) Pause Young (Normal) (G1 Evacuation Pause) 759M->148M(1024M) 4,794ms
[2023-08-26T04:18:53.057+0200][gc,cpu      ] GC(13) User=0,02s Sys=0,00s Real=0,01s
[2023-08-26T04:18:55.455+0200][gc,start    ] GC(14) Pause Young (Normal) (G1 Evacuation Pause)
[2023-08-26T04:18:55.455+0200][gc,task     ] GC(14) Using 4 workers of 4 for evacuation
[2023-08-26T04:18:55.460+0200][gc,phases   ] GC(14)   Pre Evacuate Collection Set: 0,1ms
[2023-08-26T04:18:55.460+0200][gc,phases   ] GC(14)   Merge Heap Roots: 0,1ms
[2023-08-26T04:18:55.460+0200][gc,phases   ] GC(14)   Evacuate Collection Set: 3,2ms
[2023-08-26T04:18:55.460+0200][gc,phases   ] GC(14)   Post Evacuate Collection Set: 0,7ms
[2023-08-26T04:18:55.460+0200][gc,phases   ] GC(14)   Other: 0,2ms
[2023-08-26T04:18:55.460+0200][gc,heap     ] GC(14) Eden regions: 612->0(612)
[2023-08-26T04:18:55.460+0200][gc,heap     ] GC(14) Survivor regions: 2->2(77)
[2023-08-26T04:18:55.460+0200][gc,heap     ] GC(14) Old regions: 15->15
[2023-08-26T04:18:55.460+0200][gc,heap     ] GC(14) Archive regions: 2->2
[2023-08-26T04:18:55.460+0200][gc,heap     ] GC(14) Humongous regions: 131->131
[2023-08-26T04:18:55.460+0200][gc,metaspace] GC(14) Metaspace: 38891K(39296K)->38891K(39296K) NonClass: 34091K(34304K)->34091K(34304K) Class: 4799K(4992K)->4799K(4992K)
[2023-08-26T04:18:55.460+0200][gc          ] GC(14) Pause Young (Normal) (G1 Evacuation Pause) 760M->147M(1024M) 4,473ms
[2023-08-26T04:18:55.460+0200][gc,cpu      ] GC(14) User=0,01s Sys=0,00s Real=0,01s
[2023-08-26T04:18:58.543+0200][gc,start    ] GC(15) Pause Young (Normal) (G1 Evacuation Pause)
[2023-08-26T04:18:58.543+0200][gc,task     ] GC(15) Using 4 workers of 4 for evacuation
[2023-08-26T04:18:58.551+0200][gc,phases   ] GC(15)   Pre Evacuate Collection Set: 0,3ms
[2023-08-26T04:18:58.551+0200][gc,phases   ] GC(15)   Merge Heap Roots: 0,2ms
[2023-08-26T04:18:58.551+0200][gc,phases   ] GC(15)   Evacuate Collection Set: 6,4ms
[2023-08-26T04:18:58.551+0200][gc,phases   ] GC(15)   Post Evacuate Collection Set: 1,4ms
[2023-08-26T04:18:58.551+0200][gc,phases   ] GC(15)   Other: 0,2ms
[2023-08-26T04:18:58.551+0200][gc,heap     ] GC(15) Eden regions: 612->0(612)
[2023-08-26T04:18:58.551+0200][gc,heap     ] GC(15) Survivor regions: 2->2(77)
[2023-08-26T04:18:58.551+0200][gc,heap     ] GC(15) Old regions: 15->15
[2023-08-26T04:18:58.551+0200][gc,heap     ] GC(15) Archive regions: 2->2
[2023-08-26T04:18:58.551+0200][gc,heap     ] GC(15) Humongous regions: 131->131
[2023-08-26T04:18:58.551+0200][gc,metaspace] GC(15) Metaspace: 39108K(39616K)->39108K(39616K) NonClass: 34277K(34560K)->34277K(34560K) Class: 4830K(5056K)->4830K(5056K)
[2023-08-26T04:18:58.551+0200][gc          ] GC(15) Pause Young (Normal) (G1 Evacuation Pause) 759M->148M(1024M) 8,767ms
[2023-08-26T04:18:58.551+0200][gc,cpu      ] GC(15) User=0,02s Sys=0,00s Real=0,01s
[2023-08-26T04:19:01.259+0200][gc,start    ] GC(16) Pause Young (Normal) (G1 Evacuation Pause)
[2023-08-26T04:19:01.259+0200][gc,task     ] GC(16) Using 4 workers of 4 for evacuation
[2023-08-26T04:19:01.265+0200][gc,phases   ] GC(16)   Pre Evacuate Collection Set: 0,2ms
[2023-08-26T04:19:01.265+0200][gc,phases   ] GC(16)   Merge Heap Roots: 0,2ms
[2023-08-26T04:19:01.265+0200][gc,phases   ] GC(16)   Evacuate Collection Set: 3,4ms
[2023-08-26T04:19:01.265+0200][gc,phases   ] GC(16)   Post Evacuate Collection Set: 1,2ms
[2023-08-26T04:19:01.265+0200][gc,phases   ] GC(16)   Other: 0,2ms
[2023-08-26T04:19:01.265+0200][gc,heap     ] GC(16) Eden regions: 612->0(612)
[2023-08-26T04:19:01.265+0200][gc,heap     ] GC(16) Survivor regions: 2->2(77)
[2023-08-26T04:19:01.265+0200][gc,heap     ] GC(16) Old regions: 15->15
[2023-08-26T04:19:01.265+0200][gc,heap     ] GC(16) Archive regions: 2->2
[2023-08-26T04:19:01.265+0200][gc,heap     ] GC(16) Humongous regions: 131->131
[2023-08-26T04:19:01.265+0200][gc,metaspace] GC(16) Metaspace: 39179K(39616K)->39179K(39616K) NonClass: 34337K(34560K)->34337K(34560K) Class: 4841K(5056K)->4841K(5056K)
[2023-08-26T04:19:01.265+0200][gc          ] GC(16) Pause Young (Normal) (G1 Evacuation Pause) 760M->148M(1024M) 5,390ms
[2023-08-26T04:19:01.265+0200][gc,cpu      ] GC(16) User=0,01s Sys=0,01s Real=0,01s
[2023-08-26T04:19:04.006+0200][gc,start    ] GC(17) Pause Young (Normal) (G1 Evacuation Pause)
[2023-08-26T04:19:04.006+0200][gc,task     ] GC(17) Using 4 workers of 4 for evacuation
[2023-08-26T04:19:04.010+0200][gc,phases   ] GC(17)   Pre Evacuate Collection Set: 0,1ms
[2023-08-26T04:19:04.011+0200][gc,phases   ] GC(17)   Merge Heap Roots: 0,1ms
[2023-08-26T04:19:04.011+0200][gc,phases   ] GC(17)   Evacuate Collection Set: 3,1ms
[2023-08-26T04:19:04.011+0200][gc,phases   ] GC(17)   Post Evacuate Collection Set: 0,7ms
[2023-08-26T04:19:04.011+0200][gc,phases   ] GC(17)   Other: 0,2ms
[2023-08-26T04:19:04.011+0200][gc,heap     ] GC(17) Eden regions: 612->0(612)
[2023-08-26T04:19:04.011+0200][gc,heap     ] GC(17) Survivor regions: 2->2(77)
[2023-08-26T04:19:04.011+0200][gc,heap     ] GC(17) Old regions: 15->15
[2023-08-26T04:19:04.011+0200][gc,heap     ] GC(17) Archive regions: 2->2
[2023-08-26T04:19:04.011+0200][gc,heap     ] GC(17) Humongous regions: 131->131
[2023-08-26T04:19:04.011+0200][gc,metaspace] GC(17) Metaspace: 39215K(39616K)->39215K(39616K) NonClass: 34372K(34560K)->34372K(34560K) Class: 4843K(5056K)->4843K(5056K)
[2023-08-26T04:19:04.011+0200][gc          ] GC(17) Pause Young (Normal) (G1 Evacuation Pause) 760M->148M(1024M) 4,309ms
[2023-08-26T04:19:04.011+0200][gc,cpu      ] GC(17) User=0,01s Sys=0,00s Real=0,00s
[2023-08-26T04:19:06.672+0200][gc,start    ] GC(18) Pause Young (Normal) (G1 Evacuation Pause)
[2023-08-26T04:19:06.672+0200][gc,task     ] GC(18) Using 4 workers of 4 for evacuation
[2023-08-26T04:19:06.679+0200][gc,phases   ] GC(18)   Pre Evacuate Collection Set: 0,1ms
[2023-08-26T04:19:06.679+0200][gc,phases   ] GC(18)   Merge Heap Roots: 0,2ms
[2023-08-26T04:19:06.679+0200][gc,phases   ] GC(18)   Evacuate Collection Set: 5,9ms
[2023-08-26T04:19:06.679+0200][gc,phases   ] GC(18)   Post Evacuate Collection Set: 1,0ms
[2023-08-26T04:19:06.679+0200][gc,phases   ] GC(18)   Other: 0,2ms
[2023-08-26T04:19:06.679+0200][gc,heap     ] GC(18) Eden regions: 612->0(612)
[2023-08-26T04:19:06.679+0200][gc,heap     ] GC(18) Survivor regions: 2->2(77)
[2023-08-26T04:19:06.679+0200][gc,heap     ] GC(18) Old regions: 15->15
[2023-08-26T04:19:06.679+0200][gc,heap     ] GC(18) Archive regions: 2->2
[2023-08-26T04:19:06.679+0200][gc,heap     ] GC(18) Humongous regions: 131->131
[2023-08-26T04:19:06.679+0200][gc,metaspace] GC(18) Metaspace: 39241K(39744K)->39241K(39744K) NonClass: 34397K(34688K)->34397K(34688K) Class: 4843K(5056K)->4843K(5056K)
[2023-08-26T04:19:06.680+0200][gc          ] GC(18) Pause Young (Normal) (G1 Evacuation Pause) 760M->148M(1024M) 7,586ms
[2023-08-26T04:19:06.680+0200][gc,cpu      ] GC(18) User=0,01s Sys=0,00s Real=0,01s
[2023-08-26T04:19:09.491+0200][gc,start    ] GC(19) Pause Young (Normal) (G1 Evacuation Pause)
[2023-08-26T04:19:09.491+0200][gc,task     ] GC(19) Using 4 workers of 4 for evacuation
[2023-08-26T04:19:09.496+0200][gc,phases   ] GC(19)   Pre Evacuate Collection Set: 0,1ms
[2023-08-26T04:19:09.496+0200][gc,phases   ] GC(19)   Merge Heap Roots: 0,1ms
[2023-08-26T04:19:09.496+0200][gc,phases   ] GC(19)   Evacuate Collection Set: 3,2ms
[2023-08-26T04:19:09.496+0200][gc,phases   ] GC(19)   Post Evacuate Collection Set: 0,7ms
[2023-08-26T04:19:09.496+0200][gc,phases   ] GC(19)   Other: 0,2ms
[2023-08-26T04:19:09.496+0200][gc,heap     ] GC(19) Eden regions: 612->0(612)
[2023-08-26T04:19:09.496+0200][gc,heap     ] GC(19) Survivor regions: 2->2(77)
[2023-08-26T04:19:09.496+0200][gc,heap     ] GC(19) Old regions: 15->15
[2023-08-26T04:19:09.496+0200][gc,heap     ] GC(19) Archive regions: 2->2
[2023-08-26T04:19:09.496+0200][gc,heap     ] GC(19) Humongous regions: 131->131
[2023-08-26T04:19:09.496+0200][gc,metaspace] GC(19) Metaspace: 39272K(39744K)->39272K(39744K) NonClass: 34429K(34688K)->34429K(34688K) Class: 4843K(5056K)->4843K(5056K)
[2023-08-26T04:19:09.496+0200][gc          ] GC(19) Pause Young (Normal) (G1 Evacuation Pause) 760M->148M(1024M) 4,447ms
[2023-08-26T04:19:09.496+0200][gc,cpu      ] GC(19) User=0,01s Sys=0,00s Real=0,01s
[2023-08-26T04:19:12.470+0200][gc,start    ] GC(20) Pause Young (Normal) (G1 Evacuation Pause)
[2023-08-26T04:19:12.470+0200][gc,task     ] GC(20) Using 4 workers of 4 for evacuation
[2023-08-26T04:19:12.474+0200][gc,phases   ] GC(20)   Pre Evacuate Collection Set: 0,3ms
[2023-08-26T04:19:12.474+0200][gc,phases   ] GC(20)   Merge Heap Roots: 0,1ms
[2023-08-26T04:19:12.474+0200][gc,phases   ] GC(20)   Evacuate Collection Set: 3,4ms
[2023-08-26T04:19:12.474+0200][gc,phases   ] GC(20)   Post Evacuate Collection Set: 0,8ms
[2023-08-26T04:19:12.474+0200][gc,phases   ] GC(20)   Other: 0,2ms
[2023-08-26T04:19:12.474+0200][gc,heap     ] GC(20) Eden regions: 612->0(612)
[2023-08-26T04:19:12.474+0200][gc,heap     ] GC(20) Survivor regions: 2->2(77)
[2023-08-26T04:19:12.474+0200][gc,heap     ] GC(20) Old regions: 15->15
[2023-08-26T04:19:12.475+0200][gc,heap     ] GC(20) Archive regions: 2->2
[2023-08-26T04:19:12.475+0200][gc,heap     ] GC(20) Humongous regions: 131->131
[2023-08-26T04:19:12.475+0200][gc,metaspace] GC(20) Metaspace: 39335K(39744K)->39335K(39744K) NonClass: 34492K(34688K)->34492K(34688K) Class: 4843K(5056K)->4843K(5056K)
[2023-08-26T04:19:12.475+0200][gc          ] GC(20) Pause Young (Normal) (G1 Evacuation Pause) 760M->148M(1024M) 5,007ms
[2023-08-26T04:19:12.475+0200][gc,cpu      ] GC(20) User=0,01s Sys=0,00s Real=0,00s
[2023-08-26T04:19:15.231+0200][gc,start    ] GC(21) Pause Young (Normal) (G1 Evacuation Pause)
[2023-08-26T04:19:15.231+0200][gc,task     ] GC(21) Using 4 workers of 4 for evacuation
[2023-08-26T04:19:15.234+0200][gc,phases   ] GC(21)   Pre Evacuate Collection Set: 0,1ms
[2023-08-26T04:19:15.235+0200][gc,phases   ] GC(21)   Merge Heap Roots: 0,1ms
[2023-08-26T04:19:15.235+0200][gc,phases   ] GC(21)   Evacuate Collection Set: 2,5ms
[2023-08-26T04:19:15.235+0200][gc,phases   ] GC(21)   Post Evacuate Collection Set: 0,6ms
[2023-08-26T04:19:15.235+0200][gc,phases   ] GC(21)   Other: 0,2ms
[2023-08-26T04:19:15.235+0200][gc,heap     ] GC(21) Eden regions: 612->0(612)
[2023-08-26T04:19:15.235+0200][gc,heap     ] GC(21) Survivor regions: 2->2(77)
[2023-08-26T04:19:15.235+0200][gc,heap     ] GC(21) Old regions: 15->15
[2023-08-26T04:19:15.235+0200][gc,heap     ] GC(21) Archive regions: 2->2
[2023-08-26T04:19:15.235+0200][gc,heap     ] GC(21) Humongous regions: 131->131
[2023-08-26T04:19:15.235+0200][gc,metaspace] GC(21) Metaspace: 39562K(40000K)->39562K(40000K) NonClass: 34692K(34944K)->34692K(34944K) Class: 4870K(5056K)->4870K(5056K)
[2023-08-26T04:19:15.235+0200][gc          ] GC(21) Pause Young (Normal) (G1 Evacuation Pause) 760M->148M(1024M) 3,660ms
[2023-08-26T04:19:15.235+0200][gc,cpu      ] GC(21) User=0,01s Sys=0,00s Real=0,00s
[2023-08-26T04:19:18.107+0200][gc,start    ] GC(22) Pause Young (Normal) (G1 Evacuation Pause)
[2023-08-26T04:19:18.107+0200][gc,task     ] GC(22) Using 4 workers of 4 for evacuation
[2023-08-26T04:19:18.111+0200][gc,phases   ] GC(22)   Pre Evacuate Collection Set: 0,1ms
[2023-08-26T04:19:18.111+0200][gc,phases   ] GC(22)   Merge Heap Roots: 0,1ms
[2023-08-26T04:19:18.111+0200][gc,phases   ] GC(22)   Evacuate Collection Set: 2,6ms
[2023-08-26T04:19:18.111+0200][gc,phases   ] GC(22)   Post Evacuate Collection Set: 0,7ms
[2023-08-26T04:19:18.111+0200][gc,phases   ] GC(22)   Other: 0,2ms
[2023-08-26T04:19:18.111+0200][gc,heap     ] GC(22) Eden regions: 612->0(612)
[2023-08-26T04:19:18.111+0200][gc,heap     ] GC(22) Survivor regions: 2->2(77)
[2023-08-26T04:19:18.111+0200][gc,heap     ] GC(22) Old regions: 15->15
[2023-08-26T04:19:18.111+0200][gc,heap     ] GC(22) Archive regions: 2->2
[2023-08-26T04:19:18.111+0200][gc,heap     ] GC(22) Humongous regions: 131->131
[2023-08-26T04:19:18.111+0200][gc,metaspace] GC(22) Metaspace: 39580K(40000K)->39580K(40000K) NonClass: 34710K(34944K)->34710K(34944K) Class: 4870K(5056K)->4870K(5056K)
[2023-08-26T04:19:18.111+0200][gc          ] GC(22) Pause Young (Normal) (G1 Evacuation Pause) 760M->148M(1024M) 3,856ms
[2023-08-26T04:19:18.111+0200][gc,cpu      ] GC(22) User=0,02s Sys=0,00s Real=0,00s
[2023-08-26T04:19:20.656+0200][gc,start    ] GC(23) Pause Young (Normal) (G1 Evacuation Pause)
[2023-08-26T04:19:20.656+0200][gc,task     ] GC(23) Using 4 workers of 4 for evacuation
[2023-08-26T04:19:20.659+0200][gc,phases   ] GC(23)   Pre Evacuate Collection Set: 0,2ms
[2023-08-26T04:19:20.659+0200][gc,phases   ] GC(23)   Merge Heap Roots: 0,1ms
[2023-08-26T04:19:20.659+0200][gc,phases   ] GC(23)   Evacuate Collection Set: 2,0ms
[2023-08-26T04:19:20.659+0200][gc,phases   ] GC(23)   Post Evacuate Collection Set: 0,7ms
[2023-08-26T04:19:20.659+0200][gc,phases   ] GC(23)   Other: 0,2ms
[2023-08-26T04:19:20.659+0200][gc,heap     ] GC(23) Eden regions: 612->0(612)
[2023-08-26T04:19:20.659+0200][gc,heap     ] GC(23) Survivor regions: 2->2(77)
[2023-08-26T04:19:20.659+0200][gc,heap     ] GC(23) Old regions: 15->16
[2023-08-26T04:19:20.659+0200][gc,heap     ] GC(23) Archive regions: 2->2
[2023-08-26T04:19:20.659+0200][gc,heap     ] GC(23) Humongous regions: 131->131
[2023-08-26T04:19:20.659+0200][gc,metaspace] GC(23) Metaspace: 39596K(40000K)->39596K(40000K) NonClass: 34726K(34944K)->34726K(34944K) Class: 4870K(5056K)->4870K(5056K)
[2023-08-26T04:19:20.659+0200][gc          ] GC(23) Pause Young (Normal) (G1 Evacuation Pause) 760M->148M(1024M) 3,380ms
[2023-08-26T04:19:20.659+0200][gc,cpu      ] GC(23) User=0,00s Sys=0,01s Real=0,01s
[2023-08-26T04:19:23.445+0200][gc,start    ] GC(24) Pause Young (Normal) (G1 Evacuation Pause)
[2023-08-26T04:19:23.445+0200][gc,task     ] GC(24) Using 4 workers of 4 for evacuation
[2023-08-26T04:19:23.448+0200][gc,phases   ] GC(24)   Pre Evacuate Collection Set: 0,1ms
[2023-08-26T04:19:23.448+0200][gc,phases   ] GC(24)   Merge Heap Roots: 0,1ms
[2023-08-26T04:19:23.448+0200][gc,phases   ] GC(24)   Evacuate Collection Set: 2,0ms
[2023-08-26T04:19:23.448+0200][gc,phases   ] GC(24)   Post Evacuate Collection Set: 0,6ms
[2023-08-26T04:19:23.448+0200][gc,phases   ] GC(24)   Other: 0,2ms
[2023-08-26T04:19:23.448+0200][gc,heap     ] GC(24) Eden regions: 612->0(613)
[2023-08-26T04:19:23.448+0200][gc,heap     ] GC(24) Survivor regions: 2->1(77)
[2023-08-26T04:19:23.448+0200][gc,heap     ] GC(24) Old regions: 16->16
[2023-08-26T04:19:23.448+0200][gc,heap     ] GC(24) Archive regions: 2->2
[2023-08-26T04:19:23.448+0200][gc,heap     ] GC(24) Humongous regions: 131->131
[2023-08-26T04:19:23.448+0200][gc,metaspace] GC(24) Metaspace: 39603K(40064K)->39603K(40064K) NonClass: 34733K(35008K)->34733K(35008K) Class: 4870K(5056K)->4870K(5056K)
[2023-08-26T04:19:23.448+0200][gc          ] GC(24) Pause Young (Normal) (G1 Evacuation Pause) 760M->148M(1024M) 3,252ms
[2023-08-26T04:19:23.448+0200][gc,cpu      ] GC(24) User=0,01s Sys=0,00s Real=0,00s
[2023-08-26T04:19:26.421+0200][gc,start    ] GC(25) Pause Young (Normal) (G1 Evacuation Pause)
[2023-08-26T04:19:26.421+0200][gc,task     ] GC(25) Using 4 workers of 4 for evacuation
[2023-08-26T04:19:26.423+0200][gc,phases   ] GC(25)   Pre Evacuate Collection Set: 0,1ms
[2023-08-26T04:19:26.423+0200][gc,phases   ] GC(25)   Merge Heap Roots: 0,1ms
[2023-08-26T04:19:26.423+0200][gc,phases   ] GC(25)   Evacuate Collection Set: 1,3ms
[2023-08-26T04:19:26.423+0200][gc,phases   ] GC(25)   Post Evacuate Collection Set: 0,6ms
[2023-08-26T04:19:26.423+0200][gc,phases   ] GC(25)   Other: 0,2ms
[2023-08-26T04:19:26.423+0200][gc,heap     ] GC(25) Eden regions: 613->0(613)
[2023-08-26T04:19:26.423+0200][gc,heap     ] GC(25) Survivor regions: 1->1(77)
[2023-08-26T04:19:26.423+0200][gc,heap     ] GC(25) Old regions: 16->16
[2023-08-26T04:19:26.423+0200][gc,heap     ] GC(25) Archive regions: 2->2
[2023-08-26T04:19:26.423+0200][gc,heap     ] GC(25) Humongous regions: 131->131
[2023-08-26T04:19:26.423+0200][gc,metaspace] GC(25) Metaspace: 39618K(40064K)->39618K(40064K) NonClass: 34748K(35008K)->34748K(35008K) Class: 4870K(5056K)->4870K(5056K)
[2023-08-26T04:19:26.423+0200][gc          ] GC(25) Pause Young (Normal) (G1 Evacuation Pause) 761M->148M(1024M) 2,381ms
[2023-08-26T04:19:26.423+0200][gc,cpu      ] GC(25) User=0,01s Sys=0,00s Real=0,00s
[2023-08-26T04:19:29.446+0200][gc,start    ] GC(26) Pause Young (Normal) (G1 Evacuation Pause)
[2023-08-26T04:19:29.446+0200][gc,task     ] GC(26) Using 4 workers of 4 for evacuation
[2023-08-26T04:19:29.448+0200][gc,phases   ] GC(26)   Pre Evacuate Collection Set: 0,2ms
[2023-08-26T04:19:29.448+0200][gc,phases   ] GC(26)   Merge Heap Roots: 0,1ms
[2023-08-26T04:19:29.448+0200][gc,phases   ] GC(26)   Evacuate Collection Set: 1,5ms
[2023-08-26T04:19:29.448+0200][gc,phases   ] GC(26)   Post Evacuate Collection Set: 0,9ms
[2023-08-26T04:19:29.449+0200][gc,phases   ] GC(26)   Other: 0,2ms
[2023-08-26T04:19:29.449+0200][gc,heap     ] GC(26) Eden regions: 613->0(613)
[2023-08-26T04:19:29.449+0200][gc,heap     ] GC(26) Survivor regions: 1->1(77)
[2023-08-26T04:19:29.449+0200][gc,heap     ] GC(26) Old regions: 16->16
[2023-08-26T04:19:29.449+0200][gc,heap     ] GC(26) Archive regions: 2->2
[2023-08-26T04:19:29.449+0200][gc,heap     ] GC(26) Humongous regions: 131->131
[2023-08-26T04:19:29.449+0200][gc,metaspace] GC(26) Metaspace: 39639K(40064K)->39639K(40064K) NonClass: 34769K(35008K)->34769K(35008K) Class: 4870K(5056K)->4870K(5056K)
[2023-08-26T04:19:29.449+0200][gc          ] GC(26) Pause Young (Normal) (G1 Evacuation Pause) 761M->148M(1024M) 3,054ms
[2023-08-26T04:19:29.449+0200][gc,cpu      ] GC(26) User=0,00s Sys=0,00s Real=0,00s
[2023-08-26T04:19:32.263+0200][gc,start    ] GC(27) Pause Young (Normal) (G1 Evacuation Pause)
[2023-08-26T04:19:32.263+0200][gc,task     ] GC(27) Using 4 workers of 4 for evacuation
[2023-08-26T04:19:32.268+0200][gc,phases   ] GC(27)   Pre Evacuate Collection Set: 0,3ms
[2023-08-26T04:19:32.268+0200][gc,phases   ] GC(27)   Merge Heap Roots: 0,2ms
[2023-08-26T04:19:32.268+0200][gc,phases   ] GC(27)   Evacuate Collection Set: 3,6ms
[2023-08-26T04:19:32.269+0200][gc,phases   ] GC(27)   Post Evacuate Collection Set: 1,2ms
[2023-08-26T04:19:32.269+0200][gc,phases   ] GC(27)   Other: 0,2ms
[2023-08-26T04:19:32.269+0200][gc,heap     ] GC(27) Eden regions: 613->0(613)
[2023-08-26T04:19:32.269+0200][gc,heap     ] GC(27) Survivor regions: 1->1(77)
[2023-08-26T04:19:32.269+0200][gc,heap     ] GC(27) Old regions: 16->16
[2023-08-26T04:19:32.269+0200][gc,heap     ] GC(27) Archive regions: 2->2
[2023-08-26T04:19:32.269+0200][gc,heap     ] GC(27) Humongous regions: 131->131
[2023-08-26T04:19:32.269+0200][gc,metaspace] GC(27) Metaspace: 39654K(40064K)->39654K(40064K) NonClass: 34784K(35008K)->34784K(35008K) Class: 4870K(5056K)->4870K(5056K)
[2023-08-26T04:19:32.269+0200][gc          ] GC(27) Pause Young (Normal) (G1 Evacuation Pause) 761M->148M(1024M) 5,655ms
[2023-08-26T04:19:32.269+0200][gc,cpu      ] GC(27) User=0,00s Sys=0,00s Real=0,01s
[2023-08-26T04:19:35.918+0200][gc,start    ] GC(28) Pause Young (Normal) (G1 Evacuation Pause)
[2023-08-26T04:19:35.918+0200][gc,task     ] GC(28) Using 4 workers of 4 for evacuation
[2023-08-26T04:19:35.922+0200][gc,phases   ] GC(28)   Pre Evacuate Collection Set: 0,2ms
[2023-08-26T04:19:35.922+0200][gc,phases   ] GC(28)   Merge Heap Roots: 0,1ms
[2023-08-26T04:19:35.922+0200][gc,phases   ] GC(28)   Evacuate Collection Set: 2,1ms
[2023-08-26T04:19:35.922+0200][gc,phases   ] GC(28)   Post Evacuate Collection Set: 0,9ms
[2023-08-26T04:19:35.922+0200][gc,phases   ] GC(28)   Other: 0,2ms
[2023-08-26T04:19:35.922+0200][gc,heap     ] GC(28) Eden regions: 613->0(613)
[2023-08-26T04:19:35.922+0200][gc,heap     ] GC(28) Survivor regions: 1->1(77)
[2023-08-26T04:19:35.922+0200][gc,heap     ] GC(28) Old regions: 16->16
[2023-08-26T04:19:35.922+0200][gc,heap     ] GC(28) Archive regions: 2->2
[2023-08-26T04:19:35.922+0200][gc,heap     ] GC(28) Humongous regions: 131->131
[2023-08-26T04:19:35.922+0200][gc,metaspace] GC(28) Metaspace: 39673K(40064K)->39673K(40064K) NonClass: 34803K(35008K)->34803K(35008K) Class: 4870K(5056K)->4870K(5056K)
[2023-08-26T04:19:35.922+0200][gc          ] GC(28) Pause Young (Normal) (G1 Evacuation Pause) 761M->148M(1024M) 3,722ms
[2023-08-26T04:19:35.922+0200][gc,cpu      ] GC(28) User=0,01s Sys=0,00s Real=0,00s
[2023-08-26T04:19:39.952+0200][gc,start    ] GC(29) Pause Young (Normal) (G1 Evacuation Pause)
[2023-08-26T04:19:39.952+0200][gc,task     ] GC(29) Using 4 workers of 4 for evacuation
[2023-08-26T04:19:39.956+0200][gc,phases   ] GC(29)   Pre Evacuate Collection Set: 0,2ms
[2023-08-26T04:19:39.956+0200][gc,phases   ] GC(29)   Merge Heap Roots: 0,1ms
[2023-08-26T04:19:39.956+0200][gc,phases   ] GC(29)   Evacuate Collection Set: 2,6ms
[2023-08-26T04:19:39.956+0200][gc,phases   ] GC(29)   Post Evacuate Collection Set: 0,9ms
[2023-08-26T04:19:39.956+0200][gc,phases   ] GC(29)   Other: 0,2ms
[2023-08-26T04:19:39.956+0200][gc,heap     ] GC(29) Eden regions: 613->0(613)
[2023-08-26T04:19:39.956+0200][gc,heap     ] GC(29) Survivor regions: 1->1(77)
[2023-08-26T04:19:39.956+0200][gc,heap     ] GC(29) Old regions: 16->16
[2023-08-26T04:19:39.956+0200][gc,heap     ] GC(29) Archive regions: 2->2
[2023-08-26T04:19:39.956+0200][gc,heap     ] GC(29) Humongous regions: 131->131
[2023-08-26T04:19:39.956+0200][gc,metaspace] GC(29) Metaspace: 39683K(40128K)->39683K(40128K) NonClass: 34813K(35072K)->34813K(35072K) Class: 4870K(5056K)->4870K(5056K)
[2023-08-26T04:19:39.956+0200][gc          ] GC(29) Pause Young (Normal) (G1 Evacuation Pause) 761M->148M(1024M) 4,188ms
[2023-08-26T04:19:39.957+0200][gc,cpu      ] GC(29) User=0,01s Sys=0,00s Real=0,01s
[2023-08-26T04:19:43.977+0200][gc,start    ] GC(30) Pause Young (Normal) (G1 Evacuation Pause)
[2023-08-26T04:19:43.977+0200][gc,task     ] GC(30) Using 4 workers of 4 for evacuation
[2023-08-26T04:19:43.983+0200][gc,phases   ] GC(30)   Pre Evacuate Collection Set: 0,3ms
[2023-08-26T04:19:43.983+0200][gc,phases   ] GC(30)   Merge Heap Roots: 0,2ms
[2023-08-26T04:19:43.983+0200][gc,phases   ] GC(30)   Evacuate Collection Set: 3,8ms
[2023-08-26T04:19:43.983+0200][gc,phases   ] GC(30)   Post Evacuate Collection Set: 1,3ms
[2023-08-26T04:19:43.983+0200][gc,phases   ] GC(30)   Other: 0,2ms
[2023-08-26T04:19:43.983+0200][gc,heap     ] GC(30) Eden regions: 613->0(613)
[2023-08-26T04:19:43.983+0200][gc,heap     ] GC(30) Survivor regions: 1->1(77)
[2023-08-26T04:19:43.983+0200][gc,heap     ] GC(30) Old regions: 16->16
[2023-08-26T04:19:43.983+0200][gc,heap     ] GC(30) Archive regions: 2->2
[2023-08-26T04:19:43.983+0200][gc,heap     ] GC(30) Humongous regions: 131->131
[2023-08-26T04:19:43.983+0200][gc,metaspace] GC(30) Metaspace: 39692K(40128K)->39692K(40128K) NonClass: 34822K(35072K)->34822K(35072K) Class: 4870K(5056K)->4870K(5056K)
[2023-08-26T04:19:43.983+0200][gc          ] GC(30) Pause Young (Normal) (G1 Evacuation Pause) 761M->148M(1024M) 6,077ms
[2023-08-26T04:19:43.983+0200][gc,cpu      ] GC(30) User=0,00s Sys=0,00s Real=0,00s
[2023-08-26T04:19:48.612+0200][gc,start    ] GC(31) Pause Young (Normal) (G1 Evacuation Pause)
[2023-08-26T04:19:48.613+0200][gc,task     ] GC(31) Using 4 workers of 4 for evacuation
[2023-08-26T04:19:48.616+0200][gc,phases   ] GC(31)   Pre Evacuate Collection Set: 0,2ms
[2023-08-26T04:19:48.616+0200][gc,phases   ] GC(31)   Merge Heap Roots: 0,1ms
[2023-08-26T04:19:48.616+0200][gc,phases   ] GC(31)   Evacuate Collection Set: 1,7ms
[2023-08-26T04:19:48.616+0200][gc,phases   ] GC(31)   Post Evacuate Collection Set: 0,9ms
[2023-08-26T04:19:48.616+0200][gc,phases   ] GC(31)   Other: 0,3ms
[2023-08-26T04:19:48.616+0200][gc,heap     ] GC(31) Eden regions: 613->0(613)
[2023-08-26T04:19:48.616+0200][gc,heap     ] GC(31) Survivor regions: 1->1(77)
[2023-08-26T04:19:48.616+0200][gc,heap     ] GC(31) Old regions: 16->16
[2023-08-26T04:19:48.616+0200][gc,heap     ] GC(31) Archive regions: 2->2
[2023-08-26T04:19:48.616+0200][gc,heap     ] GC(31) Humongous regions: 131->131
[2023-08-26T04:19:48.616+0200][gc,metaspace] GC(31) Metaspace: 39697K(40128K)->39697K(40128K) NonClass: 34826K(35072K)->34826K(35072K) Class: 4870K(5056K)->4870K(5056K)
[2023-08-26T04:19:48.616+0200][gc          ] GC(31) Pause Young (Normal) (G1 Evacuation Pause) 761M->148M(1024M) 3,467ms
[2023-08-26T04:19:48.616+0200][gc,cpu      ] GC(31) User=0,01s Sys=0,00s Real=0,01s
[2023-08-26T04:19:52.603+0200][gc,start    ] GC(32) Pause Young (Normal) (G1 Evacuation Pause)
[2023-08-26T04:19:52.603+0200][gc,task     ] GC(32) Using 4 workers of 4 for evacuation
[2023-08-26T04:19:52.619+0200][gc,phases   ] GC(32)   Pre Evacuate Collection Set: 0,5ms
[2023-08-26T04:19:52.619+0200][gc,phases   ] GC(32)   Merge Heap Roots: 0,3ms
[2023-08-26T04:19:52.619+0200][gc,phases   ] GC(32)   Evacuate Collection Set: 12,7ms
[2023-08-26T04:19:52.619+0200][gc,phases   ] GC(32)   Post Evacuate Collection Set: 1,6ms
[2023-08-26T04:19:52.619+0200][gc,phases   ] GC(32)   Other: 0,4ms
[2023-08-26T04:19:52.619+0200][gc,heap     ] GC(32) Eden regions: 613->0(611)
[2023-08-26T04:19:52.619+0200][gc,heap     ] GC(32) Survivor regions: 1->3(77)
[2023-08-26T04:19:52.619+0200][gc,heap     ] GC(32) Old regions: 16->16
[2023-08-26T04:19:52.619+0200][gc,heap     ] GC(32) Archive regions: 2->2
[2023-08-26T04:19:52.619+0200][gc,heap     ] GC(32) Humongous regions: 131->131
[2023-08-26T04:19:52.619+0200][gc,metaspace] GC(32) Metaspace: 44180K(44928K)->44180K(44928K) NonClass: 38571K(38976K)->38571K(38976K) Class: 5608K(5952K)->5608K(5952K)
[2023-08-26T04:19:52.619+0200][gc          ] GC(32) Pause Young (Normal) (G1 Evacuation Pause) 761M->150M(1024M) 15,742ms
[2023-08-26T04:19:52.619+0200][gc,cpu      ] GC(32) User=0,04s Sys=0,00s Real=0,02s
[2023-08-26T04:19:56.364+0200][gc,start    ] GC(33) Pause Young (Normal) (G1 Evacuation Pause)
[2023-08-26T04:19:56.364+0200][gc,task     ] GC(33) Using 4 workers of 4 for evacuation
[2023-08-26T04:19:56.373+0200][gc,phases   ] GC(33)   Pre Evacuate Collection Set: 0,2ms
[2023-08-26T04:19:56.373+0200][gc,phases   ] GC(33)   Merge Heap Roots: 0,2ms
[2023-08-26T04:19:56.373+0200][gc,phases   ] GC(33)   Evacuate Collection Set: 7,6ms
[2023-08-26T04:19:56.373+0200][gc,phases   ] GC(33)   Post Evacuate Collection Set: 1,2ms
[2023-08-26T04:19:56.373+0200][gc,phases   ] GC(33)   Other: 0,2ms
[2023-08-26T04:19:56.373+0200][gc,heap     ] GC(33) Eden regions: 611->0(610)
[2023-08-26T04:19:56.373+0200][gc,heap     ] GC(33) Survivor regions: 3->4(77)
[2023-08-26T04:19:56.373+0200][gc,heap     ] GC(33) Old regions: 16->16
[2023-08-26T04:19:56.373+0200][gc,heap     ] GC(33) Archive regions: 2->2
[2023-08-26T04:19:56.373+0200][gc,heap     ] GC(33) Humongous regions: 131->131
[2023-08-26T04:19:56.373+0200][gc,metaspace] GC(33) Metaspace: 44225K(44928K)->44225K(44928K) NonClass: 38611K(38976K)->38611K(38976K) Class: 5614K(5952K)->5614K(5952K)
[2023-08-26T04:19:56.373+0200][gc          ] GC(33) Pause Young (Normal) (G1 Evacuation Pause) 761M->151M(1024M) 9,591ms
[2023-08-26T04:19:56.374+0200][gc,cpu      ] GC(33) User=0,02s Sys=0,00s Real=0,00s
[2023-08-26T04:19:59.528+0200][gc,start    ] GC(34) Pause Young (Normal) (G1 Evacuation Pause)
[2023-08-26T04:19:59.528+0200][gc,task     ] GC(34) Using 4 workers of 4 for evacuation
[2023-08-26T04:19:59.534+0200][gc,phases   ] GC(34)   Pre Evacuate Collection Set: 0,2ms
[2023-08-26T04:19:59.534+0200][gc,phases   ] GC(34)   Merge Heap Roots: 0,1ms
[2023-08-26T04:19:59.534+0200][gc,phases   ] GC(34)   Evacuate Collection Set: 4,8ms
[2023-08-26T04:19:59.534+0200][gc,phases   ] GC(34)   Post Evacuate Collection Set: 1,0ms
[2023-08-26T04:19:59.534+0200][gc,phases   ] GC(34)   Other: 0,2ms
[2023-08-26T04:19:59.534+0200][gc,heap     ] GC(34) Eden regions: 610->0(610)
[2023-08-26T04:19:59.534+0200][gc,heap     ] GC(34) Survivor regions: 4->4(77)
[2023-08-26T04:19:59.534+0200][gc,heap     ] GC(34) Old regions: 16->16
[2023-08-26T04:19:59.534+0200][gc,heap     ] GC(34) Archive regions: 2->2
[2023-08-26T04:19:59.534+0200][gc,heap     ] GC(34) Humongous regions: 131->131
[2023-08-26T04:19:59.534+0200][gc,metaspace] GC(34) Metaspace: 44269K(44992K)->44269K(44992K) NonClass: 38655K(39040K)->38655K(39040K) Class: 5614K(5952K)->5614K(5952K)
[2023-08-26T04:19:59.534+0200][gc          ] GC(34) Pause Young (Normal) (G1 Evacuation Pause) 761M->151M(1024M) 6,446ms
[2023-08-26T04:19:59.535+0200][gc,cpu      ] GC(34) User=0,02s Sys=0,00s Real=0,00s
[2023-08-26T04:20:02.089+0200][gc,start    ] GC(35) Pause Young (Normal) (G1 Evacuation Pause)
[2023-08-26T04:20:02.089+0200][gc,task     ] GC(35) Using 4 workers of 4 for evacuation
[2023-08-26T04:20:02.095+0200][gc,phases   ] GC(35)   Pre Evacuate Collection Set: 0,1ms
[2023-08-26T04:20:02.095+0200][gc,phases   ] GC(35)   Merge Heap Roots: 0,1ms
[2023-08-26T04:20:02.095+0200][gc,phases   ] GC(35)   Evacuate Collection Set: 4,2ms
[2023-08-26T04:20:02.095+0200][gc,phases   ] GC(35)   Post Evacuate Collection Set: 0,8ms
[2023-08-26T04:20:02.095+0200][gc,phases   ] GC(35)   Other: 0,2ms
[2023-08-26T04:20:02.095+0200][gc,heap     ] GC(35) Eden regions: 610->0(610)
[2023-08-26T04:20:02.095+0200][gc,heap     ] GC(35) Survivor regions: 4->4(77)
[2023-08-26T04:20:02.095+0200][gc,heap     ] GC(35) Old regions: 16->16
[2023-08-26T04:20:02.095+0200][gc,heap     ] GC(35) Archive regions: 2->2
[2023-08-26T04:20:02.095+0200][gc,heap     ] GC(35) Humongous regions: 131->131
[2023-08-26T04:20:02.095+0200][gc,metaspace] GC(35) Metaspace: 44441K(45184K)->44441K(45184K) NonClass: 38797K(39168K)->38797K(39168K) Class: 5643K(6016K)->5643K(6016K)
[2023-08-26T04:20:02.095+0200][gc          ] GC(35) Pause Young (Normal) (G1 Evacuation Pause) 761M->151M(1024M) 5,584ms
[2023-08-26T04:20:02.095+0200][gc,cpu      ] GC(35) User=0,01s Sys=0,00s Real=0,00s
[2023-08-26T04:20:04.979+0200][gc,start    ] GC(36) Pause Young (Normal) (G1 Evacuation Pause)
[2023-08-26T04:20:04.979+0200][gc,task     ] GC(36) Using 4 workers of 4 for evacuation
[2023-08-26T04:20:04.985+0200][gc,phases   ] GC(36)   Pre Evacuate Collection Set: 0,1ms
[2023-08-26T04:20:04.985+0200][gc,phases   ] GC(36)   Merge Heap Roots: 0,1ms
[2023-08-26T04:20:04.985+0200][gc,phases   ] GC(36)   Evacuate Collection Set: 4,8ms
[2023-08-26T04:20:04.985+0200][gc,phases   ] GC(36)   Post Evacuate Collection Set: 0,8ms
[2023-08-26T04:20:04.985+0200][gc,phases   ] GC(36)   Other: 0,2ms
[2023-08-26T04:20:04.985+0200][gc,heap     ] GC(36) Eden regions: 610->0(610)
[2023-08-26T04:20:04.985+0200][gc,heap     ] GC(36) Survivor regions: 4->4(77)
[2023-08-26T04:20:04.985+0200][gc,heap     ] GC(36) Old regions: 16->16
[2023-08-26T04:20:04.985+0200][gc,heap     ] GC(36) Archive regions: 2->2
[2023-08-26T04:20:04.985+0200][gc,heap     ] GC(36) Humongous regions: 131->131
[2023-08-26T04:20:04.985+0200][gc,metaspace] GC(36) Metaspace: 44447K(45248K)->44447K(45248K) NonClass: 38804K(39232K)->38804K(39232K) Class: 5643K(6016K)->5643K(6016K)
[2023-08-26T04:20:04.985+0200][gc          ] GC(36) Pause Young (Normal) (G1 Evacuation Pause) 761M->151M(1024M) 6,127ms
[2023-08-26T04:20:04.985+0200][gc,cpu      ] GC(36) User=0,02s Sys=0,00s Real=0,01s
[2023-08-26T04:20:09.263+0200][gc,start    ] GC(37) Pause Young (Normal) (G1 Evacuation Pause)
[2023-08-26T04:20:09.263+0200][gc,task     ] GC(37) Using 4 workers of 4 for evacuation
[2023-08-26T04:20:09.286+0200][gc,mmu      ] GC(37) MMU target violated: 21,0ms (20,0ms/21,0ms)
[2023-08-26T04:20:09.286+0200][gc,phases   ] GC(37)   Pre Evacuate Collection Set: 0,2ms
[2023-08-26T04:20:09.286+0200][gc,phases   ] GC(37)   Merge Heap Roots: 0,2ms
[2023-08-26T04:20:09.286+0200][gc,phases   ] GC(37)   Evacuate Collection Set: 20,6ms
[2023-08-26T04:20:09.286+0200][gc,phases   ] GC(37)   Post Evacuate Collection Set: 1,5ms
[2023-08-26T04:20:09.286+0200][gc,phases   ] GC(37)   Other: 0,3ms
[2023-08-26T04:20:09.286+0200][gc,heap     ] GC(37) Eden regions: 610->0(610)
[2023-08-26T04:20:09.286+0200][gc,heap     ] GC(37) Survivor regions: 4->4(77)
[2023-08-26T04:20:09.286+0200][gc,heap     ] GC(37) Old regions: 16->16
[2023-08-26T04:20:09.286+0200][gc,heap     ] GC(37) Archive regions: 2->2
[2023-08-26T04:20:09.286+0200][gc,heap     ] GC(37) Humongous regions: 131->131
[2023-08-26T04:20:09.286+0200][gc,metaspace] GC(37) Metaspace: 44474K(45248K)->44474K(45248K) NonClass: 38831K(39232K)->38831K(39232K) Class: 5643K(6016K)->5643K(6016K)
[2023-08-26T04:20:09.286+0200][gc          ] GC(37) Pause Young (Normal) (G1 Evacuation Pause) 761M->151M(1024M) 22,954ms
[2023-08-26T04:20:09.286+0200][gc,cpu      ] GC(37) User=0,02s Sys=0,00s Real=0,03s
[2023-08-26T04:20:13.561+0200][gc,start    ] GC(38) Pause Young (Normal) (G1 Evacuation Pause)
[2023-08-26T04:20:13.561+0200][gc,task     ] GC(38) Using 4 workers of 4 for evacuation
[2023-08-26T04:20:13.579+0200][gc,phases   ] GC(38)   Pre Evacuate Collection Set: 0,3ms
[2023-08-26T04:20:13.579+0200][gc,phases   ] GC(38)   Merge Heap Roots: 0,2ms
[2023-08-26T04:20:13.579+0200][gc,phases   ] GC(38)   Evacuate Collection Set: 15,7ms
[2023-08-26T04:20:13.579+0200][gc,phases   ] GC(38)   Post Evacuate Collection Set: 1,5ms
[2023-08-26T04:20:13.579+0200][gc,phases   ] GC(38)   Other: 0,2ms
[2023-08-26T04:20:13.579+0200][gc,heap     ] GC(38) Eden regions: 610->0(610)
[2023-08-26T04:20:13.579+0200][gc,heap     ] GC(38) Survivor regions: 4->4(77)
[2023-08-26T04:20:13.579+0200][gc,heap     ] GC(38) Old regions: 16->16
[2023-08-26T04:20:13.579+0200][gc,heap     ] GC(38) Archive regions: 2->2
[2023-08-26T04:20:13.579+0200][gc,heap     ] GC(38) Humongous regions: 131->131
[2023-08-26T04:20:13.579+0200][gc,metaspace] GC(38) Metaspace: 44485K(45248K)->44485K(45248K) NonClass: 38842K(39232K)->38842K(39232K) Class: 5643K(6016K)->5643K(6016K)
[2023-08-26T04:20:13.579+0200][gc          ] GC(38) Pause Young (Normal) (G1 Evacuation Pause) 761M->151M(1024M) 18,158ms
[2023-08-26T04:20:13.579+0200][gc,cpu      ] GC(38) User=0,02s Sys=0,00s Real=0,02s
[2023-08-26T04:20:17.363+0200][gc,start    ] GC(39) Pause Young (Normal) (G1 Evacuation Pause)
[2023-08-26T04:20:17.363+0200][gc,task     ] GC(39) Using 4 workers of 4 for evacuation
[2023-08-26T04:20:17.389+0200][gc,mmu      ] GC(39) MMU target violated: 21,0ms (20,0ms/21,0ms)
[2023-08-26T04:20:17.389+0200][gc,phases   ] GC(39)   Pre Evacuate Collection Set: 0,2ms
[2023-08-26T04:20:17.389+0200][gc,phases   ] GC(39)   Merge Heap Roots: 0,3ms
[2023-08-26T04:20:17.389+0200][gc,phases   ] GC(39)   Evacuate Collection Set: 23,8ms
[2023-08-26T04:20:17.389+0200][gc,phases   ] GC(39)   Post Evacuate Collection Set: 1,7ms
[2023-08-26T04:20:17.389+0200][gc,phases   ] GC(39)   Other: 0,3ms
[2023-08-26T04:20:17.389+0200][gc,heap     ] GC(39) Eden regions: 610->0(610)
[2023-08-26T04:20:17.389+0200][gc,heap     ] GC(39) Survivor regions: 4->4(77)
[2023-08-26T04:20:17.389+0200][gc,heap     ] GC(39) Old regions: 16->16
[2023-08-26T04:20:17.389+0200][gc,heap     ] GC(39) Archive regions: 2->2
[2023-08-26T04:20:17.389+0200][gc,heap     ] GC(39) Humongous regions: 131->131
[2023-08-26T04:20:17.389+0200][gc,metaspace] GC(39) Metaspace: 44502K(45248K)->44502K(45248K) NonClass: 38858K(39232K)->38858K(39232K) Class: 5643K(6016K)->5643K(6016K)
[2023-08-26T04:20:17.389+0200][gc          ] GC(39) Pause Young (Normal) (G1 Evacuation Pause) 761M->151M(1024M) 26,511ms
[2023-08-26T04:20:17.389+0200][gc,cpu      ] GC(39) User=0,01s Sys=0,00s Real=0,03s
[2023-08-26T04:20:22.811+0200][gc,start    ] GC(40) Pause Young (Normal) (G1 Evacuation Pause)
[2023-08-26T04:20:22.811+0200][gc,task     ] GC(40) Using 4 workers of 4 for evacuation
[2023-08-26T04:20:22.846+0200][gc,mmu      ] GC(40) MMU target violated: 21,0ms (20,0ms/21,0ms)
[2023-08-26T04:20:22.846+0200][gc,phases   ] GC(40)   Pre Evacuate Collection Set: 0,3ms
[2023-08-26T04:20:22.846+0200][gc,phases   ] GC(40)   Merge Heap Roots: 0,2ms
[2023-08-26T04:20:22.846+0200][gc,phases   ] GC(40)   Evacuate Collection Set: 33,2ms
[2023-08-26T04:20:22.846+0200][gc,phases   ] GC(40)   Post Evacuate Collection Set: 1,6ms
[2023-08-26T04:20:22.846+0200][gc,phases   ] GC(40)   Other: 0,3ms
[2023-08-26T04:20:22.846+0200][gc,heap     ] GC(40) Eden regions: 610->0(610)
[2023-08-26T04:20:22.846+0200][gc,heap     ] GC(40) Survivor regions: 4->4(77)
[2023-08-26T04:20:22.846+0200][gc,heap     ] GC(40) Old regions: 16->16
[2023-08-26T04:20:22.846+0200][gc,heap     ] GC(40) Archive regions: 2->2
[2023-08-26T04:20:22.846+0200][gc,heap     ] GC(40) Humongous regions: 131->131
[2023-08-26T04:20:22.846+0200][gc,metaspace] GC(40) Metaspace: 44505K(45248K)->44505K(45248K) NonClass: 38861K(39232K)->38861K(39232K) Class: 5643K(6016K)->5643K(6016K)
[2023-08-26T04:20:22.846+0200][gc          ] GC(40) Pause Young (Normal) (G1 Evacuation Pause) 761M->151M(1024M) 35,712ms
[2023-08-26T04:20:22.846+0200][gc,cpu      ] GC(40) User=0,01s Sys=0,00s Real=0,04s
[2023-08-26T04:20:27.609+0200][gc,start    ] GC(41) Pause Young (Normal) (G1 Evacuation Pause)
[2023-08-26T04:20:27.609+0200][gc,task     ] GC(41) Using 4 workers of 4 for evacuation
[2023-08-26T04:20:27.619+0200][gc,phases   ] GC(41)   Pre Evacuate Collection Set: 0,2ms
[2023-08-26T04:20:27.619+0200][gc,phases   ] GC(41)   Merge Heap Roots: 0,1ms
[2023-08-26T04:20:27.619+0200][gc,phases   ] GC(41)   Evacuate Collection Set: 8,7ms
[2023-08-26T04:20:27.619+0200][gc,phases   ] GC(41)   Post Evacuate Collection Set: 1,1ms
[2023-08-26T04:20:27.619+0200][gc,phases   ] GC(41)   Other: 0,2ms
[2023-08-26T04:20:27.619+0200][gc,heap     ] GC(41) Eden regions: 610->0(610)
[2023-08-26T04:20:27.619+0200][gc,heap     ] GC(41) Survivor regions: 4->4(77)
[2023-08-26T04:20:27.619+0200][gc,heap     ] GC(41) Old regions: 16->16
[2023-08-26T04:20:27.619+0200][gc,heap     ] GC(41) Archive regions: 2->2
[2023-08-26T04:20:27.619+0200][gc,heap     ] GC(41) Humongous regions: 131->131
[2023-08-26T04:20:27.620+0200][gc,metaspace] GC(41) Metaspace: 44537K(45248K)->44537K(45248K) NonClass: 38893K(39232K)->38893K(39232K) Class: 5643K(6016K)->5643K(6016K)
[2023-08-26T04:20:27.620+0200][gc          ] GC(41) Pause Young (Normal) (G1 Evacuation Pause) 761M->151M(1024M) 10,591ms
[2023-08-26T04:20:27.620+0200][gc,cpu      ] GC(41) User=0,01s Sys=0,00s Real=0,01s
[2023-08-26T04:20:35.510+0200][gc,start    ] GC(42) Pause Young (Normal) (G1 Evacuation Pause)
[2023-08-26T04:20:35.510+0200][gc,task     ] GC(42) Using 4 workers of 4 for evacuation
[2023-08-26T04:20:35.522+0200][gc,phases   ] GC(42)   Pre Evacuate Collection Set: 0,3ms
[2023-08-26T04:20:35.522+0200][gc,phases   ] GC(42)   Merge Heap Roots: 0,3ms
[2023-08-26T04:20:35.522+0200][gc,phases   ] GC(42)   Evacuate Collection Set: 9,4ms
[2023-08-26T04:20:35.522+0200][gc,phases   ] GC(42)   Post Evacuate Collection Set: 2,4ms
[2023-08-26T04:20:35.522+0200][gc,phases   ] GC(42)   Other: 0,2ms
[2023-08-26T04:20:35.522+0200][gc,heap     ] GC(42) Eden regions: 610->0(610)
[2023-08-26T04:20:35.522+0200][gc,heap     ] GC(42) Survivor regions: 4->4(77)
[2023-08-26T04:20:35.522+0200][gc,heap     ] GC(42) Old regions: 16->16
[2023-08-26T04:20:35.522+0200][gc,heap     ] GC(42) Archive regions: 2->2
[2023-08-26T04:20:35.522+0200][gc,heap     ] GC(42) Humongous regions: 131->131
[2023-08-26T04:20:35.522+0200][gc,metaspace] GC(42) Metaspace: 44559K(45312K)->44559K(45312K) NonClass: 38915K(39296K)->38915K(39296K) Class: 5643K(6016K)->5643K(6016K)
[2023-08-26T04:20:35.523+0200][gc          ] GC(42) Pause Young (Normal) (G1 Evacuation Pause) 761M->151M(1024M) 12,765ms
[2023-08-26T04:20:35.523+0200][gc,cpu      ] GC(42) User=0,01s Sys=0,01s Real=0,01s
[2023-08-26T04:20:42.293+0200][gc,start    ] GC(43) Pause Young (Normal) (G1 Evacuation Pause)
[2023-08-26T04:20:42.293+0200][gc,task     ] GC(43) Using 4 workers of 4 for evacuation
[2023-08-26T04:20:42.303+0200][gc,phases   ] GC(43)   Pre Evacuate Collection Set: 0,2ms
[2023-08-26T04:20:42.303+0200][gc,phases   ] GC(43)   Merge Heap Roots: 0,1ms
[2023-08-26T04:20:42.303+0200][gc,phases   ] GC(43)   Evacuate Collection Set: 8,2ms
[2023-08-26T04:20:42.303+0200][gc,phases   ] GC(43)   Post Evacuate Collection Set: 1,1ms
[2023-08-26T04:20:42.303+0200][gc,phases   ] GC(43)   Other: 0,2ms
[2023-08-26T04:20:42.303+0200][gc,heap     ] GC(43) Eden regions: 610->0(610)
[2023-08-26T04:20:42.303+0200][gc,heap     ] GC(43) Survivor regions: 4->4(77)
[2023-08-26T04:20:42.303+0200][gc,heap     ] GC(43) Old regions: 16->16
[2023-08-26T04:20:42.303+0200][gc,heap     ] GC(43) Archive regions: 2->2
[2023-08-26T04:20:42.303+0200][gc,heap     ] GC(43) Humongous regions: 131->131
[2023-08-26T04:20:42.303+0200][gc,metaspace] GC(43) Metaspace: 44698K(45376K)->44698K(45376K) NonClass: 39041K(39360K)->39041K(39360K) Class: 5657K(6016K)->5657K(6016K)
[2023-08-26T04:20:42.303+0200][gc          ] GC(43) Pause Young (Normal) (G1 Evacuation Pause) 761M->151M(1024M) 10,051ms
[2023-08-26T04:20:42.303+0200][gc,cpu      ] GC(43) User=0,02s Sys=0,00s Real=0,01s
[2023-08-26T04:20:49.575+0200][gc,start    ] GC(44) Pause Young (Normal) (G1 Evacuation Pause)
[2023-08-26T04:20:49.575+0200][gc,task     ] GC(44) Using 4 workers of 4 for evacuation
[2023-08-26T04:20:49.594+0200][gc,phases   ] GC(44)   Pre Evacuate Collection Set: 0,3ms
[2023-08-26T04:20:49.594+0200][gc,phases   ] GC(44)   Merge Heap Roots: 0,2ms
[2023-08-26T04:20:49.594+0200][gc,phases   ] GC(44)   Evacuate Collection Set: 16,2ms
[2023-08-26T04:20:49.594+0200][gc,phases   ] GC(44)   Post Evacuate Collection Set: 1,7ms
[2023-08-26T04:20:49.594+0200][gc,phases   ] GC(44)   Other: 0,2ms
[2023-08-26T04:20:49.594+0200][gc,heap     ] GC(44) Eden regions: 610->0(610)
[2023-08-26T04:20:49.594+0200][gc,heap     ] GC(44) Survivor regions: 4->4(77)
[2023-08-26T04:20:49.594+0200][gc,heap     ] GC(44) Old regions: 16->16
[2023-08-26T04:20:49.594+0200][gc,heap     ] GC(44) Archive regions: 2->2
[2023-08-26T04:20:49.594+0200][gc,heap     ] GC(44) Humongous regions: 131->131
[2023-08-26T04:20:49.594+0200][gc,metaspace] GC(44) Metaspace: 44756K(45504K)->44756K(45504K) NonClass: 39095K(39488K)->39095K(39488K) Class: 5660K(6016K)->5660K(6016K)
[2023-08-26T04:20:49.594+0200][gc          ] GC(44) Pause Young (Normal) (G1 Evacuation Pause) 761M->151M(1024M) 18,800ms
[2023-08-26T04:20:49.594+0200][gc,cpu      ] GC(44) User=0,02s Sys=0,00s Real=0,02s
[2023-08-26T04:20:55.133+0200][gc,start    ] GC(45) Pause Young (Normal) (G1 Evacuation Pause)
[2023-08-26T04:20:55.133+0200][gc,task     ] GC(45) Using 4 workers of 4 for evacuation
[2023-08-26T04:20:55.153+0200][gc,mmu      ] GC(45) MMU target violated: 20,5ms (20,0ms/21,0ms)
[2023-08-26T04:20:55.153+0200][gc,phases   ] GC(45)   Pre Evacuate Collection Set: 0,3ms
[2023-08-26T04:20:55.153+0200][gc,phases   ] GC(45)   Merge Heap Roots: 0,2ms
[2023-08-26T04:20:55.153+0200][gc,phases   ] GC(45)   Evacuate Collection Set: 18,3ms
[2023-08-26T04:20:55.153+0200][gc,phases   ] GC(45)   Post Evacuate Collection Set: 1,6ms
[2023-08-26T04:20:55.153+0200][gc,phases   ] GC(45)   Other: 0,3ms
[2023-08-26T04:20:55.153+0200][gc,heap     ] GC(45) Eden regions: 610->0(610)
[2023-08-26T04:20:55.153+0200][gc,heap     ] GC(45) Survivor regions: 4->4(77)
[2023-08-26T04:20:55.153+0200][gc,heap     ] GC(45) Old regions: 16->16
[2023-08-26T04:20:55.153+0200][gc,heap     ] GC(45) Archive regions: 2->2
[2023-08-26T04:20:55.153+0200][gc,heap     ] GC(45) Humongous regions: 131->131
[2023-08-26T04:20:55.153+0200][gc,metaspace] GC(45) Metaspace: 44761K(45504K)->44761K(45504K) NonClass: 39100K(39488K)->39100K(39488K) Class: 5660K(6016K)->5660K(6016K)
[2023-08-26T04:20:55.153+0200][gc          ] GC(45) Pause Young (Normal) (G1 Evacuation Pause) 761M->151M(1024M) 20,872ms
[2023-08-26T04:20:55.153+0200][gc,cpu      ] GC(45) User=0,03s Sys=0,00s Real=0,02s
[2023-08-26T04:21:00.644+0200][gc,start    ] GC(46) Pause Young (Normal) (G1 Evacuation Pause)
[2023-08-26T04:21:00.645+0200][gc,task     ] GC(46) Using 4 workers of 4 for evacuation
[2023-08-26T04:21:00.664+0200][gc,phases   ] GC(46)   Pre Evacuate Collection Set: 0,3ms
[2023-08-26T04:21:00.664+0200][gc,phases   ] GC(46)   Merge Heap Roots: 0,3ms
[2023-08-26T04:21:00.664+0200][gc,phases   ] GC(46)   Evacuate Collection Set: 17,2ms
[2023-08-26T04:21:00.664+0200][gc,phases   ] GC(46)   Post Evacuate Collection Set: 1,7ms
[2023-08-26T04:21:00.664+0200][gc,phases   ] GC(46)   Other: 0,3ms
[2023-08-26T04:21:00.664+0200][gc,heap     ] GC(46) Eden regions: 610->0(610)
[2023-08-26T04:21:00.664+0200][gc,heap     ] GC(46) Survivor regions: 4->4(77)
[2023-08-26T04:21:00.664+0200][gc,heap     ] GC(46) Old regions: 16->16
[2023-08-26T04:21:00.664+0200][gc,heap     ] GC(46) Archive regions: 2->2
[2023-08-26T04:21:00.664+0200][gc,heap     ] GC(46) Humongous regions: 131->131
[2023-08-26T04:21:00.664+0200][gc,metaspace] GC(46) Metaspace: 44780K(45504K)->44780K(45504K) NonClass: 39119K(39488K)->39119K(39488K) Class: 5660K(6016K)->5660K(6016K)
[2023-08-26T04:21:00.664+0200][gc          ] GC(46) Pause Young (Normal) (G1 Evacuation Pause) 761M->151M(1024M) 19,938ms
[2023-08-26T04:21:00.664+0200][gc,cpu      ] GC(46) User=0,02s Sys=0,00s Real=0,02s
[2023-08-26T04:21:06.917+0200][gc,start    ] GC(47) Pause Young (Normal) (G1 Evacuation Pause)
[2023-08-26T04:21:06.917+0200][gc,task     ] GC(47) Using 4 workers of 4 for evacuation
[2023-08-26T04:21:06.942+0200][gc,mmu      ] GC(47) MMU target violated: 21,0ms (20,0ms/21,0ms)
[2023-08-26T04:21:06.942+0200][gc,phases   ] GC(47)   Pre Evacuate Collection Set: 0,3ms
[2023-08-26T04:21:06.942+0200][gc,phases   ] GC(47)   Merge Heap Roots: 0,2ms
[2023-08-26T04:21:06.942+0200][gc,phases   ] GC(47)   Evacuate Collection Set: 22,7ms
[2023-08-26T04:21:06.942+0200][gc,phases   ] GC(47)   Post Evacuate Collection Set: 1,5ms
[2023-08-26T04:21:06.942+0200][gc,phases   ] GC(47)   Other: 0,3ms
[2023-08-26T04:21:06.942+0200][gc,heap     ] GC(47) Eden regions: 610->0(613)
[2023-08-26T04:21:06.942+0200][gc,heap     ] GC(47) Survivor regions: 4->1(77)
[2023-08-26T04:21:06.942+0200][gc,heap     ] GC(47) Old regions: 16->19
[2023-08-26T04:21:06.942+0200][gc,heap     ] GC(47) Archive regions: 2->2
[2023-08-26T04:21:06.942+0200][gc,heap     ] GC(47) Humongous regions: 131->131
[2023-08-26T04:21:06.942+0200][gc,metaspace] GC(47) Metaspace: 44842K(45568K)->44842K(45568K) NonClass: 39181K(39552K)->39181K(39552K) Class: 5660K(6016K)->5660K(6016K)
[2023-08-26T04:21:06.942+0200][gc          ] GC(47) Pause Young (Normal) (G1 Evacuation Pause) 761M->151M(1024M) 25,142ms
[2023-08-26T04:21:06.942+0200][gc,cpu      ] GC(47) User=0,02s Sys=0,00s Real=0,02s
[2023-08-26T04:21:15.553+0200][gc,start    ] GC(48) Pause Young (Normal) (G1 Evacuation Pause)
[2023-08-26T04:21:15.553+0200][gc,task     ] GC(48) Using 4 workers of 4 for evacuation
[2023-08-26T04:21:15.560+0200][gc,phases   ] GC(48)   Pre Evacuate Collection Set: 0,3ms
[2023-08-26T04:21:15.560+0200][gc,phases   ] GC(48)   Merge Heap Roots: 0,2ms
[2023-08-26T04:21:15.560+0200][gc,phases   ] GC(48)   Evacuate Collection Set: 5,5ms
[2023-08-26T04:21:15.560+0200][gc,phases   ] GC(48)   Post Evacuate Collection Set: 1,4ms
[2023-08-26T04:21:15.560+0200][gc,phases   ] GC(48)   Other: 0,2ms
[2023-08-26T04:21:15.560+0200][gc,heap     ] GC(48) Eden regions: 613->0(613)
[2023-08-26T04:21:15.560+0200][gc,heap     ] GC(48) Survivor regions: 1->1(77)
[2023-08-26T04:21:15.560+0200][gc,heap     ] GC(48) Old regions: 19->19
[2023-08-26T04:21:15.560+0200][gc,heap     ] GC(48) Archive regions: 2->2
[2023-08-26T04:21:15.560+0200][gc,heap     ] GC(48) Humongous regions: 131->131
[2023-08-26T04:21:15.560+0200][gc,metaspace] GC(48) Metaspace: 44892K(45632K)->44892K(45632K) NonClass: 39231K(39616K)->39231K(39616K) Class: 5660K(6016K)->5660K(6016K)
[2023-08-26T04:21:15.560+0200][gc          ] GC(48) Pause Young (Normal) (G1 Evacuation Pause) 764M->151M(1024M) 7,688ms
[2023-08-26T04:21:15.560+0200][gc,cpu      ] GC(48) User=0,01s Sys=0,00s Real=0,01s
[2023-08-26T04:21:28.113+0200][gc,start    ] GC(49) Pause Young (Normal) (G1 Evacuation Pause)
[2023-08-26T04:21:28.114+0200][gc,task     ] GC(49) Using 4 workers of 4 for evacuation
[2023-08-26T04:21:28.127+0200][gc,phases   ] GC(49)   Pre Evacuate Collection Set: 1,1ms
[2023-08-26T04:21:28.128+0200][gc,phases   ] GC(49)   Merge Heap Roots: 0,4ms
[2023-08-26T04:21:28.128+0200][gc,phases   ] GC(49)   Evacuate Collection Set: 9,3ms
[2023-08-26T04:21:28.128+0200][gc,phases   ] GC(49)   Post Evacuate Collection Set: 2,5ms
[2023-08-26T04:21:28.128+0200][gc,phases   ] GC(49)   Other: 3,0ms
[2023-08-26T04:21:28.128+0200][gc,heap     ] GC(49) Eden regions: 613->0(612)
[2023-08-26T04:21:28.128+0200][gc,heap     ] GC(49) Survivor regions: 1->2(77)
[2023-08-26T04:21:28.128+0200][gc,heap     ] GC(49) Old regions: 19->19
[2023-08-26T04:21:28.128+0200][gc,heap     ] GC(49) Archive regions: 2->2
[2023-08-26T04:21:28.128+0200][gc,heap     ] GC(49) Humongous regions: 131->131
[2023-08-26T04:21:28.128+0200][gc,metaspace] GC(49) Metaspace: 45095K(45824K)->45095K(45824K) NonClass: 39434K(39808K)->39434K(39808K) Class: 5660K(6016K)->5660K(6016K)
[2023-08-26T04:21:28.128+0200][gc          ] GC(49) Pause Young (Normal) (G1 Evacuation Pause) 764M->151M(1024M) 14,723ms
[2023-08-26T04:21:28.128+0200][gc,cpu      ] GC(49) User=0,00s Sys=0,01s Real=0,02s
[2023-08-26T04:21:42.589+0200][gc,start    ] GC(50) Pause Young (Normal) (G1 Evacuation Pause)
[2023-08-26T04:21:42.589+0200][gc,task     ] GC(50) Using 4 workers of 4 for evacuation
[2023-08-26T04:21:42.607+0200][gc,phases   ] GC(50)   Pre Evacuate Collection Set: 4,3ms
[2023-08-26T04:21:42.607+0200][gc,phases   ] GC(50)   Merge Heap Roots: 0,3ms
[2023-08-26T04:21:42.607+0200][gc,phases   ] GC(50)   Evacuate Collection Set: 10,2ms
[2023-08-26T04:21:42.607+0200][gc,phases   ] GC(50)   Post Evacuate Collection Set: 2,8ms
[2023-08-26T04:21:42.607+0200][gc,phases   ] GC(50)   Other: 0,4ms
[2023-08-26T04:21:42.607+0200][gc,heap     ] GC(50) Eden regions: 612->0(613)
[2023-08-26T04:21:42.607+0200][gc,heap     ] GC(50) Survivor regions: 2->1(77)
[2023-08-26T04:21:42.607+0200][gc,heap     ] GC(50) Old regions: 19->19
[2023-08-26T04:21:42.607+0200][gc,heap     ] GC(50) Archive regions: 2->2
[2023-08-26T04:21:42.607+0200][gc,heap     ] GC(50) Humongous regions: 131->131
[2023-08-26T04:21:42.607+0200][gc,metaspace] GC(50) Metaspace: 45119K(45888K)->45119K(45888K) NonClass: 39459K(39872K)->39459K(39872K) Class: 5660K(6016K)->5660K(6016K)
[2023-08-26T04:21:42.607+0200][gc          ] GC(50) Pause Young (Normal) (G1 Evacuation Pause) 763M->151M(1024M) 18,100ms
[2023-08-26T04:21:42.607+0200][gc,cpu      ] GC(50) User=0,01s Sys=0,00s Real=0,02s
[2023-08-26T04:21:53.533+0200][gc,start    ] GC(51) Pause Young (Normal) (G1 Evacuation Pause)
[2023-08-26T04:21:53.533+0200][gc,task     ] GC(51) Using 4 workers of 4 for evacuation
[2023-08-26T04:21:53.543+0200][gc,phases   ] GC(51)   Pre Evacuate Collection Set: 0,3ms
[2023-08-26T04:21:53.543+0200][gc,phases   ] GC(51)   Merge Heap Roots: 0,2ms
[2023-08-26T04:21:53.543+0200][gc,phases   ] GC(51)   Evacuate Collection Set: 7,2ms
[2023-08-26T04:21:53.543+0200][gc,phases   ] GC(51)   Post Evacuate Collection Set: 2,0ms
[2023-08-26T04:21:53.543+0200][gc,phases   ] GC(51)   Other: 0,5ms
[2023-08-26T04:21:53.543+0200][gc,heap     ] GC(51) Eden regions: 613->0(612)
[2023-08-26T04:21:53.543+0200][gc,heap     ] GC(51) Survivor regions: 1->2(77)
[2023-08-26T04:21:53.543+0200][gc,heap     ] GC(51) Old regions: 19->19
[2023-08-26T04:21:53.543+0200][gc,heap     ] GC(51) Archive regions: 2->2
[2023-08-26T04:21:53.543+0200][gc,heap     ] GC(51) Humongous regions: 131->131
[2023-08-26T04:21:53.543+0200][gc,metaspace] GC(51) Metaspace: 45170K(45888K)->45170K(45888K) NonClass: 39509K(39872K)->39509K(39872K) Class: 5660K(6016K)->5660K(6016K)
[2023-08-26T04:21:53.543+0200][gc          ] GC(51) Pause Young (Normal) (G1 Evacuation Pause) 764M->152M(1024M) 10,355ms
[2023-08-26T04:21:53.543+0200][gc,cpu      ] GC(51) User=0,01s Sys=0,00s Real=0,01s
[2023-08-26T04:22:11.691+0200][gc,start    ] GC(52) Pause Young (Normal) (G1 Evacuation Pause)
[2023-08-26T04:22:11.691+0200][gc,task     ] GC(52) Using 4 workers of 4 for evacuation
[2023-08-26T04:22:11.706+0200][gc,phases   ] GC(52)   Pre Evacuate Collection Set: 0,6ms
[2023-08-26T04:22:11.706+0200][gc,phases   ] GC(52)   Merge Heap Roots: 0,5ms
[2023-08-26T04:22:11.706+0200][gc,phases   ] GC(52)   Evacuate Collection Set: 12,2ms
[2023-08-26T04:22:11.706+0200][gc,phases   ] GC(52)   Post Evacuate Collection Set: 1,3ms
[2023-08-26T04:22:11.706+0200][gc,phases   ] GC(52)   Other: 0,2ms
[2023-08-26T04:22:11.706+0200][gc,heap     ] GC(52) Eden regions: 612->0(613)
[2023-08-26T04:22:11.706+0200][gc,heap     ] GC(52) Survivor regions: 2->1(77)
[2023-08-26T04:22:11.706+0200][gc,heap     ] GC(52) Old regions: 19->19
[2023-08-26T04:22:11.706+0200][gc,heap     ] GC(52) Archive regions: 2->2
[2023-08-26T04:22:11.706+0200][gc,heap     ] GC(52) Humongous regions: 131->131
[2023-08-26T04:22:11.706+0200][gc,metaspace] GC(52) Metaspace: 45272K(46016K)->45272K(46016K) NonClass: 39611K(40000K)->39611K(40000K) Class: 5660K(6016K)->5660K(6016K)
[2023-08-26T04:22:11.706+0200][gc          ] GC(52) Pause Young (Normal) (G1 Evacuation Pause) 764M->151M(1024M) 15,012ms
[2023-08-26T04:22:11.706+0200][gc,cpu      ] GC(52) User=0,01s Sys=0,00s Real=0,02s
[2023-08-26T04:22:25.615+0200][gc,start    ] GC(53) Pause Young (Normal) (G1 Evacuation Pause)
[2023-08-26T04:22:25.616+0200][gc,task     ] GC(53) Using 4 workers of 4 for evacuation
[2023-08-26T04:22:25.623+0200][gc,phases   ] GC(53)   Pre Evacuate Collection Set: 0,4ms
[2023-08-26T04:22:25.623+0200][gc,phases   ] GC(53)   Merge Heap Roots: 0,2ms
[2023-08-26T04:22:25.623+0200][gc,phases   ] GC(53)   Evacuate Collection Set: 5,2ms
[2023-08-26T04:22:25.623+0200][gc,phases   ] GC(53)   Post Evacuate Collection Set: 1,2ms
[2023-08-26T04:22:25.623+0200][gc,phases   ] GC(53)   Other: 0,3ms
[2023-08-26T04:22:25.623+0200][gc,heap     ] GC(53) Eden regions: 613->0(612)
[2023-08-26T04:22:25.623+0200][gc,heap     ] GC(53) Survivor regions: 1->2(77)
[2023-08-26T04:22:25.623+0200][gc,heap     ] GC(53) Old regions: 19->19
[2023-08-26T04:22:25.623+0200][gc,heap     ] GC(53) Archive regions: 2->2
[2023-08-26T04:22:25.623+0200][gc,heap     ] GC(53) Humongous regions: 131->131
[2023-08-26T04:22:25.623+0200][gc,metaspace] GC(53) Metaspace: 45813K(46464K)->45813K(46464K) NonClass: 40055K(40384K)->40055K(40384K) Class: 5757K(6080K)->5757K(6080K)
[2023-08-26T04:22:25.623+0200][gc          ] GC(53) Pause Young (Normal) (G1 Evacuation Pause) 764M->152M(1024M) 7,466ms
[2023-08-26T04:22:25.623+0200][gc,cpu      ] GC(53) User=0,01s Sys=0,00s Real=0,01s
[2023-08-26T04:22:35.769+0200][gc,start    ] GC(54) Pause Young (Normal) (G1 Evacuation Pause)
[2023-08-26T04:22:35.769+0200][gc,task     ] GC(54) Using 4 workers of 4 for evacuation
[2023-08-26T04:22:35.785+0200][gc,phases   ] GC(54)   Pre Evacuate Collection Set: 0,2ms
[2023-08-26T04:22:35.785+0200][gc,phases   ] GC(54)   Merge Heap Roots: 0,2ms
[2023-08-26T04:22:35.785+0200][gc,phases   ] GC(54)   Evacuate Collection Set: 11,3ms
[2023-08-26T04:22:35.785+0200][gc,phases   ] GC(54)   Post Evacuate Collection Set: 3,8ms
[2023-08-26T04:22:35.785+0200][gc,phases   ] GC(54)   Other: 0,5ms
[2023-08-26T04:22:35.785+0200][gc,heap     ] GC(54) Eden regions: 612->0(612)
[2023-08-26T04:22:35.785+0200][gc,heap     ] GC(54) Survivor regions: 2->2(77)
[2023-08-26T04:22:35.785+0200][gc,heap     ] GC(54) Old regions: 19->19
[2023-08-26T04:22:35.785+0200][gc,heap     ] GC(54) Archive regions: 2->2
[2023-08-26T04:22:35.785+0200][gc,heap     ] GC(54) Humongous regions: 131->131
[2023-08-26T04:22:35.785+0200][gc,metaspace] GC(54) Metaspace: 45944K(46656K)->45944K(46656K) NonClass: 40186K(40576K)->40186K(40576K) Class: 5758K(6080K)->5758K(6080K)
[2023-08-26T04:22:35.785+0200][gc          ] GC(54) Pause Young (Normal) (G1 Evacuation Pause) 764M->152M(1024M) 16,241ms
[2023-08-26T04:22:35.785+0200][gc,cpu      ] GC(54) User=0,01s Sys=0,00s Real=0,02s
[2023-08-26T04:22:42.164+0200][gc,start    ] GC(55) Pause Young (Normal) (G1 Evacuation Pause)
[2023-08-26T04:22:42.164+0200][gc,task     ] GC(55) Using 4 workers of 4 for evacuation
[2023-08-26T04:22:42.175+0200][gc,phases   ] GC(55)   Pre Evacuate Collection Set: 0,3ms
[2023-08-26T04:22:42.175+0200][gc,phases   ] GC(55)   Merge Heap Roots: 0,2ms
[2023-08-26T04:22:42.175+0200][gc,phases   ] GC(55)   Evacuate Collection Set: 9,3ms
[2023-08-26T04:22:42.175+0200][gc,phases   ] GC(55)   Post Evacuate Collection Set: 1,5ms
[2023-08-26T04:22:42.175+0200][gc,phases   ] GC(55)   Other: 0,3ms
[2023-08-26T04:22:42.175+0200][gc,heap     ] GC(55) Eden regions: 612->0(612)
[2023-08-26T04:22:42.175+0200][gc,heap     ] GC(55) Survivor regions: 2->2(77)
[2023-08-26T04:22:42.175+0200][gc,heap     ] GC(55) Old regions: 19->19
[2023-08-26T04:22:42.176+0200][gc,heap     ] GC(55) Archive regions: 2->2
[2023-08-26T04:22:42.176+0200][gc,heap     ] GC(55) Humongous regions: 131->131
[2023-08-26T04:22:42.176+0200][gc,metaspace] GC(55) Metaspace: 45970K(46720K)->45970K(46720K) NonClass: 40212K(40640K)->40212K(40640K) Class: 5758K(6080K)->5758K(6080K)
[2023-08-26T04:22:42.176+0200][gc          ] GC(55) Pause Young (Normal) (G1 Evacuation Pause) 764M->152M(1024M) 11,765ms
[2023-08-26T04:22:42.176+0200][gc,cpu      ] GC(55) User=0,01s Sys=0,01s Real=0,00s
[2023-08-26T04:22:49.962+0200][gc,start    ] GC(56) Pause Young (Normal) (G1 Evacuation Pause)
[2023-08-26T04:22:49.962+0200][gc,task     ] GC(56) Using 4 workers of 4 for evacuation
[2023-08-26T04:22:49.969+0200][gc,phases   ] GC(56)   Pre Evacuate Collection Set: 0,2ms
[2023-08-26T04:22:49.969+0200][gc,phases   ] GC(56)   Merge Heap Roots: 0,1ms
[2023-08-26T04:22:49.969+0200][gc,phases   ] GC(56)   Evacuate Collection Set: 4,5ms
[2023-08-26T04:22:49.969+0200][gc,phases   ] GC(56)   Post Evacuate Collection Set: 1,8ms
[2023-08-26T04:22:49.969+0200][gc,phases   ] GC(56)   Other: 0,2ms
[2023-08-26T04:22:49.969+0200][gc,heap     ] GC(56) Eden regions: 612->0(612)
[2023-08-26T04:22:49.969+0200][gc,heap     ] GC(56) Survivor regions: 2->2(77)
[2023-08-26T04:22:49.969+0200][gc,heap     ] GC(56) Old regions: 19->19
[2023-08-26T04:22:49.969+0200][gc,heap     ] GC(56) Archive regions: 2->2
[2023-08-26T04:22:49.969+0200][gc,heap     ] GC(56) Humongous regions: 131->131
[2023-08-26T04:22:49.969+0200][gc,metaspace] GC(56) Metaspace: 46006K(46720K)->46006K(46720K) NonClass: 40247K(40640K)->40247K(40640K) Class: 5758K(6080K)->5758K(6080K)
[2023-08-26T04:22:49.969+0200][gc          ] GC(56) Pause Young (Normal) (G1 Evacuation Pause) 764M->152M(1024M) 7,045ms
[2023-08-26T04:22:49.969+0200][gc,cpu      ] GC(56) User=0,01s Sys=0,00s Real=0,01s
[2023-08-26T04:22:55.857+0200][gc,start    ] GC(57) Pause Young (Normal) (G1 Evacuation Pause)
[2023-08-26T04:22:55.857+0200][gc,task     ] GC(57) Using 4 workers of 4 for evacuation
[2023-08-26T04:22:55.868+0200][gc,phases   ] GC(57)   Pre Evacuate Collection Set: 0,2ms
[2023-08-26T04:22:55.868+0200][gc,phases   ] GC(57)   Merge Heap Roots: 0,1ms
[2023-08-26T04:22:55.868+0200][gc,phases   ] GC(57)   Evacuate Collection Set: 6,3ms
[2023-08-26T04:22:55.868+0200][gc,phases   ] GC(57)   Post Evacuate Collection Set: 3,7ms
[2023-08-26T04:22:55.868+0200][gc,phases   ] GC(57)   Other: 0,3ms
[2023-08-26T04:22:55.868+0200][gc,heap     ] GC(57) Eden regions: 612->0(612)
[2023-08-26T04:22:55.868+0200][gc,heap     ] GC(57) Survivor regions: 2->2(77)
[2023-08-26T04:22:55.868+0200][gc,heap     ] GC(57) Old regions: 19->19
[2023-08-26T04:22:55.868+0200][gc,heap     ] GC(57) Archive regions: 2->2
[2023-08-26T04:22:55.868+0200][gc,heap     ] GC(57) Humongous regions: 131->131
[2023-08-26T04:22:55.868+0200][gc,metaspace] GC(57) Metaspace: 46046K(46720K)->46046K(46720K) NonClass: 40287K(40640K)->40287K(40640K) Class: 5758K(6080K)->5758K(6080K)
[2023-08-26T04:22:55.868+0200][gc          ] GC(57) Pause Young (Normal) (G1 Evacuation Pause) 764M->152M(1024M) 11,153ms
[2023-08-26T04:22:55.868+0200][gc,cpu      ] GC(57) User=0,02s Sys=0,00s Real=0,01s
[2023-08-26T04:23:02.722+0200][gc,start    ] GC(58) Pause Young (Normal) (G1 Evacuation Pause)
[2023-08-26T04:23:02.722+0200][gc,task     ] GC(58) Using 4 workers of 4 for evacuation
[2023-08-26T04:23:02.730+0200][gc,phases   ] GC(58)   Pre Evacuate Collection Set: 0,3ms
[2023-08-26T04:23:02.730+0200][gc,phases   ] GC(58)   Merge Heap Roots: 0,3ms
[2023-08-26T04:23:02.730+0200][gc,phases   ] GC(58)   Evacuate Collection Set: 5,1ms
[2023-08-26T04:23:02.730+0200][gc,phases   ] GC(58)   Post Evacuate Collection Set: 1,6ms
[2023-08-26T04:23:02.730+0200][gc,phases   ] GC(58)   Other: 0,2ms
[2023-08-26T04:23:02.730+0200][gc,heap     ] GC(58) Eden regions: 612->0(612)
[2023-08-26T04:23:02.730+0200][gc,heap     ] GC(58) Survivor regions: 2->2(77)
[2023-08-26T04:23:02.730+0200][gc,heap     ] GC(58) Old regions: 19->20
[2023-08-26T04:23:02.730+0200][gc,heap     ] GC(58) Archive regions: 2->2
[2023-08-26T04:23:02.730+0200][gc,heap     ] GC(58) Humongous regions: 131->131
[2023-08-26T04:23:02.730+0200][gc,metaspace] GC(58) Metaspace: 46105K(46848K)->46105K(46848K) NonClass: 40347K(40768K)->40347K(40768K) Class: 5758K(6080K)->5758K(6080K)
[2023-08-26T04:23:02.730+0200][gc          ] GC(58) Pause Young (Normal) (G1 Evacuation Pause) 764M->152M(1024M) 7,718ms
[2023-08-26T04:23:02.730+0200][gc,cpu      ] GC(58) User=0,01s Sys=0,00s Real=0,01s
[2023-08-26T04:23:10.011+0200][gc,start    ] GC(59) Pause Young (Normal) (G1 Evacuation Pause)
[2023-08-26T04:23:10.011+0200][gc,task     ] GC(59) Using 4 workers of 4 for evacuation
[2023-08-26T04:23:10.050+0200][gc,mmu      ] GC(59) MMU target violated: 21,0ms (20,0ms/21,0ms)
[2023-08-26T04:23:10.050+0200][gc,phases   ] GC(59)   Pre Evacuate Collection Set: 0,3ms
[2023-08-26T04:23:10.050+0200][gc,phases   ] GC(59)   Merge Heap Roots: 0,2ms
[2023-08-26T04:23:10.050+0200][gc,phases   ] GC(59)   Evacuate Collection Set: 36,5ms
[2023-08-26T04:23:10.050+0200][gc,phases   ] GC(59)   Post Evacuate Collection Set: 1,7ms
[2023-08-26T04:23:10.050+0200][gc,phases   ] GC(59)   Other: 0,3ms
[2023-08-26T04:23:10.050+0200][gc,heap     ] GC(59) Eden regions: 612->0(612)
[2023-08-26T04:23:10.050+0200][gc,heap     ] GC(59) Survivor regions: 2->2(77)
[2023-08-26T04:23:10.050+0200][gc,heap     ] GC(59) Old regions: 20->20
[2023-08-26T04:23:10.050+0200][gc,heap     ] GC(59) Archive regions: 2->2
[2023-08-26T04:23:10.050+0200][gc,heap     ] GC(59) Humongous regions: 131->131
[2023-08-26T04:23:10.050+0200][gc,metaspace] GC(59) Metaspace: 46129K(46848K)->46129K(46848K) NonClass: 40370K(40768K)->40370K(40768K) Class: 5758K(6080K)->5758K(6080K)
[2023-08-26T04:23:10.050+0200][gc          ] GC(59) Pause Young (Normal) (G1 Evacuation Pause) 764M->152M(1024M) 39,175ms
[2023-08-26T04:23:10.050+0200][gc,cpu      ] GC(59) User=0,01s Sys=0,01s Real=0,04s
[2023-08-26T04:23:16.117+0200][gc,start    ] GC(60) Pause Young (Normal) (G1 Evacuation Pause)
[2023-08-26T04:23:16.117+0200][gc,task     ] GC(60) Using 4 workers of 4 for evacuation
[2023-08-26T04:23:16.126+0200][gc,phases   ] GC(60)   Pre Evacuate Collection Set: 0,2ms
[2023-08-26T04:23:16.126+0200][gc,phases   ] GC(60)   Merge Heap Roots: 0,1ms
[2023-08-26T04:23:16.126+0200][gc,phases   ] GC(60)   Evacuate Collection Set: 6,9ms
[2023-08-26T04:23:16.126+0200][gc,phases   ] GC(60)   Post Evacuate Collection Set: 1,4ms
[2023-08-26T04:23:16.126+0200][gc,phases   ] GC(60)   Other: 0,2ms
[2023-08-26T04:23:16.126+0200][gc,heap     ] GC(60) Eden regions: 612->0(612)
[2023-08-26T04:23:16.126+0200][gc,heap     ] GC(60) Survivor regions: 2->2(77)
[2023-08-26T04:23:16.126+0200][gc,heap     ] GC(60) Old regions: 20->20
[2023-08-26T04:23:16.126+0200][gc,heap     ] GC(60) Archive regions: 2->2
[2023-08-26T04:23:16.126+0200][gc,heap     ] GC(60) Humongous regions: 131->131
[2023-08-26T04:23:16.126+0200][gc,metaspace] GC(60) Metaspace: 46579K(47296K)->46579K(47296K) NonClass: 40742K(41088K)->40742K(41088K) Class: 5837K(6208K)->5837K(6208K)
[2023-08-26T04:23:16.126+0200][gc          ] GC(60) Pause Young (Normal) (G1 Evacuation Pause) 764M->152M(1024M) 8,964ms
[2023-08-26T04:23:16.126+0200][gc,cpu      ] GC(60) User=0,01s Sys=0,00s Real=0,01s
[2023-08-26T04:23:21.052+0200][gc,start    ] GC(61) Pause Young (Normal) (G1 Evacuation Pause)
[2023-08-26T04:23:21.052+0200][gc,task     ] GC(61) Using 4 workers of 4 for evacuation
[2023-08-26T04:23:21.068+0200][gc,phases   ] GC(61)   Pre Evacuate Collection Set: 0,3ms
[2023-08-26T04:23:21.068+0200][gc,phases   ] GC(61)   Merge Heap Roots: 0,2ms
[2023-08-26T04:23:21.068+0200][gc,phases   ] GC(61)   Evacuate Collection Set: 13,7ms
[2023-08-26T04:23:21.068+0200][gc,phases   ] GC(61)   Post Evacuate Collection Set: 1,7ms
[2023-08-26T04:23:21.068+0200][gc,phases   ] GC(61)   Other: 0,2ms
[2023-08-26T04:23:21.068+0200][gc,heap     ] GC(61) Eden regions: 612->0(612)
[2023-08-26T04:23:21.068+0200][gc,heap     ] GC(61) Survivor regions: 2->2(77)
[2023-08-26T04:23:21.068+0200][gc,heap     ] GC(61) Old regions: 20->20
[2023-08-26T04:23:21.068+0200][gc,heap     ] GC(61) Archive regions: 2->2
[2023-08-26T04:23:21.068+0200][gc,heap     ] GC(61) Humongous regions: 131->131
[2023-08-26T04:23:21.068+0200][gc,metaspace] GC(61) Metaspace: 47474K(48256K)->47474K(48256K) NonClass: 41481K(41920K)->41481K(41920K) Class: 5993K(6336K)->5993K(6336K)
[2023-08-26T04:23:21.068+0200][gc          ] GC(61) Pause Young (Normal) (G1 Evacuation Pause) 764M->152M(1024M) 16,362ms
[2023-08-26T04:23:21.068+0200][gc,cpu      ] GC(61) User=0,01s Sys=0,00s Real=0,02s
[2023-08-26T04:23:21.261+0200][gc,heap,exit] Heap
[2023-08-26T04:23:21.262+0200][gc,heap,exit]  garbage-first heap   total 1048576K, used 177245K [0x00000000c0000000, 0x0000000100000000)
[2023-08-26T04:23:21.262+0200][gc,heap,exit]   region size 1024K, 23 young (23552K), 2 survivors (2048K)
[2023-08-26T04:23:21.262+0200][gc,heap,exit]  Metaspace       used 47555K, committed 48256K, reserved 1114112K
[2023-08-26T04:23:21.262+0200][gc,heap,exit]   class space    used 6011K, committed 6336K, reserved 1048576K
