[2023-08-26T04:16:02.239+0200][gc] Using G1
[2023-08-26T04:16:02.257+0200][gc,init] Version: 17.0.8+7-Ubuntu-122.04 (release)
[2023-08-26T04:16:02.257+0200][gc,init] CPUs: 4 total, 4 available
[2023-08-26T04:16:02.257+0200][gc,init] Memory: 7843M
[2023-08-26T04:16:02.257+0200][gc,init] Large Page Support: Disabled
[2023-08-26T04:16:02.257+0200][gc,init] NUMA Support: Disabled
[2023-08-26T04:16:02.257+0200][gc,init] Compressed Oops: Enabled (32-bit)
[2023-08-26T04:16:02.257+0200][gc,init] Heap Region Size: 1M
[2023-08-26T04:16:02.257+0200][gc,init] Heap Min Capacity: 1G
[2023-08-26T04:16:02.257+0200][gc,init] Heap Initial Capacity: 1G
[2023-08-26T04:16:02.257+0200][gc,init] Heap Max Capacity: 1G
[2023-08-26T04:16:02.257+0200][gc,init] Pre-touch: Disabled
[2023-08-26T04:16:02.257+0200][gc,init] Parallel Workers: 4
[2023-08-26T04:16:02.257+0200][gc,init] Concurrent Workers: 1
[2023-08-26T04:16:02.257+0200][gc,init] Concurrent Refinement Workers: 4
[2023-08-26T04:16:02.257+0200][gc,init] Periodic GC: Disabled
[2023-08-26T04:16:02.266+0200][gc,metaspace] CDS archive(s) mapped at: [0x00007f095f000000-0x00007f095fbeb000-0x00007f095fbeb000), size 12496896, SharedBaseAddress: 0x00007f095f000000, ArchiveRelocationMode: 1.
[2023-08-26T04:16:02.266+0200][gc,metaspace] Compressed class space mapped at: 0x00007f0960000000-0x00007f09a0000000, reserved size: 1073741824
[2023-08-26T04:16:02.266+0200][gc,metaspace] Narrow klass base: 0x00007f095f000000, Narrow klass shift: 0, Narrow klass range: 0x100000000
[2023-08-26T04:16:03.979+0200][gc,start    ] GC(0) Pause Young (Normal) (G1 Evacuation Pause)
[2023-08-26T04:16:03.980+0200][gc,task     ] GC(0) Using 4 workers of 4 for evacuation
[2023-08-26T04:16:03.988+0200][gc,phases   ] GC(0)   Pre Evacuate Collection Set: 0,1ms
[2023-08-26T04:16:03.988+0200][gc,phases   ] GC(0)   Merge Heap Roots: 0,1ms
[2023-08-26T04:16:03.988+0200][gc,phases   ] GC(0)   Evacuate Collection Set: 6,9ms
[2023-08-26T04:16:03.988+0200][gc,phases   ] GC(0)   Post Evacuate Collection Set: 0,7ms
[2023-08-26T04:16:03.988+0200][gc,phases   ] GC(0)   Other: 0,4ms
[2023-08-26T04:16:03.988+0200][gc,heap     ] GC(0) Eden regions: 51->0(44)
[2023-08-26T04:16:03.988+0200][gc,heap     ] GC(0) Survivor regions: 0->7(7)
[2023-08-26T04:16:03.988+0200][gc,heap     ] GC(0) Old regions: 0->1
[2023-08-26T04:16:03.988+0200][gc,heap     ] GC(0) Archive regions: 2->2
[2023-08-26T04:16:03.988+0200][gc,heap     ] GC(0) Humongous regions: 0->0
[2023-08-26T04:16:03.988+0200][gc,metaspace] GC(0) Metaspace: 19381K(19648K)->19381K(19648K) NonClass: 16779K(16896K)->16779K(16896K) Class: 2602K(2752K)->2602K(2752K)
[2023-08-26T04:16:03.988+0200][gc          ] GC(0) Pause Young (Normal) (G1 Evacuation Pause) 51M->8M(1024M) 8,293ms
[2023-08-26T04:16:03.988+0200][gc,cpu      ] GC(0) User=0,02s Sys=0,00s Real=0,01s
[2023-08-26T04:16:04.218+0200][gc,start    ] GC(1) Pause Young (Concurrent Start) (Metadata GC Threshold)
[2023-08-26T04:16:04.218+0200][gc,task     ] GC(1) Using 4 workers of 4 for evacuation
[2023-08-26T04:16:04.226+0200][gc,phases   ] GC(1)   Pre Evacuate Collection Set: 0,1ms
[2023-08-26T04:16:04.226+0200][gc,phases   ] GC(1)   Merge Heap Roots: 0,1ms
[2023-08-26T04:16:04.226+0200][gc,phases   ] GC(1)   Evacuate Collection Set: 6,6ms
[2023-08-26T04:16:04.226+0200][gc,phases   ] GC(1)   Post Evacuate Collection Set: 0,5ms
[2023-08-26T04:16:04.226+0200][gc,phases   ] GC(1)   Other: 0,2ms
[2023-08-26T04:16:04.226+0200][gc,heap     ] GC(1) Eden regions: 9->0(49)
[2023-08-26T04:16:04.226+0200][gc,heap     ] GC(1) Survivor regions: 7->2(7)
[2023-08-26T04:16:04.226+0200][gc,heap     ] GC(1) Old regions: 1->8
[2023-08-26T04:16:04.226+0200][gc,heap     ] GC(1) Archive regions: 2->2
[2023-08-26T04:16:04.226+0200][gc,heap     ] GC(1) Humongous regions: 129->129
[2023-08-26T04:16:04.226+0200][gc,metaspace] GC(1) Metaspace: 21262K(21504K)->21262K(21504K) NonClass: 18392K(18496K)->18392K(18496K) Class: 2869K(3008K)->2869K(3008K)
[2023-08-26T04:16:04.226+0200][gc          ] GC(1) Pause Young (Concurrent Start) (Metadata GC Threshold) 145M->138M(1024M) 7,525ms
[2023-08-26T04:16:04.226+0200][gc,cpu      ] GC(1) User=0,02s Sys=0,00s Real=0,01s
[2023-08-26T04:16:04.226+0200][gc          ] GC(2) Concurrent Mark Cycle
[2023-08-26T04:16:04.226+0200][gc,marking  ] GC(2) Concurrent Clear Claimed Marks
[2023-08-26T04:16:04.226+0200][gc,marking  ] GC(2) Concurrent Clear Claimed Marks 0,022ms
[2023-08-26T04:16:04.226+0200][gc,marking  ] GC(2) Concurrent Scan Root Regions
[2023-08-26T04:16:04.231+0200][gc,marking  ] GC(2) Concurrent Scan Root Regions 5,375ms
[2023-08-26T04:16:04.231+0200][gc,marking  ] GC(2) Concurrent Mark
[2023-08-26T04:16:04.231+0200][gc,marking  ] GC(2) Concurrent Mark From Roots
[2023-08-26T04:16:04.231+0200][gc,task     ] GC(2) Using 1 workers of 1 for marking
[2023-08-26T04:16:04.235+0200][gc,marking  ] GC(2) Concurrent Mark From Roots 4,099ms
[2023-08-26T04:16:04.235+0200][gc,marking  ] GC(2) Concurrent Preclean
[2023-08-26T04:16:04.235+0200][gc,marking  ] GC(2) Concurrent Preclean 0,094ms
[2023-08-26T04:16:04.236+0200][gc,start    ] GC(2) Pause Remark
[2023-08-26T04:16:04.237+0200][gc          ] GC(2) Pause Remark 139M->139M(1024M) 1,922ms
[2023-08-26T04:16:04.238+0200][gc,cpu      ] GC(2) User=0,00s Sys=0,00s Real=0,01s
[2023-08-26T04:16:04.238+0200][gc,marking  ] GC(2) Concurrent Mark 6,320ms
[2023-08-26T04:16:04.238+0200][gc,marking  ] GC(2) Concurrent Rebuild Remembered Sets
[2023-08-26T04:16:04.243+0200][gc,marking  ] GC(2) Concurrent Rebuild Remembered Sets 5,553ms
[2023-08-26T04:16:04.244+0200][gc,start    ] GC(2) Pause Cleanup
[2023-08-26T04:16:04.244+0200][gc          ] GC(2) Pause Cleanup 139M->139M(1024M) 0,274ms
[2023-08-26T04:16:04.244+0200][gc,cpu      ] GC(2) User=0,00s Sys=0,00s Real=0,00s
[2023-08-26T04:16:04.247+0200][gc,marking  ] GC(2) Concurrent Cleanup for Next Mark
[2023-08-26T04:16:04.259+0200][gc,marking  ] GC(2) Concurrent Cleanup for Next Mark 12,026ms
[2023-08-26T04:16:04.259+0200][gc          ] GC(2) Concurrent Mark Cycle 33,282ms
[2023-08-26T04:16:05.393+0200][gc,start    ] GC(3) Pause Young (Normal) (G1 Evacuation Pause)
[2023-08-26T04:16:05.393+0200][gc,task     ] GC(3) Using 4 workers of 4 for evacuation
[2023-08-26T04:16:05.404+0200][gc,phases   ] GC(3)   Pre Evacuate Collection Set: 0,2ms
[2023-08-26T04:16:05.404+0200][gc,phases   ] GC(3)   Merge Heap Roots: 0,1ms
[2023-08-26T04:16:05.404+0200][gc,phases   ] GC(3)   Evacuate Collection Set: 10,2ms
[2023-08-26T04:16:05.404+0200][gc,phases   ] GC(3)   Post Evacuate Collection Set: 0,5ms
[2023-08-26T04:16:05.404+0200][gc,phases   ] GC(3)   Other: 0,2ms
[2023-08-26T04:16:05.404+0200][gc,heap     ] GC(3) Eden regions: 49->0(45)
[2023-08-26T04:16:05.404+0200][gc,heap     ] GC(3) Survivor regions: 2->6(7)
[2023-08-26T04:16:05.404+0200][gc,heap     ] GC(3) Old regions: 8->8
[2023-08-26T04:16:05.404+0200][gc,heap     ] GC(3) Archive regions: 2->2
[2023-08-26T04:16:05.404+0200][gc,heap     ] GC(3) Humongous regions: 129->129
[2023-08-26T04:16:05.404+0200][gc,metaspace] GC(3) Metaspace: 32790K(33024K)->32790K(33024K) NonClass: 28796K(28928K)->28796K(28928K) Class: 3994K(4096K)->3994K(4096K)
[2023-08-26T04:16:05.404+0200][gc          ] GC(3) Pause Young (Normal) (G1 Evacuation Pause) 187M->142M(1024M) 11,265ms
[2023-08-26T04:16:05.404+0200][gc,cpu      ] GC(3) User=0,03s Sys=0,00s Real=0,02s
[2023-08-26T04:18:27.175+0200][gc,heap,exit] Heap
[2023-08-26T04:18:27.175+0200][gc,heap,exit]  garbage-first heap   total 1048576K, used 166237K [0x00000000c0000000, 0x0000000100000000)
[2023-08-26T04:18:27.176+0200][gc,heap,exit]   region size 1024K, 26 young (26624K), 6 survivors (6144K)
[2023-08-26T04:18:27.176+0200][gc,heap,exit]  Metaspace       used 35667K, committed 35968K, reserved 1114112K
[2023-08-26T04:18:27.176+0200][gc,heap,exit]   class space    used 4465K, committed 4608K, reserved 1048576K
