[2023-05-22T00:19:27.877+0200][gc,heap] Heap region size: 1M
[2023-05-22T00:19:27.888+0200][gc     ] Using G1
[2023-05-22T00:19:27.888+0200][gc,heap,coops] Heap address: 0x00000000c0000000, size: 1024 MB, Compressed Oops mode: 32-bit
[2023-05-22T00:19:27.888+0200][gc,cds       ] Mark closed archive regions in map: [0x00000000fff00000, 0x00000000fff6aff8]
[2023-05-22T00:19:27.888+0200][gc,cds       ] Mark open archive regions in map: [0x00000000ffe00000, 0x00000000ffe46ff8]
[2023-05-22T00:19:29.614+0200][gc,start     ] GC(0) Pause Young (Normal) (G1 Evacuation Pause)
[2023-05-22T00:19:29.615+0200][gc,task      ] GC(0) Using 4 workers of 4 for evacuation
[2023-05-22T00:19:29.631+0200][gc,phases    ] GC(0)   Pre Evacuate Collection Set: 0,0ms
[2023-05-22T00:19:29.631+0200][gc,phases    ] GC(0)   Evacuate Collection Set: 15,1ms
[2023-05-22T00:19:29.631+0200][gc,phases    ] GC(0)   Post Evacuate Collection Set: 0,4ms
[2023-05-22T00:19:29.631+0200][gc,phases    ] GC(0)   Other: 0,9ms
[2023-05-22T00:19:29.631+0200][gc,heap      ] GC(0) Eden regions: 51->0(44)
[2023-05-22T00:19:29.631+0200][gc,heap      ] GC(0) Survivor regions: 0->7(7)
[2023-05-22T00:19:29.631+0200][gc,heap      ] GC(0) Old regions: 2->2
[2023-05-22T00:19:29.631+0200][gc,heap      ] GC(0) Humongous regions: 0->0
[2023-05-22T00:19:29.631+0200][gc,metaspace ] GC(0) Metaspace: 14370K(15104K)->14370K(15104K) NonClass: 12361K(12800K)->12361K(12800K) Class: 2008K(2304K)->2008K(2304K)
[2023-05-22T00:19:29.631+0200][gc           ] GC(0) Pause Young (Normal) (G1 Evacuation Pause) 51M->7M(1024M) 16,572ms
[2023-05-22T00:19:29.631+0200][gc,cpu       ] GC(0) User=0,05s Sys=0,00s Real=0,01s
[2023-05-22T00:19:30.241+0200][gc,start     ] GC(1) Pause Young (Concurrent Start) (Metadata GC Threshold)
[2023-05-22T00:19:30.241+0200][gc,task      ] GC(1) Using 4 workers of 4 for evacuation
[2023-05-22T00:19:30.254+0200][gc,phases    ] GC(1)   Pre Evacuate Collection Set: 0,1ms
[2023-05-22T00:19:30.254+0200][gc,phases    ] GC(1)   Evacuate Collection Set: 12,1ms
[2023-05-22T00:19:30.254+0200][gc,phases    ] GC(1)   Post Evacuate Collection Set: 0,5ms
[2023-05-22T00:19:30.254+0200][gc,phases    ] GC(1)   Other: 0,3ms
[2023-05-22T00:19:30.254+0200][gc,heap      ] GC(1) Eden regions: 27->0(50)
[2023-05-22T00:19:30.254+0200][gc,heap      ] GC(1) Survivor regions: 7->1(7)
[2023-05-22T00:19:30.254+0200][gc,heap      ] GC(1) Old regions: 2->9
[2023-05-22T00:19:30.254+0200][gc,heap      ] GC(1) Humongous regions: 0->0
[2023-05-22T00:19:30.254+0200][gc,metaspace ] GC(1) Metaspace: 20536K(21248K)->20536K(21248K) NonClass: 17779K(18176K)->17779K(18176K) Class: 2757K(3072K)->2757K(3072K)
[2023-05-22T00:19:30.254+0200][gc           ] GC(1) Pause Young (Concurrent Start) (Metadata GC Threshold) 33M->8M(1024M) 13,030ms
[2023-05-22T00:19:30.254+0200][gc,cpu       ] GC(1) User=0,04s Sys=0,00s Real=0,01s
[2023-05-22T00:19:30.254+0200][gc           ] GC(2) Concurrent Cycle
[2023-05-22T00:19:30.254+0200][gc,marking   ] GC(2) Concurrent Clear Claimed Marks
[2023-05-22T00:19:30.254+0200][gc,marking   ] GC(2) Concurrent Clear Claimed Marks 0,053ms
[2023-05-22T00:19:30.254+0200][gc,marking   ] GC(2) Concurrent Scan Root Regions
[2023-05-22T00:19:30.256+0200][gc,marking   ] GC(2) Concurrent Scan Root Regions 1,878ms
[2023-05-22T00:19:30.256+0200][gc,marking   ] GC(2) Concurrent Mark (2,385s)
[2023-05-22T00:19:30.256+0200][gc,marking   ] GC(2) Concurrent Mark From Roots
[2023-05-22T00:19:30.256+0200][gc,task      ] GC(2) Using 1 workers of 1 for marking
[2023-05-22T00:19:30.275+0200][gc,marking   ] GC(2) Concurrent Mark From Roots 18,975ms
[2023-05-22T00:19:30.275+0200][gc,marking   ] GC(2) Concurrent Preclean
[2023-05-22T00:19:30.276+0200][gc,marking   ] GC(2) Concurrent Preclean 0,228ms
[2023-05-22T00:19:30.276+0200][gc,marking   ] GC(2) Concurrent Mark (2,385s, 2,405s) 19,340ms
[2023-05-22T00:19:30.276+0200][gc,start     ] GC(2) Pause Remark
[2023-05-22T00:19:30.278+0200][gc,stringtable] GC(2) Cleaned string and symbol table, strings: 5213 processed, 0 removed, symbols: 52026 processed, 59 removed
[2023-05-22T00:19:30.278+0200][gc            ] GC(2) Pause Remark 10M->10M(1024M) 2,400ms
[2023-05-22T00:19:30.278+0200][gc,cpu        ] GC(2) User=0,01s Sys=0,00s Real=0,00s
[2023-05-22T00:19:30.278+0200][gc,marking    ] GC(2) Concurrent Rebuild Remembered Sets
[2023-05-22T00:19:30.287+0200][gc,marking    ] GC(2) Concurrent Rebuild Remembered Sets 8,172ms
[2023-05-22T00:19:30.287+0200][gc,start      ] GC(2) Pause Cleanup
[2023-05-22T00:19:30.287+0200][gc            ] GC(2) Pause Cleanup 10M->10M(1024M) 0,223ms
[2023-05-22T00:19:30.287+0200][gc,cpu        ] GC(2) User=0,00s Sys=0,00s Real=0,00s
[2023-05-22T00:19:30.287+0200][gc,marking    ] GC(2) Concurrent Cleanup for Next Mark
[2023-05-22T00:19:30.300+0200][gc,marking    ] GC(2) Concurrent Cleanup for Next Mark 13,235ms
[2023-05-22T00:19:30.300+0200][gc            ] GC(2) Concurrent Cycle 46,065ms
[2023-05-22T00:19:31.367+0200][gc,start      ] GC(3) Pause Young (Normal) (G1 Evacuation Pause)
[2023-05-22T00:19:31.367+0200][gc,task       ] GC(3) Using 4 workers of 4 for evacuation
[2023-05-22T00:19:31.375+0200][gc,phases     ] GC(3)   Pre Evacuate Collection Set: 0,2ms
[2023-05-22T00:19:31.375+0200][gc,phases     ] GC(3)   Evacuate Collection Set: 6,5ms
[2023-05-22T00:19:31.375+0200][gc,phases     ] GC(3)   Post Evacuate Collection Set: 0,7ms
[2023-05-22T00:19:31.375+0200][gc,phases     ] GC(3)   Other: 0,2ms
[2023-05-22T00:19:31.375+0200][gc,heap       ] GC(3) Eden regions: 50->0(46)
[2023-05-22T00:19:31.375+0200][gc,heap       ] GC(3) Survivor regions: 1->5(7)
[2023-05-22T00:19:31.375+0200][gc,heap       ] GC(3) Old regions: 9->9
[2023-05-22T00:19:31.375+0200][gc,heap       ] GC(3) Humongous regions: 129->129
[2023-05-22T00:19:31.375+0200][gc,metaspace  ] GC(3) Metaspace: 28904K(30080K)->28904K(30080K) NonClass: 25193K(25856K)->25193K(25856K) Class: 3711K(4224K)->3711K(4224K)
[2023-05-22T00:19:31.375+0200][gc            ] GC(3) Pause Young (Normal) (G1 Evacuation Pause) 187M->140M(1024M) 7,782ms
[2023-05-22T00:19:31.375+0200][gc,cpu        ] GC(3) User=0,03s Sys=0,00s Real=0,01s
[2023-05-22T00:19:32.043+0200][gc,start      ] GC(4) Pause Young (Concurrent Start) (Metadata GC Threshold)
[2023-05-22T00:19:32.043+0200][gc,task       ] GC(4) Using 4 workers of 4 for evacuation
[2023-05-22T00:19:32.055+0200][gc,phases     ] GC(4)   Pre Evacuate Collection Set: 0,1ms
[2023-05-22T00:19:32.055+0200][gc,phases     ] GC(4)   Evacuate Collection Set: 11,6ms
[2023-05-22T00:19:32.055+0200][gc,phases     ] GC(4)   Post Evacuate Collection Set: 0,4ms
[2023-05-22T00:19:32.055+0200][gc,phases     ] GC(4)   Other: 0,3ms
[2023-05-22T00:19:32.055+0200][gc,heap       ] GC(4) Eden regions: 28->0(45)
[2023-05-22T00:19:32.055+0200][gc,heap       ] GC(4) Survivor regions: 5->6(7)
[2023-05-22T00:19:32.055+0200][gc,heap       ] GC(4) Old regions: 9->10
[2023-05-22T00:19:32.055+0200][gc,heap       ] GC(4) Humongous regions: 129->129
[2023-05-22T00:19:32.055+0200][gc,metaspace  ] GC(4) Metaspace: 34412K(35840K)->34412K(35840K) NonClass: 30060K(30848K)->30060K(30848K) Class: 4352K(4992K)->4352K(4992K)
[2023-05-22T00:19:32.055+0200][gc            ] GC(4) Pause Young (Concurrent Start) (Metadata GC Threshold) 168M->142M(1024M) 12,447ms
[2023-05-22T00:19:32.055+0200][gc,cpu        ] GC(4) User=0,04s Sys=0,00s Real=0,01s
[2023-05-22T00:19:32.055+0200][gc            ] GC(5) Concurrent Cycle
[2023-05-22T00:19:32.055+0200][gc,marking    ] GC(5) Concurrent Clear Claimed Marks
[2023-05-22T00:19:32.055+0200][gc,marking    ] GC(5) Concurrent Clear Claimed Marks 0,101ms
[2023-05-22T00:19:32.056+0200][gc,marking    ] GC(5) Concurrent Scan Root Regions
[2023-05-22T00:19:32.061+0200][gc,marking    ] GC(5) Concurrent Scan Root Regions 5,744ms
[2023-05-22T00:19:32.061+0200][gc,marking    ] GC(5) Concurrent Mark (4,190s)
[2023-05-22T00:19:32.061+0200][gc,marking    ] GC(5) Concurrent Mark From Roots
[2023-05-22T00:19:32.061+0200][gc,task       ] GC(5) Using 1 workers of 1 for marking
[2023-05-22T00:19:32.082+0200][gc,marking    ] GC(5) Concurrent Mark From Roots 20,739ms
[2023-05-22T00:19:32.082+0200][gc,marking    ] GC(5) Concurrent Preclean
[2023-05-22T00:19:32.082+0200][gc,marking    ] GC(5) Concurrent Preclean 0,165ms
[2023-05-22T00:19:32.082+0200][gc,marking    ] GC(5) Concurrent Mark (4,190s, 4,211s) 20,998ms
[2023-05-22T00:19:32.084+0200][gc,start      ] GC(5) Pause Remark
[2023-05-22T00:19:32.087+0200][gc,stringtable] GC(5) Cleaned string and symbol table, strings: 10682 processed, 12 removed, symbols: 83753 processed, 15 removed
[2023-05-22T00:19:32.087+0200][gc            ] GC(5) Pause Remark 144M->144M(1024M) 3,361ms
[2023-05-22T00:19:32.087+0200][gc,cpu        ] GC(5) User=0,01s Sys=0,01s Real=0,00s
[2023-05-22T00:19:32.087+0200][gc,marking    ] GC(5) Concurrent Rebuild Remembered Sets
[2023-05-22T00:19:32.098+0200][gc,marking    ] GC(5) Concurrent Rebuild Remembered Sets 11,041ms
[2023-05-22T00:19:32.098+0200][gc,start      ] GC(5) Pause Cleanup
[2023-05-22T00:19:32.099+0200][gc            ] GC(5) Pause Cleanup 144M->144M(1024M) 0,314ms
[2023-05-22T00:19:32.099+0200][gc,cpu        ] GC(5) User=0,00s Sys=0,00s Real=0,00s
[2023-05-22T00:19:32.099+0200][gc,marking    ] GC(5) Concurrent Cleanup for Next Mark
[2023-05-22T00:19:32.142+0200][gc,marking    ] GC(5) Concurrent Cleanup for Next Mark 43,661ms
[2023-05-22T00:19:32.143+0200][gc            ] GC(5) Concurrent Cycle 87,163ms
[2023-05-22T00:20:08.474+0200][gc,start      ] GC(6) Pause Young (Normal) (G1 Evacuation Pause)
[2023-05-22T00:20:08.474+0200][gc,task       ] GC(6) Using 4 workers of 4 for evacuation
[2023-05-22T00:20:08.485+0200][gc,phases     ] GC(6)   Pre Evacuate Collection Set: 0,0ms
[2023-05-22T00:20:08.485+0200][gc,phases     ] GC(6)   Evacuate Collection Set: 10,5ms
[2023-05-22T00:20:08.485+0200][gc,phases     ] GC(6)   Post Evacuate Collection Set: 0,6ms
[2023-05-22T00:20:08.485+0200][gc,phases     ] GC(6)   Other: 0,2ms
[2023-05-22T00:20:08.485+0200][gc,heap       ] GC(6) Eden regions: 45->0(46)
[2023-05-22T00:20:08.485+0200][gc,heap       ] GC(6) Survivor regions: 6->5(7)
[2023-05-22T00:20:08.485+0200][gc,heap       ] GC(6) Old regions: 10->13
[2023-05-22T00:20:08.485+0200][gc,heap       ] GC(6) Humongous regions: 129->129
[2023-05-22T00:20:08.485+0200][gc,metaspace  ] GC(6) Metaspace: 39968K(42188K)->39968K(42188K) NonClass: 34644K(35840K)->34644K(35840K) Class: 5323K(6348K)->5323K(6348K)
[2023-05-22T00:20:08.485+0200][gc            ] GC(6) Pause Young (Normal) (G1 Evacuation Pause) 187M->144M(1024M) 11,432ms
[2023-05-22T00:20:08.485+0200][gc,cpu        ] GC(6) User=0,04s Sys=0,00s Real=0,01s
[2023-05-22T00:44:53.468+0200][gc,start      ] GC(7) Pause Young (Normal) (G1 Evacuation Pause)
[2023-05-22T00:44:53.472+0200][gc,task       ] GC(7) Using 4 workers of 4 for evacuation
[2023-05-22T00:44:53.500+0200][gc,mmu        ] GC(7) MMU target violated: 21,0ms (20,0ms/21,0ms)
[2023-05-22T00:44:53.501+0200][gc,phases     ] GC(7)   Pre Evacuate Collection Set: 1,1ms
[2023-05-22T00:44:53.501+0200][gc,phases     ] GC(7)   Evacuate Collection Set: 25,5ms
[2023-05-22T00:44:53.501+0200][gc,phases     ] GC(7)   Post Evacuate Collection Set: 0,7ms
[2023-05-22T00:44:53.501+0200][gc,phases     ] GC(7)   Other: 5,4ms
[2023-05-22T00:44:53.501+0200][gc,heap       ] GC(7) Eden regions: 46->0(47)
[2023-05-22T00:44:53.501+0200][gc,heap       ] GC(7) Survivor regions: 5->4(7)
[2023-05-22T00:44:53.501+0200][gc,heap       ] GC(7) Old regions: 13->15
[2023-05-22T00:44:53.501+0200][gc,heap       ] GC(7) Humongous regions: 129->129
[2023-05-22T00:44:53.501+0200][gc,metaspace  ] GC(7) Metaspace: 42121K(44620K)->42121K(44620K) NonClass: 36399K(37632K)->36399K(37632K) Class: 5722K(6988K)->5722K(6988K)
[2023-05-22T00:44:53.501+0200][gc            ] GC(7) Pause Young (Normal) (G1 Evacuation Pause) 190M->145M(1024M) 33,115ms
[2023-05-22T00:44:53.501+0200][gc,cpu        ] GC(7) User=0,02s Sys=0,02s Real=0,04s
[2023-05-22T01:11:31.144+0200][gc,start      ] GC(8) Pause Young (Normal) (G1 Evacuation Pause)
[2023-05-22T01:11:31.145+0200][gc,task       ] GC(8) Using 4 workers of 4 for evacuation
[2023-05-22T01:11:31.151+0200][gc,phases     ] GC(8)   Pre Evacuate Collection Set: 0,0ms
[2023-05-22T01:11:31.151+0200][gc,phases     ] GC(8)   Evacuate Collection Set: 5,5ms
[2023-05-22T01:11:31.151+0200][gc,phases     ] GC(8)   Post Evacuate Collection Set: 0,8ms
[2023-05-22T01:11:31.151+0200][gc,phases     ] GC(8)   Other: 4,0ms
[2023-05-22T01:11:31.151+0200][gc,heap       ] GC(8) Eden regions: 47->0(47)
[2023-05-22T01:11:31.151+0200][gc,heap       ] GC(8) Survivor regions: 4->4(7)
[2023-05-22T01:11:31.151+0200][gc,heap       ] GC(8) Old regions: 15->15
[2023-05-22T01:11:31.151+0200][gc,heap       ] GC(8) Humongous regions: 129->129
[2023-05-22T01:11:31.151+0200][gc,metaspace  ] GC(8) Metaspace: 43025K(45644K)->43025K(45644K) NonClass: 37268K(38656K)->37268K(38656K) Class: 5757K(6988K)->5757K(6988K)
[2023-05-22T01:11:31.151+0200][gc            ] GC(8) Pause Young (Normal) (G1 Evacuation Pause) 192M->145M(1024M) 6,939ms
[2023-05-22T01:11:31.151+0200][gc,cpu        ] GC(8) User=0,02s Sys=0,00s Real=0,00s
[2023-05-22T01:36:49.689+0200][gc,start      ] GC(9) Pause Young (Normal) (G1 Evacuation Pause)
[2023-05-22T01:36:49.691+0200][gc,task       ] GC(9) Using 4 workers of 4 for evacuation
[2023-05-22T01:36:49.707+0200][gc,phases     ] GC(9)   Pre Evacuate Collection Set: 0,5ms
[2023-05-22T01:36:49.707+0200][gc,phases     ] GC(9)   Evacuate Collection Set: 10,7ms
[2023-05-22T01:36:49.707+0200][gc,phases     ] GC(9)   Post Evacuate Collection Set: 1,8ms
[2023-05-22T01:36:49.707+0200][gc,phases     ] GC(9)   Other: 7,2ms
[2023-05-22T01:36:49.707+0200][gc,heap       ] GC(9) Eden regions: 47->0(47)
[2023-05-22T01:36:49.707+0200][gc,heap       ] GC(9) Survivor regions: 4->4(7)
[2023-05-22T01:36:49.707+0200][gc,heap       ] GC(9) Old regions: 15->15
[2023-05-22T01:36:49.707+0200][gc,heap       ] GC(9) Humongous regions: 129->129
[2023-05-22T01:36:49.707+0200][gc,metaspace  ] GC(9) Metaspace: 43228K(45900K)->43228K(45900K) NonClass: 37466K(38912K)->37466K(38912K) Class: 5762K(6988K)->5762K(6988K)
[2023-05-22T01:36:49.707+0200][gc            ] GC(9) Pause Young (Normal) (G1 Evacuation Pause) 192M->146M(1024M) 18,881ms
[2023-05-22T01:36:49.707+0200][gc,cpu        ] GC(9) User=0,00s Sys=0,02s Real=0,02s
[2023-05-22T01:37:12.546+0200][gc,heap,exit  ] Heap
[2023-05-22T01:37:12.546+0200][gc,heap,exit  ]  garbage-first heap   total 1048576K, used 161199K [0x00000000c0000000, 0x0000000100000000)
[2023-05-22T01:37:12.546+0200][gc,heap,exit  ]   region size 1024K, 16 young (16384K), 4 survivors (4096K)
[2023-05-22T01:37:12.546+0200][gc,heap,exit  ]  Metaspace       used 44023K, capacity 46685K, committed 47052K, reserved 1089536K
[2023-05-22T01:37:12.546+0200][gc,heap,exit  ]   class space    used 5975K, capacity 7250K, committed 7372K, reserved 1048576K
