[2023-08-26T04:23:32.276+0200][gc] Using G1
[2023-08-26T04:23:32.295+0200][gc,init] Version: 17.0.8+7-Ubuntu-122.04 (release)
[2023-08-26T04:23:32.295+0200][gc,init] CPUs: 4 total, 4 available
[2023-08-26T04:23:32.295+0200][gc,init] Memory: 7843M
[2023-08-26T04:23:32.295+0200][gc,init] Large Page Support: Disabled
[2023-08-26T04:23:32.295+0200][gc,init] NUMA Support: Disabled
[2023-08-26T04:23:32.295+0200][gc,init] Compressed Oops: Enabled (32-bit)
[2023-08-26T04:23:32.295+0200][gc,init] Heap Region Size: 1M
[2023-08-26T04:23:32.295+0200][gc,init] Heap Min Capacity: 1G
[2023-08-26T04:23:32.295+0200][gc,init] Heap Initial Capacity: 1G
[2023-08-26T04:23:32.295+0200][gc,init] Heap Max Capacity: 1G
[2023-08-26T04:23:32.295+0200][gc,init] Pre-touch: Disabled
[2023-08-26T04:23:32.295+0200][gc,init] Parallel Workers: 4
[2023-08-26T04:23:32.295+0200][gc,init] Concurrent Workers: 1
[2023-08-26T04:23:32.295+0200][gc,init] Concurrent Refinement Workers: 4
[2023-08-26T04:23:32.295+0200][gc,init] Periodic GC: Disabled
[2023-08-26T04:23:32.305+0200][gc,metaspace] CDS archive(s) mapped at: [0x00007f80cf000000-0x00007f80cfbeb000-0x00007f80cfbeb000), size 12496896, SharedBaseAddress: 0x00007f80cf000000, ArchiveRelocationMode: 1.
[2023-08-26T04:23:32.305+0200][gc,metaspace] Compressed class space mapped at: 0x00007f80d0000000-0x00007f8110000000, reserved size: 1073741824
[2023-08-26T04:23:32.305+0200][gc,metaspace] Narrow klass base: 0x00007f80cf000000, Narrow klass shift: 0, Narrow klass range: 0x100000000
[2023-08-26T04:23:35.360+0200][gc,start    ] GC(0) Pause Young (Normal) (G1 Evacuation Pause)
[2023-08-26T04:23:35.361+0200][gc,task     ] GC(0) Using 4 workers of 4 for evacuation
[2023-08-26T04:23:35.390+0200][gc,mmu      ] GC(0) MMU target violated: 21,0ms (20,0ms/21,0ms)
[2023-08-26T04:23:35.390+0200][gc,phases   ] GC(0)   Pre Evacuate Collection Set: 0,2ms
[2023-08-26T04:23:35.390+0200][gc,phases   ] GC(0)   Merge Heap Roots: 0,1ms
[2023-08-26T04:23:35.390+0200][gc,phases   ] GC(0)   Evacuate Collection Set: 26,6ms
[2023-08-26T04:23:35.390+0200][gc,phases   ] GC(0)   Post Evacuate Collection Set: 2,1ms
[2023-08-26T04:23:35.390+0200][gc,phases   ] GC(0)   Other: 0,7ms
[2023-08-26T04:23:35.390+0200][gc,heap     ] GC(0) Eden regions: 51->0(44)
[2023-08-26T04:23:35.390+0200][gc,heap     ] GC(0) Survivor regions: 0->7(7)
[2023-08-26T04:23:35.390+0200][gc,heap     ] GC(0) Old regions: 0->1
[2023-08-26T04:23:35.390+0200][gc,heap     ] GC(0) Archive regions: 2->2
[2023-08-26T04:23:35.390+0200][gc,heap     ] GC(0) Humongous regions: 2->2
[2023-08-26T04:23:35.390+0200][gc,metaspace] GC(0) Metaspace: 14832K(15104K)->14832K(15104K) NonClass: 12898K(13056K)->12898K(13056K) Class: 1933K(2048K)->1933K(2048K)
[2023-08-26T04:23:35.390+0200][gc          ] GC(0) Pause Young (Normal) (G1 Evacuation Pause) 53M->10M(1024M) 29,847ms
[2023-08-26T04:23:35.390+0200][gc,cpu      ] GC(0) User=0,05s Sys=0,01s Real=0,03s
[2023-08-26T04:23:36.350+0200][gc,start    ] GC(1) Pause Young (Normal) (G1 Evacuation Pause)
[2023-08-26T04:23:36.350+0200][gc,task     ] GC(1) Using 4 workers of 4 for evacuation
[2023-08-26T04:23:36.363+0200][gc,phases   ] GC(1)   Pre Evacuate Collection Set: 0,1ms
[2023-08-26T04:23:36.363+0200][gc,phases   ] GC(1)   Merge Heap Roots: 0,1ms
[2023-08-26T04:23:36.363+0200][gc,phases   ] GC(1)   Evacuate Collection Set: 12,7ms
[2023-08-26T04:23:36.363+0200][gc,phases   ] GC(1)   Post Evacuate Collection Set: 0,7ms
[2023-08-26T04:23:36.363+0200][gc,phases   ] GC(1)   Other: 0,2ms
[2023-08-26T04:23:36.363+0200][gc,heap     ] GC(1) Eden regions: 44->0(49)
[2023-08-26T04:23:36.363+0200][gc,heap     ] GC(1) Survivor regions: 7->2(7)
[2023-08-26T04:23:36.364+0200][gc,heap     ] GC(1) Old regions: 1->8
[2023-08-26T04:23:36.364+0200][gc,heap     ] GC(1) Archive regions: 2->2
[2023-08-26T04:23:36.364+0200][gc,heap     ] GC(1) Humongous regions: 2->2
[2023-08-26T04:23:36.364+0200][gc,metaspace] GC(1) Metaspace: 18976K(19264K)->18976K(19264K) NonClass: 16463K(16576K)->16463K(16576K) Class: 2513K(2688K)->2513K(2688K)
[2023-08-26T04:23:36.364+0200][gc          ] GC(1) Pause Young (Normal) (G1 Evacuation Pause) 54M->12M(1024M) 14,058ms
[2023-08-26T04:23:36.364+0200][gc,cpu      ] GC(1) User=0,03s Sys=0,01s Real=0,01s
[2023-08-26T04:23:36.692+0200][gc,start    ] GC(2) Pause Young (Concurrent Start) (Metadata GC Threshold)
[2023-08-26T04:23:36.692+0200][gc,task     ] GC(2) Using 4 workers of 4 for evacuation
[2023-08-26T04:23:36.697+0200][gc,phases   ] GC(2)   Pre Evacuate Collection Set: 0,2ms
[2023-08-26T04:23:36.697+0200][gc,phases   ] GC(2)   Merge Heap Roots: 0,1ms
[2023-08-26T04:23:36.697+0200][gc,phases   ] GC(2)   Evacuate Collection Set: 4,3ms
[2023-08-26T04:23:36.697+0200][gc,phases   ] GC(2)   Post Evacuate Collection Set: 0,4ms
[2023-08-26T04:23:36.697+0200][gc,phases   ] GC(2)   Other: 0,3ms
[2023-08-26T04:23:36.697+0200][gc,heap     ] GC(2) Eden regions: 8->0(49)
[2023-08-26T04:23:36.697+0200][gc,heap     ] GC(2) Survivor regions: 2->2(7)
[2023-08-26T04:23:36.697+0200][gc,heap     ] GC(2) Old regions: 8->8
[2023-08-26T04:23:36.697+0200][gc,heap     ] GC(2) Archive regions: 2->2
[2023-08-26T04:23:36.697+0200][gc,heap     ] GC(2) Humongous regions: 2->2
[2023-08-26T04:23:36.697+0200][gc,metaspace] GC(2) Metaspace: 21256K(21504K)->21256K(21504K) NonClass: 18524K(18624K)->18524K(18624K) Class: 2732K(2880K)->2732K(2880K)
[2023-08-26T04:23:36.697+0200][gc          ] GC(2) Pause Young (Concurrent Start) (Metadata GC Threshold) 19M->11M(1024M) 5,466ms
[2023-08-26T04:23:36.697+0200][gc,cpu      ] GC(2) User=0,01s Sys=0,00s Real=0,01s
[2023-08-26T04:23:36.697+0200][gc          ] GC(3) Concurrent Mark Cycle
[2023-08-26T04:23:36.697+0200][gc,marking  ] GC(3) Concurrent Clear Claimed Marks
[2023-08-26T04:23:36.697+0200][gc,marking  ] GC(3) Concurrent Clear Claimed Marks 0,053ms
[2023-08-26T04:23:36.697+0200][gc,marking  ] GC(3) Concurrent Scan Root Regions
[2023-08-26T04:23:36.703+0200][gc,marking  ] GC(3) Concurrent Scan Root Regions 5,435ms
[2023-08-26T04:23:36.703+0200][gc,marking  ] GC(3) Concurrent Mark
[2023-08-26T04:23:36.703+0200][gc,marking  ] GC(3) Concurrent Mark From Roots
[2023-08-26T04:23:36.703+0200][gc,task     ] GC(3) Using 1 workers of 1 for marking
[2023-08-26T04:23:36.744+0200][gc,marking  ] GC(3) Concurrent Mark From Roots 41,289ms
[2023-08-26T04:23:36.744+0200][gc,marking  ] GC(3) Concurrent Preclean
[2023-08-26T04:23:36.744+0200][gc,marking  ] GC(3) Concurrent Preclean 0,167ms
[2023-08-26T04:23:36.745+0200][gc,start    ] GC(3) Pause Remark
[2023-08-26T04:23:36.749+0200][gc          ] GC(3) Pause Remark 13M->13M(1024M) 4,463ms
[2023-08-26T04:23:36.749+0200][gc,cpu      ] GC(3) User=0,01s Sys=0,00s Real=0,00s
[2023-08-26T04:23:36.749+0200][gc,marking  ] GC(3) Concurrent Mark 46,294ms
[2023-08-26T04:23:36.749+0200][gc,marking  ] GC(3) Concurrent Rebuild Remembered Sets
[2023-08-26T04:23:36.767+0200][gc,marking  ] GC(3) Concurrent Rebuild Remembered Sets 17,968ms
[2023-08-26T04:23:36.768+0200][gc,start    ] GC(3) Pause Cleanup
[2023-08-26T04:23:36.768+0200][gc          ] GC(3) Pause Cleanup 13M->13M(1024M) 0,227ms
[2023-08-26T04:23:36.768+0200][gc,cpu      ] GC(3) User=0,00s Sys=0,00s Real=0,00s
[2023-08-26T04:23:36.768+0200][gc,marking  ] GC(3) Concurrent Cleanup for Next Mark
[2023-08-26T04:23:36.802+0200][gc,marking  ] GC(3) Concurrent Cleanup for Next Mark 34,145ms
[2023-08-26T04:23:36.802+0200][gc          ] GC(3) Concurrent Mark Cycle 105,022ms
[2023-08-26T04:23:38.198+0200][gc,start    ] GC(4) Pause Young (Normal) (G1 Evacuation Pause)
[2023-08-26T04:23:38.198+0200][gc,task     ] GC(4) Using 4 workers of 4 for evacuation
[2023-08-26T04:23:38.203+0200][gc,phases   ] GC(4)   Pre Evacuate Collection Set: 0,3ms
[2023-08-26T04:23:38.203+0200][gc,phases   ] GC(4)   Merge Heap Roots: 0,1ms
[2023-08-26T04:23:38.203+0200][gc,phases   ] GC(4)   Evacuate Collection Set: 4,1ms
[2023-08-26T04:23:38.203+0200][gc,phases   ] GC(4)   Post Evacuate Collection Set: 0,6ms
[2023-08-26T04:23:38.203+0200][gc,phases   ] GC(4)   Other: 0,3ms
[2023-08-26T04:23:38.203+0200][gc,heap     ] GC(4) Eden regions: 49->0(48)
[2023-08-26T04:23:38.203+0200][gc,heap     ] GC(4) Survivor regions: 2->3(7)
[2023-08-26T04:23:38.203+0200][gc,heap     ] GC(4) Old regions: 8->8
[2023-08-26T04:23:38.203+0200][gc,heap     ] GC(4) Archive regions: 2->2
[2023-08-26T04:23:38.203+0200][gc,heap     ] GC(4) Humongous regions: 2->2
[2023-08-26T04:23:38.203+0200][gc,metaspace] GC(4) Metaspace: 26025K(26368K)->26025K(26368K) NonClass: 22602K(22784K)->22602K(22784K) Class: 3422K(3584K)->3422K(3584K)
[2023-08-26T04:23:38.203+0200][gc          ] GC(4) Pause Young (Normal) (G1 Evacuation Pause) 60M->12M(1024M) 5,520ms
[2023-08-26T04:23:38.203+0200][gc,cpu      ] GC(4) User=0,01s Sys=0,00s Real=0,00s
[2023-08-26T04:23:39.596+0200][gc,start    ] GC(5) Pause Young (Normal) (G1 Evacuation Pause)
[2023-08-26T04:23:39.596+0200][gc,task     ] GC(5) Using 4 workers of 4 for evacuation
[2023-08-26T04:23:39.613+0200][gc,phases   ] GC(5)   Pre Evacuate Collection Set: 0,2ms
[2023-08-26T04:23:39.613+0200][gc,phases   ] GC(5)   Merge Heap Roots: 0,1ms
[2023-08-26T04:23:39.613+0200][gc,phases   ] GC(5)   Evacuate Collection Set: 15,4ms
[2023-08-26T04:23:39.613+0200][gc,phases   ] GC(5)   Post Evacuate Collection Set: 0,6ms
[2023-08-26T04:23:39.613+0200][gc,phases   ] GC(5)   Other: 0,2ms
[2023-08-26T04:23:39.613+0200][gc,heap     ] GC(5) Eden regions: 48->0(47)
[2023-08-26T04:23:39.613+0200][gc,heap     ] GC(5) Survivor regions: 3->4(7)
[2023-08-26T04:23:39.613+0200][gc,heap     ] GC(5) Old regions: 8->8
[2023-08-26T04:23:39.613+0200][gc,heap     ] GC(5) Archive regions: 2->2
[2023-08-26T04:23:39.613+0200][gc,heap     ] GC(5) Humongous regions: 131->131
[2023-08-26T04:23:39.613+0200][gc,metaspace] GC(5) Metaspace: 27826K(28160K)->27826K(28160K) NonClass: 24191K(24384K)->24191K(24384K) Class: 3634K(3776K)->3634K(3776K)
[2023-08-26T04:23:39.613+0200][gc          ] GC(5) Pause Young (Normal) (G1 Evacuation Pause) 189M->143M(1024M) 16,636ms
[2023-08-26T04:23:39.613+0200][gc,cpu      ] GC(5) User=0,02s Sys=0,00s Real=0,01s
[2023-08-26T04:23:40.664+0200][gc,start    ] GC(6) Pause Young (Normal) (G1 Evacuation Pause)
[2023-08-26T04:23:40.664+0200][gc,task     ] GC(6) Using 4 workers of 4 for evacuation
[2023-08-26T04:23:40.681+0200][gc,phases   ] GC(6)   Pre Evacuate Collection Set: 0,3ms
[2023-08-26T04:23:40.681+0200][gc,phases   ] GC(6)   Merge Heap Roots: 0,1ms
[2023-08-26T04:23:40.681+0200][gc,phases   ] GC(6)   Evacuate Collection Set: 15,9ms
[2023-08-26T04:23:40.681+0200][gc,phases   ] GC(6)   Post Evacuate Collection Set: 0,7ms
[2023-08-26T04:23:40.681+0200][gc,phases   ] GC(6)   Other: 0,2ms
[2023-08-26T04:23:40.681+0200][gc,heap     ] GC(6) Eden regions: 47->0(46)
[2023-08-26T04:23:40.681+0200][gc,heap     ] GC(6) Survivor regions: 4->5(7)
[2023-08-26T04:23:40.681+0200][gc,heap     ] GC(6) Old regions: 8->8
[2023-08-26T04:23:40.681+0200][gc,heap     ] GC(6) Archive regions: 2->2
[2023-08-26T04:23:40.681+0200][gc,heap     ] GC(6) Humongous regions: 131->131
[2023-08-26T04:23:40.681+0200][gc,metaspace] GC(6) Metaspace: 32227K(32640K)->32227K(32640K) NonClass: 28260K(28480K)->28260K(28480K) Class: 3966K(4160K)->3966K(4160K)
[2023-08-26T04:23:40.681+0200][gc          ] GC(6) Pause Young (Normal) (G1 Evacuation Pause) 190M->144M(1024M) 17,299ms
[2023-08-26T04:23:40.681+0200][gc,cpu      ] GC(6) User=0,02s Sys=0,00s Real=0,01s
[2023-08-26T04:23:41.376+0200][gc,start    ] GC(7) Pause Young (Normal) (G1 Evacuation Pause)
[2023-08-26T04:23:41.376+0200][gc,task     ] GC(7) Using 4 workers of 4 for evacuation
[2023-08-26T04:23:41.386+0200][gc,phases   ] GC(7)   Pre Evacuate Collection Set: 0,3ms
[2023-08-26T04:23:41.386+0200][gc,phases   ] GC(7)   Merge Heap Roots: 0,1ms
[2023-08-26T04:23:41.386+0200][gc,phases   ] GC(7)   Evacuate Collection Set: 8,6ms
[2023-08-26T04:23:41.386+0200][gc,phases   ] GC(7)   Post Evacuate Collection Set: 0,7ms
[2023-08-26T04:23:41.386+0200][gc,phases   ] GC(7)   Other: 0,2ms
[2023-08-26T04:23:41.386+0200][gc,heap     ] GC(7) Eden regions: 46->0(46)
[2023-08-26T04:23:41.386+0200][gc,heap     ] GC(7) Survivor regions: 5->5(7)
[2023-08-26T04:23:41.386+0200][gc,heap     ] GC(7) Old regions: 8->9
[2023-08-26T04:23:41.386+0200][gc,heap     ] GC(7) Archive regions: 2->2
[2023-08-26T04:23:41.386+0200][gc,heap     ] GC(7) Humongous regions: 131->131
[2023-08-26T04:23:41.386+0200][gc,metaspace] GC(7) Metaspace: 33827K(34176K)->33827K(34176K) NonClass: 29606K(29760K)->29606K(29760K) Class: 4220K(4416K)->4220K(4416K)
[2023-08-26T04:23:41.386+0200][gc          ] GC(7) Pause Young (Normal) (G1 Evacuation Pause) 190M->145M(1024M) 10,119ms
[2023-08-26T04:23:41.386+0200][gc,cpu      ] GC(7) User=0,02s Sys=0,00s Real=0,01s
[2023-08-26T04:23:42.085+0200][gc,start    ] GC(8) Pause Young (Normal) (G1 Evacuation Pause)
[2023-08-26T04:23:42.085+0200][gc,task     ] GC(8) Using 4 workers of 4 for evacuation
[2023-08-26T04:23:42.096+0200][gc,phases   ] GC(8)   Pre Evacuate Collection Set: 0,2ms
[2023-08-26T04:23:42.096+0200][gc,phases   ] GC(8)   Merge Heap Roots: 0,1ms
[2023-08-26T04:23:42.096+0200][gc,phases   ] GC(8)   Evacuate Collection Set: 10,3ms
[2023-08-26T04:23:42.096+0200][gc,phases   ] GC(8)   Post Evacuate Collection Set: 0,5ms
[2023-08-26T04:23:42.096+0200][gc,phases   ] GC(8)   Other: 0,2ms
[2023-08-26T04:23:42.096+0200][gc,heap     ] GC(8) Eden regions: 46->0(46)
[2023-08-26T04:23:42.096+0200][gc,heap     ] GC(8) Survivor regions: 5->5(7)
[2023-08-26T04:23:42.096+0200][gc,heap     ] GC(8) Old regions: 9->11
[2023-08-26T04:23:42.096+0200][gc,heap     ] GC(8) Archive regions: 2->2
[2023-08-26T04:23:42.096+0200][gc,heap     ] GC(8) Humongous regions: 131->131
[2023-08-26T04:23:42.096+0200][gc,metaspace] GC(8) Metaspace: 35301K(35712K)->35301K(35712K) NonClass: 30914K(31168K)->30914K(31168K) Class: 4386K(4544K)->4386K(4544K)
[2023-08-26T04:23:42.097+0200][gc          ] GC(8) Pause Young (Normal) (G1 Evacuation Pause) 191M->147M(1024M) 11,398ms
[2023-08-26T04:23:42.097+0200][gc,cpu      ] GC(8) User=0,03s Sys=0,02s Real=0,01s
[2023-08-26T04:23:42.189+0200][gc,start    ] GC(9) Pause Young (Concurrent Start) (Metadata GC Threshold)
[2023-08-26T04:23:42.189+0200][gc,task     ] GC(9) Using 4 workers of 4 for evacuation
[2023-08-26T04:23:42.197+0200][gc,phases   ] GC(9)   Pre Evacuate Collection Set: 0,2ms
[2023-08-26T04:23:42.197+0200][gc,phases   ] GC(9)   Merge Heap Roots: 0,1ms
[2023-08-26T04:23:42.197+0200][gc,phases   ] GC(9)   Evacuate Collection Set: 6,8ms
[2023-08-26T04:23:42.197+0200][gc,phases   ] GC(9)   Post Evacuate Collection Set: 0,6ms
[2023-08-26T04:23:42.197+0200][gc,phases   ] GC(9)   Other: 0,3ms
[2023-08-26T04:23:42.197+0200][gc,heap     ] GC(9) Eden regions: 11->0(47)
[2023-08-26T04:23:42.197+0200][gc,heap     ] GC(9) Survivor regions: 5->4(7)
[2023-08-26T04:23:42.197+0200][gc,heap     ] GC(9) Old regions: 11->12
[2023-08-26T04:23:42.197+0200][gc,heap     ] GC(9) Archive regions: 2->2
[2023-08-26T04:23:42.197+0200][gc,heap     ] GC(9) Humongous regions: 131->131
[2023-08-26T04:23:42.197+0200][gc,metaspace] GC(9) Metaspace: 36068K(36416K)->36068K(36416K) NonClass: 31634K(31808K)->31634K(31808K) Class: 4434K(4608K)->4434K(4608K)
[2023-08-26T04:23:42.197+0200][gc          ] GC(9) Pause Young (Concurrent Start) (Metadata GC Threshold) 158M->147M(1024M) 8,056ms
[2023-08-26T04:23:42.197+0200][gc,cpu      ] GC(9) User=0,01s Sys=0,00s Real=0,01s
[2023-08-26T04:23:42.197+0200][gc          ] GC(10) Concurrent Mark Cycle
[2023-08-26T04:23:42.197+0200][gc,marking  ] GC(10) Concurrent Clear Claimed Marks
[2023-08-26T04:23:42.197+0200][gc,marking  ] GC(10) Concurrent Clear Claimed Marks 0,040ms
[2023-08-26T04:23:42.197+0200][gc,marking  ] GC(10) Concurrent Scan Root Regions
[2023-08-26T04:23:42.210+0200][gc,marking  ] GC(10) Concurrent Scan Root Regions 12,529ms
[2023-08-26T04:23:42.210+0200][gc,marking  ] GC(10) Concurrent Mark
[2023-08-26T04:23:42.210+0200][gc,marking  ] GC(10) Concurrent Mark From Roots
[2023-08-26T04:23:42.210+0200][gc,task     ] GC(10) Using 1 workers of 1 for marking
[2023-08-26T04:23:42.280+0200][gc,marking  ] GC(10) Concurrent Mark From Roots 70,429ms
[2023-08-26T04:23:42.281+0200][gc,marking  ] GC(10) Concurrent Preclean
[2023-08-26T04:23:42.281+0200][gc,marking  ] GC(10) Concurrent Preclean 0,242ms
[2023-08-26T04:23:42.284+0200][gc,start    ] GC(10) Pause Remark
[2023-08-26T04:23:42.290+0200][gc          ] GC(10) Pause Remark 162M->162M(1024M) 6,320ms
[2023-08-26T04:23:42.291+0200][gc,cpu      ] GC(10) User=0,02s Sys=0,00s Real=0,00s
[2023-08-26T04:23:42.291+0200][gc,marking  ] GC(10) Concurrent Mark 80,607ms
[2023-08-26T04:23:42.291+0200][gc,marking  ] GC(10) Concurrent Rebuild Remembered Sets
[2023-08-26T04:23:42.291+0200][gc,marking  ] GC(10) Concurrent Rebuild Remembered Sets 0,010ms
[2023-08-26T04:23:42.292+0200][gc,start    ] GC(10) Pause Cleanup
[2023-08-26T04:23:42.292+0200][gc          ] GC(10) Pause Cleanup 162M->162M(1024M) 0,060ms
[2023-08-26T04:23:42.292+0200][gc,cpu      ] GC(10) User=0,00s Sys=0,00s Real=0,00s
[2023-08-26T04:23:42.293+0200][gc,marking  ] GC(10) Concurrent Cleanup for Next Mark
[2023-08-26T04:23:42.348+0200][gc,marking  ] GC(10) Concurrent Cleanup for Next Mark 55,264ms
[2023-08-26T04:23:42.348+0200][gc          ] GC(10) Concurrent Mark Cycle 151,150ms
[2023-08-26T04:23:42.480+0200][gc,start    ] GC(11) Pause Young (Concurrent Start) (G1 Evacuation Pause)
[2023-08-26T04:23:42.480+0200][gc,task     ] GC(11) Using 4 workers of 4 for evacuation
[2023-08-26T04:23:42.489+0200][gc,phases   ] GC(11)   Pre Evacuate Collection Set: 0,4ms
[2023-08-26T04:23:42.489+0200][gc,phases   ] GC(11)   Merge Heap Roots: 0,5ms
[2023-08-26T04:23:42.489+0200][gc,phases   ] GC(11)   Evacuate Collection Set: 7,5ms
[2023-08-26T04:23:42.489+0200][gc,phases   ] GC(11)   Post Evacuate Collection Set: 0,5ms
[2023-08-26T04:23:42.489+0200][gc,phases   ] GC(11)   Other: 0,3ms
[2023-08-26T04:23:42.489+0200][gc,heap     ] GC(11) Eden regions: 47->0(47)
[2023-08-26T04:23:42.489+0200][gc,heap     ] GC(11) Survivor regions: 4->4(7)
[2023-08-26T04:23:42.489+0200][gc,heap     ] GC(11) Old regions: 12->12
[2023-08-26T04:23:42.489+0200][gc,heap     ] GC(11) Archive regions: 2->2
[2023-08-26T04:23:42.489+0200][gc,heap     ] GC(11) Humongous regions: 131->131
[2023-08-26T04:23:42.489+0200][gc,metaspace] GC(11) Metaspace: 37671K(38016K)->37671K(38016K) NonClass: 33055K(33216K)->33055K(33216K) Class: 4615K(4800K)->4615K(4800K)
[2023-08-26T04:23:42.489+0200][gc          ] GC(11) Pause Young (Concurrent Start) (G1 Evacuation Pause) 194M->147M(1024M) 9,193ms
[2023-08-26T04:23:42.489+0200][gc,cpu      ] GC(11) User=0,01s Sys=0,00s Real=0,01s
[2023-08-26T04:23:42.489+0200][gc          ] GC(12) Concurrent Mark Cycle
[2023-08-26T04:23:42.489+0200][gc,marking  ] GC(12) Concurrent Clear Claimed Marks
[2023-08-26T04:23:42.489+0200][gc,marking  ] GC(12) Concurrent Clear Claimed Marks 0,044ms
[2023-08-26T04:23:42.489+0200][gc,marking  ] GC(12) Concurrent Scan Root Regions
[2023-08-26T04:23:42.516+0200][gc,marking  ] GC(12) Concurrent Scan Root Regions 27,203ms
[2023-08-26T04:23:42.516+0200][gc,marking  ] GC(12) Concurrent Mark
[2023-08-26T04:23:42.516+0200][gc,marking  ] GC(12) Concurrent Mark From Roots
[2023-08-26T04:23:42.516+0200][gc,task     ] GC(12) Using 1 workers of 1 for marking
[2023-08-26T04:23:42.559+0200][gc,marking  ] GC(12) Concurrent Mark From Roots 42,150ms
[2023-08-26T04:23:42.559+0200][gc,marking  ] GC(12) Concurrent Preclean
[2023-08-26T04:23:42.559+0200][gc,marking  ] GC(12) Concurrent Preclean 0,248ms
[2023-08-26T04:23:42.559+0200][gc,start    ] GC(12) Pause Remark
[2023-08-26T04:23:42.562+0200][gc          ] GC(12) Pause Remark 154M->154M(1024M) 3,052ms
[2023-08-26T04:23:42.562+0200][gc,cpu      ] GC(12) User=0,01s Sys=0,00s Real=0,00s
[2023-08-26T04:23:42.562+0200][gc,marking  ] GC(12) Concurrent Mark 45,879ms
[2023-08-26T04:23:42.562+0200][gc,marking  ] GC(12) Concurrent Rebuild Remembered Sets
[2023-08-26T04:23:42.576+0200][gc,marking  ] GC(12) Concurrent Rebuild Remembered Sets 14,124ms
[2023-08-26T04:23:42.577+0200][gc,start    ] GC(12) Pause Cleanup
[2023-08-26T04:23:42.577+0200][gc          ] GC(12) Pause Cleanup 157M->157M(1024M) 0,173ms
[2023-08-26T04:23:42.577+0200][gc,cpu      ] GC(12) User=0,00s Sys=0,00s Real=0,00s
[2023-08-26T04:23:42.579+0200][gc,marking  ] GC(12) Concurrent Cleanup for Next Mark
[2023-08-26T04:23:42.581+0200][gc,marking  ] GC(12) Concurrent Cleanup for Next Mark 2,240ms
[2023-08-26T04:23:42.581+0200][gc          ] GC(12) Concurrent Mark Cycle 91,979ms
[2023-08-26T04:23:42.870+0200][gc,start    ] GC(13) Pause Young (Normal) (G1 Evacuation Pause)
[2023-08-26T04:23:42.871+0200][gc,task     ] GC(13) Using 4 workers of 4 for evacuation
[2023-08-26T04:23:42.881+0200][gc,phases   ] GC(13)   Pre Evacuate Collection Set: 0,2ms
[2023-08-26T04:23:42.881+0200][gc,phases   ] GC(13)   Merge Heap Roots: 0,1ms
[2023-08-26T04:23:42.881+0200][gc,phases   ] GC(13)   Evacuate Collection Set: 8,9ms
[2023-08-26T04:23:42.881+0200][gc,phases   ] GC(13)   Post Evacuate Collection Set: 0,8ms
[2023-08-26T04:23:42.881+0200][gc,phases   ] GC(13)   Other: 0,4ms
[2023-08-26T04:23:42.881+0200][gc,heap     ] GC(13) Eden regions: 47->0(70)
[2023-08-26T04:23:42.881+0200][gc,heap     ] GC(13) Survivor regions: 4->3(7)
[2023-08-26T04:23:42.881+0200][gc,heap     ] GC(13) Old regions: 12->14
[2023-08-26T04:23:42.881+0200][gc,heap     ] GC(13) Archive regions: 2->2
[2023-08-26T04:23:42.881+0200][gc,heap     ] GC(13) Humongous regions: 131->131
[2023-08-26T04:23:42.881+0200][gc,metaspace] GC(13) Metaspace: 40022K(40384K)->40022K(40384K) NonClass: 35135K(35328K)->35135K(35328K) Class: 4887K(5056K)->4887K(5056K)
[2023-08-26T04:23:42.881+0200][gc          ] GC(13) Pause Young (Normal) (G1 Evacuation Pause) 194M->148M(1024M) 10,532ms
[2023-08-26T04:23:42.881+0200][gc,cpu      ] GC(13) User=0,03s Sys=0,00s Real=0,01s
[2023-08-26T04:23:43.444+0200][gc,start    ] GC(14) Pause Young (Normal) (G1 Evacuation Pause)
[2023-08-26T04:23:43.444+0200][gc,task     ] GC(14) Using 4 workers of 4 for evacuation
[2023-08-26T04:23:43.454+0200][gc,phases   ] GC(14)   Pre Evacuate Collection Set: 0,2ms
[2023-08-26T04:23:43.454+0200][gc,phases   ] GC(14)   Merge Heap Roots: 0,1ms
[2023-08-26T04:23:43.454+0200][gc,phases   ] GC(14)   Evacuate Collection Set: 9,0ms
[2023-08-26T04:23:43.454+0200][gc,phases   ] GC(14)   Post Evacuate Collection Set: 0,6ms
[2023-08-26T04:23:43.454+0200][gc,phases   ] GC(14)   Other: 0,2ms
[2023-08-26T04:23:43.454+0200][gc,heap     ] GC(14) Eden regions: 70->0(98)
[2023-08-26T04:23:43.454+0200][gc,heap     ] GC(14) Survivor regions: 3->4(10)
[2023-08-26T04:23:43.454+0200][gc,heap     ] GC(14) Old regions: 14->14
[2023-08-26T04:23:43.454+0200][gc,heap     ] GC(14) Archive regions: 2->2
[2023-08-26T04:23:43.454+0200][gc,heap     ] GC(14) Humongous regions: 131->131
[2023-08-26T04:23:43.454+0200][gc,metaspace] GC(14) Metaspace: 41968K(42496K)->41968K(42496K) NonClass: 36739K(37056K)->36739K(37056K) Class: 5229K(5440K)->5229K(5440K)
[2023-08-26T04:23:43.455+0200][gc          ] GC(14) Pause Young (Normal) (G1 Evacuation Pause) 218M->149M(1024M) 10,239ms
[2023-08-26T04:23:43.455+0200][gc,cpu      ] GC(14) User=0,02s Sys=0,00s Real=0,00s
[2023-08-26T04:23:44.685+0200][gc,start    ] GC(15) Pause Young (Normal) (G1 Evacuation Pause)
[2023-08-26T04:23:44.685+0200][gc,task     ] GC(15) Using 4 workers of 4 for evacuation
[2023-08-26T04:23:44.710+0200][gc,mmu      ] GC(15) MMU target violated: 21,0ms (20,0ms/21,0ms)
[2023-08-26T04:23:44.710+0200][gc,phases   ] GC(15)   Pre Evacuate Collection Set: 1,6ms
[2023-08-26T04:23:44.710+0200][gc,phases   ] GC(15)   Merge Heap Roots: 0,1ms
[2023-08-26T04:23:44.710+0200][gc,phases   ] GC(15)   Evacuate Collection Set: 20,9ms
[2023-08-26T04:23:44.710+0200][gc,phases   ] GC(15)   Post Evacuate Collection Set: 1,6ms
[2023-08-26T04:23:44.710+0200][gc,phases   ] GC(15)   Other: 0,3ms
[2023-08-26T04:23:44.710+0200][gc,heap     ] GC(15) Eden regions: 98->0(91)
[2023-08-26T04:23:44.710+0200][gc,heap     ] GC(15) Survivor regions: 4->5(13)
[2023-08-26T04:23:44.710+0200][gc,heap     ] GC(15) Old regions: 14->14
[2023-08-26T04:23:44.710+0200][gc,heap     ] GC(15) Archive regions: 2->2
[2023-08-26T04:23:44.710+0200][gc,heap     ] GC(15) Humongous regions: 167->131
[2023-08-26T04:23:44.710+0200][gc,metaspace] GC(15) Metaspace: 43860K(44544K)->43860K(44544K) NonClass: 38283K(38656K)->38283K(38656K) Class: 5577K(5888K)->5577K(5888K)
[2023-08-26T04:23:44.710+0200][gc          ] GC(15) Pause Young (Normal) (G1 Evacuation Pause) 283M->150M(1024M) 24,609ms
[2023-08-26T04:23:44.710+0200][gc,cpu      ] GC(15) User=0,02s Sys=0,00s Real=0,02s
[2023-08-26T04:23:46.838+0200][gc,start    ] GC(16) Pause Young (Normal) (G1 Evacuation Pause)
[2023-08-26T04:23:46.838+0200][gc,task     ] GC(16) Using 4 workers of 4 for evacuation
[2023-08-26T04:23:46.857+0200][gc,phases   ] GC(16)   Pre Evacuate Collection Set: 0,2ms
[2023-08-26T04:23:46.857+0200][gc,phases   ] GC(16)   Merge Heap Roots: 0,1ms
[2023-08-26T04:23:46.857+0200][gc,phases   ] GC(16)   Evacuate Collection Set: 17,4ms
[2023-08-26T04:23:46.857+0200][gc,phases   ] GC(16)   Post Evacuate Collection Set: 1,0ms
[2023-08-26T04:23:46.857+0200][gc,phases   ] GC(16)   Other: 0,2ms
[2023-08-26T04:23:46.857+0200][gc,heap     ] GC(16) Eden regions: 91->0(95)
[2023-08-26T04:23:46.857+0200][gc,heap     ] GC(16) Survivor regions: 5->6(12)
[2023-08-26T04:23:46.857+0200][gc,heap     ] GC(16) Old regions: 14->14
[2023-08-26T04:23:46.857+0200][gc,heap     ] GC(16) Archive regions: 2->2
[2023-08-26T04:23:46.857+0200][gc,heap     ] GC(16) Humongous regions: 131->131
[2023-08-26T04:23:46.857+0200][gc,metaspace] GC(16) Metaspace: 44739K(45504K)->44739K(45504K) NonClass: 39058K(39488K)->39058K(39488K) Class: 5680K(6016K)->5680K(6016K)
[2023-08-26T04:23:46.857+0200][gc          ] GC(16) Pause Young (Normal) (G1 Evacuation Pause) 241M->151M(1024M) 19,056ms
[2023-08-26T04:23:46.857+0200][gc,cpu      ] GC(16) User=0,03s Sys=0,00s Real=0,02s
[2023-08-26T04:23:50.054+0200][gc,start    ] GC(17) Pause Young (Normal) (G1 Evacuation Pause)
[2023-08-26T04:23:50.054+0200][gc,task     ] GC(17) Using 4 workers of 4 for evacuation
[2023-08-26T04:23:50.093+0200][gc,mmu      ] GC(17) MMU target violated: 21,0ms (20,0ms/21,0ms)
[2023-08-26T04:23:50.093+0200][gc,phases   ] GC(17)   Pre Evacuate Collection Set: 0,2ms
[2023-08-26T04:23:50.093+0200][gc,phases   ] GC(17)   Merge Heap Roots: 0,1ms
[2023-08-26T04:23:50.093+0200][gc,phases   ] GC(17)   Evacuate Collection Set: 37,5ms
[2023-08-26T04:23:50.093+0200][gc,phases   ] GC(17)   Post Evacuate Collection Set: 1,0ms
[2023-08-26T04:23:50.093+0200][gc,phases   ] GC(17)   Other: 0,3ms
[2023-08-26T04:23:50.093+0200][gc,heap     ] GC(17) Eden regions: 93->0(135)
[2023-08-26T04:23:50.093+0200][gc,heap     ] GC(17) Survivor regions: 6->6(13)
[2023-08-26T04:23:50.093+0200][gc,heap     ] GC(17) Old regions: 14->14
[2023-08-26T04:23:50.093+0200][gc,heap     ] GC(17) Archive regions: 2->2
[2023-08-26T04:23:50.093+0200][gc,heap     ] GC(17) Humongous regions: 131->131
[2023-08-26T04:23:50.093+0200][gc,metaspace] GC(17) Metaspace: 45424K(46144K)->45424K(46144K) NonClass: 39696K(40064K)->39696K(40064K) Class: 5728K(6080K)->5728K(6080K)
[2023-08-26T04:23:50.093+0200][gc          ] GC(17) Pause Young (Normal) (G1 Evacuation Pause) 244M->151M(1024M) 39,401ms
[2023-08-26T04:23:50.093+0200][gc,cpu      ] GC(17) User=0,04s Sys=0,00s Real=0,04s
[2023-08-26T04:23:53.394+0200][gc,start    ] GC(18) Pause Young (Normal) (G1 Evacuation Pause)
[2023-08-26T04:23:53.394+0200][gc,task     ] GC(18) Using 4 workers of 4 for evacuation
[2023-08-26T04:23:53.442+0200][gc,mmu      ] GC(18) MMU target violated: 21,0ms (20,0ms/21,0ms)
[2023-08-26T04:23:53.442+0200][gc,phases   ] GC(18)   Pre Evacuate Collection Set: 0,3ms
[2023-08-26T04:23:53.442+0200][gc,phases   ] GC(18)   Merge Heap Roots: 0,2ms
[2023-08-26T04:23:53.442+0200][gc,phases   ] GC(18)   Evacuate Collection Set: 44,6ms
[2023-08-26T04:23:53.442+0200][gc,phases   ] GC(18)   Post Evacuate Collection Set: 3,0ms
[2023-08-26T04:23:53.442+0200][gc,phases   ] GC(18)   Other: 0,3ms
[2023-08-26T04:23:53.442+0200][gc,heap     ] GC(18) Eden regions: 129->0(44)
[2023-08-26T04:23:53.442+0200][gc,heap     ] GC(18) Survivor regions: 6->7(17)
[2023-08-26T04:23:53.442+0200][gc,heap     ] GC(18) Old regions: 14->14
[2023-08-26T04:23:53.442+0200][gc,heap     ] GC(18) Archive regions: 2->2
[2023-08-26T04:23:53.442+0200][gc,heap     ] GC(18) Humongous regions: 131->131
[2023-08-26T04:23:53.442+0200][gc,metaspace] GC(18) Metaspace: 45578K(46336K)->45578K(46336K) NonClass: 39844K(40256K)->39844K(40256K) Class: 5733K(6080K)->5733K(6080K)
[2023-08-26T04:23:53.442+0200][gc          ] GC(18) Pause Young (Normal) (G1 Evacuation Pause) 280M->152M(1024M) 48,676ms
[2023-08-26T04:23:53.442+0200][gc,cpu      ] GC(18) User=0,04s Sys=0,01s Real=0,05s
[2023-08-26T04:23:54.746+0200][gc,start    ] GC(19) Pause Young (Normal) (G1 Evacuation Pause)
[2023-08-26T04:23:54.746+0200][gc,task     ] GC(19) Using 4 workers of 4 for evacuation
[2023-08-26T04:23:54.763+0200][gc,phases   ] GC(19)   Pre Evacuate Collection Set: 0,2ms
[2023-08-26T04:23:54.763+0200][gc,phases   ] GC(19)   Merge Heap Roots: 0,1ms
[2023-08-26T04:23:54.763+0200][gc,phases   ] GC(19)   Evacuate Collection Set: 16,5ms
[2023-08-26T04:23:54.763+0200][gc,phases   ] GC(19)   Post Evacuate Collection Set: 0,6ms
[2023-08-26T04:23:54.763+0200][gc,phases   ] GC(19)   Other: 0,2ms
[2023-08-26T04:23:54.763+0200][gc,heap     ] GC(19) Eden regions: 44->0(211)
[2023-08-26T04:23:54.763+0200][gc,heap     ] GC(19) Survivor regions: 7->4(7)
[2023-08-26T04:23:54.763+0200][gc,heap     ] GC(19) Old regions: 14->18
[2023-08-26T04:23:54.763+0200][gc,heap     ] GC(19) Archive regions: 2->2
[2023-08-26T04:23:54.764+0200][gc,heap     ] GC(19) Humongous regions: 131->131
[2023-08-26T04:23:54.764+0200][gc,metaspace] GC(19) Metaspace: 45654K(46400K)->45654K(46400K) NonClass: 39917K(40320K)->39917K(40320K) Class: 5736K(6080K)->5736K(6080K)
[2023-08-26T04:23:54.764+0200][gc          ] GC(19) Pause Young (Normal) (G1 Evacuation Pause) 196M->152M(1024M) 17,695ms
[2023-08-26T04:23:54.764+0200][gc,cpu      ] GC(19) User=0,03s Sys=0,00s Real=0,01s
[2023-08-26T04:23:58.606+0200][gc,start    ] GC(20) Pause Young (Normal) (G1 Evacuation Pause)
[2023-08-26T04:23:58.606+0200][gc,task     ] GC(20) Using 4 workers of 4 for evacuation
[2023-08-26T04:23:58.630+0200][gc,mmu      ] GC(20) MMU target violated: 21,0ms (20,0ms/21,0ms)
[2023-08-26T04:23:58.631+0200][gc,phases   ] GC(20)   Pre Evacuate Collection Set: 0,3ms
[2023-08-26T04:23:58.631+0200][gc,phases   ] GC(20)   Merge Heap Roots: 0,2ms
[2023-08-26T04:23:58.631+0200][gc,phases   ] GC(20)   Evacuate Collection Set: 22,4ms
[2023-08-26T04:23:58.631+0200][gc,phases   ] GC(20)   Post Evacuate Collection Set: 1,2ms
[2023-08-26T04:23:58.631+0200][gc,phases   ] GC(20)   Other: 0,3ms
[2023-08-26T04:23:58.631+0200][gc,heap     ] GC(20) Eden regions: 200->0(103)
[2023-08-26T04:23:58.631+0200][gc,heap     ] GC(20) Survivor regions: 4->4(26)
[2023-08-26T04:23:58.631+0200][gc,heap     ] GC(20) Old regions: 18->18
[2023-08-26T04:23:58.631+0200][gc,heap     ] GC(20) Archive regions: 2->2
[2023-08-26T04:23:58.631+0200][gc,heap     ] GC(20) Humongous regions: 131->131
[2023-08-26T04:23:58.631+0200][gc,metaspace] GC(20) Metaspace: 45748K(46464K)->45748K(46464K) NonClass: 40005K(40384K)->40005K(40384K) Class: 5742K(6080K)->5742K(6080K)
[2023-08-26T04:23:58.631+0200][gc          ] GC(20) Pause Young (Normal) (G1 Evacuation Pause) 352M->152M(1024M) 24,583ms
[2023-08-26T04:23:58.631+0200][gc,cpu      ] GC(20) User=0,03s Sys=0,00s Real=0,02s
[2023-08-26T04:23:59.755+0200][gc,start    ] GC(21) Pause Young (Normal) (G1 Evacuation Pause)
[2023-08-26T04:23:59.755+0200][gc,task     ] GC(21) Using 4 workers of 4 for evacuation
[2023-08-26T04:23:59.776+0200][gc,mmu      ] GC(21) MMU target violated: 20,5ms (20,0ms/21,0ms)
[2023-08-26T04:23:59.776+0200][gc,phases   ] GC(21)   Pre Evacuate Collection Set: 0,3ms
[2023-08-26T04:23:59.776+0200][gc,phases   ] GC(21)   Merge Heap Roots: 0,2ms
[2023-08-26T04:23:59.776+0200][gc,phases   ] GC(21)   Evacuate Collection Set: 18,9ms
[2023-08-26T04:23:59.776+0200][gc,phases   ] GC(21)   Post Evacuate Collection Set: 1,1ms
[2023-08-26T04:23:59.776+0200][gc,phases   ] GC(21)   Other: 0,3ms
[2023-08-26T04:23:59.776+0200][gc,heap     ] GC(21) Eden regions: 94->0(172)
[2023-08-26T04:23:59.776+0200][gc,heap     ] GC(21) Survivor regions: 4->4(13)
[2023-08-26T04:23:59.776+0200][gc,heap     ] GC(21) Old regions: 18->18
[2023-08-26T04:23:59.776+0200][gc,heap     ] GC(21) Archive regions: 2->2
[2023-08-26T04:23:59.776+0200][gc,heap     ] GC(21) Humongous regions: 131->131
[2023-08-26T04:23:59.776+0200][gc,metaspace] GC(21) Metaspace: 45761K(46464K)->45761K(46464K) NonClass: 40019K(40384K)->40019K(40384K) Class: 5742K(6080K)->5742K(6080K)
[2023-08-26T04:23:59.776+0200][gc          ] GC(21) Pause Young (Normal) (G1 Evacuation Pause) 246M->152M(1024M) 20,881ms
[2023-08-26T04:23:59.776+0200][gc,cpu      ] GC(21) User=0,02s Sys=0,00s Real=0,03s
[2023-08-26T04:24:03.231+0200][gc,start    ] GC(22) Pause Young (Normal) (G1 Evacuation Pause)
[2023-08-26T04:24:03.231+0200][gc,task     ] GC(22) Using 4 workers of 4 for evacuation
[2023-08-26T04:24:03.244+0200][gc,phases   ] GC(22)   Pre Evacuate Collection Set: 0,2ms
[2023-08-26T04:24:03.244+0200][gc,phases   ] GC(22)   Merge Heap Roots: 0,1ms
[2023-08-26T04:24:03.244+0200][gc,phases   ] GC(22)   Evacuate Collection Set: 11,5ms
[2023-08-26T04:24:03.244+0200][gc,phases   ] GC(22)   Post Evacuate Collection Set: 1,1ms
[2023-08-26T04:24:03.244+0200][gc,phases   ] GC(22)   Other: 0,2ms
[2023-08-26T04:24:03.244+0200][gc,heap     ] GC(22) Eden regions: 150->0(295)
[2023-08-26T04:24:03.244+0200][gc,heap     ] GC(22) Survivor regions: 4->4(20)
[2023-08-26T04:24:03.244+0200][gc,heap     ] GC(22) Old regions: 18->18
[2023-08-26T04:24:03.244+0200][gc,heap     ] GC(22) Archive regions: 2->2
[2023-08-26T04:24:03.244+0200][gc,heap     ] GC(22) Humongous regions: 131->131
[2023-08-26T04:24:03.244+0200][gc,metaspace] GC(22) Metaspace: 45801K(46528K)->45801K(46528K) NonClass: 40058K(40448K)->40058K(40448K) Class: 5743K(6080K)->5743K(6080K)
[2023-08-26T04:24:03.244+0200][gc          ] GC(22) Pause Young (Normal) (G1 Evacuation Pause) 302M->152M(1024M) 13,307ms
[2023-08-26T04:24:03.244+0200][gc,cpu      ] GC(22) User=0,02s Sys=0,00s Real=0,02s
[2023-08-26T04:24:08.946+0200][gc,start    ] GC(23) Pause Young (Normal) (G1 Evacuation Pause)
[2023-08-26T04:24:08.946+0200][gc,task     ] GC(23) Using 4 workers of 4 for evacuation
[2023-08-26T04:24:08.992+0200][gc,mmu      ] GC(23) MMU target violated: 21,0ms (20,0ms/21,0ms)
[2023-08-26T04:24:08.992+0200][gc,phases   ] GC(23)   Pre Evacuate Collection Set: 0,3ms
[2023-08-26T04:24:08.992+0200][gc,phases   ] GC(23)   Merge Heap Roots: 0,2ms
[2023-08-26T04:24:08.992+0200][gc,phases   ] GC(23)   Evacuate Collection Set: 44,0ms
[2023-08-26T04:24:08.992+0200][gc,phases   ] GC(23)   Post Evacuate Collection Set: 1,2ms
[2023-08-26T04:24:08.992+0200][gc,phases   ] GC(23)   Other: 0,4ms
[2023-08-26T04:24:08.992+0200][gc,heap     ] GC(23) Eden regions: 277->0(143)
[2023-08-26T04:24:08.992+0200][gc,heap     ] GC(23) Survivor regions: 4->4(36)
[2023-08-26T04:24:08.992+0200][gc,heap     ] GC(23) Old regions: 18->18
[2023-08-26T04:24:08.992+0200][gc,heap     ] GC(23) Archive regions: 2->2
[2023-08-26T04:24:08.992+0200][gc,heap     ] GC(23) Humongous regions: 131->131
[2023-08-26T04:24:08.992+0200][gc,metaspace] GC(23) Metaspace: 45890K(46656K)->45890K(46656K) NonClass: 40147K(40576K)->40147K(40576K) Class: 5743K(6080K)->5743K(6080K)
[2023-08-26T04:24:08.992+0200][gc          ] GC(23) Pause Young (Normal) (G1 Evacuation Pause) 429M->153M(1024M) 46,354ms
[2023-08-26T04:24:08.992+0200][gc,cpu      ] GC(23) User=0,03s Sys=0,00s Real=0,04s
[2023-08-26T04:24:11.341+0200][gc,start    ] GC(24) Pause Young (Normal) (G1 Evacuation Pause)
[2023-08-26T04:24:11.341+0200][gc,task     ] GC(24) Using 4 workers of 4 for evacuation
[2023-08-26T04:24:11.372+0200][gc,mmu      ] GC(24) MMU target violated: 21,0ms (20,0ms/21,0ms)
[2023-08-26T04:24:11.372+0200][gc,phases   ] GC(24)   Pre Evacuate Collection Set: 0,2ms
[2023-08-26T04:24:11.372+0200][gc,phases   ] GC(24)   Merge Heap Roots: 0,1ms
[2023-08-26T04:24:11.372+0200][gc,phases   ] GC(24)   Evacuate Collection Set: 29,6ms
[2023-08-26T04:24:11.372+0200][gc,phases   ] GC(24)   Post Evacuate Collection Set: 0,9ms
[2023-08-26T04:24:11.372+0200][gc,phases   ] GC(24)   Other: 0,3ms
[2023-08-26T04:24:11.372+0200][gc,heap     ] GC(24) Eden regions: 143->0(359)
[2023-08-26T04:24:11.372+0200][gc,heap     ] GC(24) Survivor regions: 4->4(19)
[2023-08-26T04:24:11.372+0200][gc,heap     ] GC(24) Old regions: 18->18
[2023-08-26T04:24:11.372+0200][gc,heap     ] GC(24) Archive regions: 2->2
[2023-08-26T04:24:11.372+0200][gc,heap     ] GC(24) Humongous regions: 131->131
[2023-08-26T04:24:11.372+0200][gc,metaspace] GC(24) Metaspace: 46040K(46720K)->46040K(46720K) NonClass: 40263K(40640K)->40263K(40640K) Class: 5776K(6080K)->5776K(6080K)
[2023-08-26T04:24:11.372+0200][gc          ] GC(24) Pause Young (Normal) (G1 Evacuation Pause) 296M->152M(1024M) 31,216ms
[2023-08-26T04:24:11.372+0200][gc,cpu      ] GC(24) User=0,02s Sys=0,01s Real=0,03s
[2023-08-26T04:24:15.856+0200][gc,start    ] GC(25) Pause Young (Normal) (G1 Evacuation Pause)
[2023-08-26T04:24:15.856+0200][gc,task     ] GC(25) Using 4 workers of 4 for evacuation
[2023-08-26T04:24:15.886+0200][gc,mmu      ] GC(25) MMU target violated: 21,0ms (20,0ms/21,0ms)
[2023-08-26T04:24:15.886+0200][gc,phases   ] GC(25)   Pre Evacuate Collection Set: 0,3ms
[2023-08-26T04:24:15.886+0200][gc,phases   ] GC(25)   Merge Heap Roots: 0,2ms
[2023-08-26T04:24:15.886+0200][gc,phases   ] GC(25)   Evacuate Collection Set: 27,9ms
[2023-08-26T04:24:15.886+0200][gc,phases   ] GC(25)   Post Evacuate Collection Set: 1,4ms
[2023-08-26T04:24:15.886+0200][gc,phases   ] GC(25)   Other: 0,4ms
[2023-08-26T04:24:15.886+0200][gc,heap     ] GC(25) Eden regions: 359->0(46)
[2023-08-26T04:24:15.886+0200][gc,heap     ] GC(25) Survivor regions: 4->5(46)
[2023-08-26T04:24:15.886+0200][gc,heap     ] GC(25) Old regions: 18->18
[2023-08-26T04:24:15.886+0200][gc,heap     ] GC(25) Archive regions: 2->2
[2023-08-26T04:24:15.886+0200][gc,heap     ] GC(25) Humongous regions: 131->131
[2023-08-26T04:24:15.886+0200][gc,metaspace] GC(25) Metaspace: 46186K(46912K)->46186K(46912K) NonClass: 40388K(40768K)->40388K(40768K) Class: 5797K(6144K)->5797K(6144K)
[2023-08-26T04:24:15.886+0200][gc          ] GC(25) Pause Young (Normal) (G1 Evacuation Pause) 511M->153M(1024M) 30,322ms
[2023-08-26T04:24:15.887+0200][gc,cpu      ] GC(25) User=0,02s Sys=0,01s Real=0,03s
[2023-08-26T04:24:16.400+0200][gc,start    ] GC(26) Pause Young (Normal) (G1 Evacuation Pause)
[2023-08-26T04:24:16.400+0200][gc,task     ] GC(26) Using 4 workers of 4 for evacuation
[2023-08-26T04:24:16.435+0200][gc,mmu      ] GC(26) MMU target violated: 21,0ms (20,0ms/21,0ms)
[2023-08-26T04:24:16.435+0200][gc,phases   ] GC(26)   Pre Evacuate Collection Set: 0,3ms
[2023-08-26T04:24:16.436+0200][gc,phases   ] GC(26)   Merge Heap Roots: 0,2ms
[2023-08-26T04:24:16.436+0200][gc,phases   ] GC(26)   Evacuate Collection Set: 33,4ms
[2023-08-26T04:24:16.436+0200][gc,phases   ] GC(26)   Post Evacuate Collection Set: 1,2ms
[2023-08-26T04:24:16.436+0200][gc,phases   ] GC(26)   Other: 0,3ms
[2023-08-26T04:24:16.436+0200][gc,heap     ] GC(26) Eden regions: 46->0(116)
[2023-08-26T04:24:16.436+0200][gc,heap     ] GC(26) Survivor regions: 5->4(7)
[2023-08-26T04:24:16.436+0200][gc,heap     ] GC(26) Old regions: 18->19
[2023-08-26T04:24:16.436+0200][gc,heap     ] GC(26) Archive regions: 2->2
[2023-08-26T04:24:16.436+0200][gc,heap     ] GC(26) Humongous regions: 131->131
[2023-08-26T04:24:16.436+0200][gc,metaspace] GC(26) Metaspace: 46252K(46976K)->46252K(46976K) NonClass: 40445K(40832K)->40445K(40832K) Class: 5807K(6144K)->5807K(6144K)
[2023-08-26T04:24:16.436+0200][gc          ] GC(26) Pause Young (Normal) (G1 Evacuation Pause) 199M->153M(1024M) 35,461ms
[2023-08-26T04:24:16.436+0200][gc,cpu      ] GC(26) User=0,02s Sys=0,00s Real=0,03s
[2023-08-26T04:24:17.464+0200][gc,start    ] GC(27) Pause Young (Normal) (G1 Evacuation Pause)
[2023-08-26T04:24:17.464+0200][gc,task     ] GC(27) Using 4 workers of 4 for evacuation
[2023-08-26T04:24:17.475+0200][gc,phases   ] GC(27)   Pre Evacuate Collection Set: 0,3ms
[2023-08-26T04:24:17.475+0200][gc,phases   ] GC(27)   Merge Heap Roots: 0,2ms
[2023-08-26T04:24:17.475+0200][gc,phases   ] GC(27)   Evacuate Collection Set: 9,6ms
[2023-08-26T04:24:17.475+0200][gc,phases   ] GC(27)   Post Evacuate Collection Set: 0,7ms
[2023-08-26T04:24:17.475+0200][gc,phases   ] GC(27)   Other: 0,2ms
[2023-08-26T04:24:17.475+0200][gc,heap     ] GC(27) Eden regions: 116->0(316)
[2023-08-26T04:24:17.475+0200][gc,heap     ] GC(27) Survivor regions: 4->4(15)
[2023-08-26T04:24:17.475+0200][gc,heap     ] GC(27) Old regions: 19->19
[2023-08-26T04:24:17.475+0200][gc,heap     ] GC(27) Archive regions: 2->2
[2023-08-26T04:24:17.475+0200][gc,heap     ] GC(27) Humongous regions: 131->131
[2023-08-26T04:24:17.475+0200][gc,metaspace] GC(27) Metaspace: 46288K(47104K)->46288K(47104K) NonClass: 40474K(40896K)->40474K(40896K) Class: 5813K(6208K)->5813K(6208K)
[2023-08-26T04:24:17.475+0200][gc          ] GC(27) Pause Young (Normal) (G1 Evacuation Pause) 269M->153M(1024M) 11,196ms
[2023-08-26T04:24:17.475+0200][gc,cpu      ] GC(27) User=0,02s Sys=0,00s Real=0,00s
[2023-08-26T04:24:19.677+0200][gc,start    ] GC(28) Pause Young (Normal) (G1 Evacuation Pause)
[2023-08-26T04:24:19.677+0200][gc,task     ] GC(28) Using 4 workers of 4 for evacuation
[2023-08-26T04:24:19.687+0200][gc,phases   ] GC(28)   Pre Evacuate Collection Set: 0,3ms
[2023-08-26T04:24:19.687+0200][gc,phases   ] GC(28)   Merge Heap Roots: 0,2ms
[2023-08-26T04:24:19.687+0200][gc,phases   ] GC(28)   Evacuate Collection Set: 7,8ms
[2023-08-26T04:24:19.687+0200][gc,phases   ] GC(28)   Post Evacuate Collection Set: 2,2ms
[2023-08-26T04:24:19.687+0200][gc,phases   ] GC(28)   Other: 0,2ms
[2023-08-26T04:24:19.687+0200][gc,heap     ] GC(28) Eden regions: 316->0(480)
[2023-08-26T04:24:19.687+0200][gc,heap     ] GC(28) Survivor regions: 4->4(40)
[2023-08-26T04:24:19.687+0200][gc,heap     ] GC(28) Old regions: 19->19
[2023-08-26T04:24:19.687+0200][gc,heap     ] GC(28) Archive regions: 2->2
[2023-08-26T04:24:19.687+0200][gc,heap     ] GC(28) Humongous regions: 131->131
[2023-08-26T04:24:19.687+0200][gc,metaspace] GC(28) Metaspace: 46311K(47104K)->46311K(47104K) NonClass: 40498K(40896K)->40498K(40896K) Class: 5813K(6208K)->5813K(6208K)
[2023-08-26T04:24:19.688+0200][gc          ] GC(28) Pause Young (Normal) (G1 Evacuation Pause) 469M->153M(1024M) 10,941ms
[2023-08-26T04:24:19.688+0200][gc,cpu      ] GC(28) User=0,02s Sys=0,00s Real=0,01s
[2023-08-26T04:24:24.037+0200][gc,start    ] GC(29) Pause Young (Normal) (G1 Evacuation Pause)
[2023-08-26T04:24:24.037+0200][gc,task     ] GC(29) Using 4 workers of 4 for evacuation
[2023-08-26T04:24:24.060+0200][gc,mmu      ] GC(29) MMU target violated: 21,0ms (20,0ms/21,0ms)
[2023-08-26T04:24:24.060+0200][gc,phases   ] GC(29)   Pre Evacuate Collection Set: 0,2ms
[2023-08-26T04:24:24.060+0200][gc,phases   ] GC(29)   Merge Heap Roots: 0,1ms
[2023-08-26T04:24:24.060+0200][gc,phases   ] GC(29)   Evacuate Collection Set: 12,7ms
[2023-08-26T04:24:24.060+0200][gc,phases   ] GC(29)   Post Evacuate Collection Set: 7,9ms
[2023-08-26T04:24:24.060+0200][gc,phases   ] GC(29)   Other: 2,0ms
[2023-08-26T04:24:24.060+0200][gc,heap     ] GC(29) Eden regions: 480->0(231)
[2023-08-26T04:24:24.060+0200][gc,heap     ] GC(29) Survivor regions: 4->4(61)
[2023-08-26T04:24:24.060+0200][gc,heap     ] GC(29) Old regions: 19->19
[2023-08-26T04:24:24.060+0200][gc,heap     ] GC(29) Archive regions: 2->2
[2023-08-26T04:24:24.060+0200][gc,heap     ] GC(29) Humongous regions: 131->131
[2023-08-26T04:24:24.060+0200][gc,metaspace] GC(29) Metaspace: 46347K(47104K)->46347K(47104K) NonClass: 40527K(40896K)->40527K(40896K) Class: 5820K(6208K)->5820K(6208K)
[2023-08-26T04:24:24.060+0200][gc          ] GC(29) Pause Young (Normal) (G1 Evacuation Pause) 633M->153M(1024M) 23,056ms
[2023-08-26T04:24:24.060+0200][gc,cpu      ] GC(29) User=0,03s Sys=0,00s Real=0,02s
[2023-08-26T04:24:26.226+0200][gc,start    ] GC(30) Pause Young (Normal) (G1 Evacuation Pause)
[2023-08-26T04:24:26.227+0200][gc,task     ] GC(30) Using 4 workers of 4 for evacuation
[2023-08-26T04:24:26.240+0200][gc,phases   ] GC(30)   Pre Evacuate Collection Set: 0,1ms
[2023-08-26T04:24:26.240+0200][gc,phases   ] GC(30)   Merge Heap Roots: 0,1ms
[2023-08-26T04:24:26.240+0200][gc,phases   ] GC(30)   Evacuate Collection Set: 12,6ms
[2023-08-26T04:24:26.240+0200][gc,phases   ] GC(30)   Post Evacuate Collection Set: 0,8ms
[2023-08-26T04:24:26.240+0200][gc,phases   ] GC(30)   Other: 0,2ms
[2023-08-26T04:24:26.240+0200][gc,heap     ] GC(30) Eden regions: 231->0(474)
[2023-08-26T04:24:26.240+0200][gc,heap     ] GC(30) Survivor regions: 4->4(30)
[2023-08-26T04:24:26.240+0200][gc,heap     ] GC(30) Old regions: 19->19
[2023-08-26T04:24:26.240+0200][gc,heap     ] GC(30) Archive regions: 2->2
[2023-08-26T04:24:26.240+0200][gc,heap     ] GC(30) Humongous regions: 131->131
[2023-08-26T04:24:26.240+0200][gc,metaspace] GC(30) Metaspace: 46357K(47104K)->46357K(47104K) NonClass: 40536K(40896K)->40536K(40896K) Class: 5820K(6208K)->5820K(6208K)
[2023-08-26T04:24:26.241+0200][gc          ] GC(30) Pause Young (Normal) (G1 Evacuation Pause) 384M->153M(1024M) 14,073ms
[2023-08-26T04:24:26.241+0200][gc,cpu      ] GC(30) User=0,02s Sys=0,01s Real=0,01s
[2023-08-26T04:24:30.501+0200][gc,start    ] GC(31) Pause Young (Normal) (G1 Evacuation Pause)
[2023-08-26T04:24:30.501+0200][gc,task     ] GC(31) Using 4 workers of 4 for evacuation
[2023-08-26T04:24:30.524+0200][gc,mmu      ] GC(31) MMU target violated: 21,0ms (20,0ms/21,0ms)
[2023-08-26T04:24:30.524+0200][gc,phases   ] GC(31)   Pre Evacuate Collection Set: 0,2ms
[2023-08-26T04:24:30.524+0200][gc,phases   ] GC(31)   Merge Heap Roots: 0,1ms
[2023-08-26T04:24:30.524+0200][gc,phases   ] GC(31)   Evacuate Collection Set: 20,7ms
[2023-08-26T04:24:30.524+0200][gc,phases   ] GC(31)   Post Evacuate Collection Set: 1,3ms
[2023-08-26T04:24:30.524+0200][gc,phases   ] GC(31)   Other: 0,5ms
[2023-08-26T04:24:30.524+0200][gc,heap     ] GC(31) Eden regions: 474->0(610)
[2023-08-26T04:24:30.524+0200][gc,heap     ] GC(31) Survivor regions: 4->4(60)
[2023-08-26T04:24:30.524+0200][gc,heap     ] GC(31) Old regions: 19->19
[2023-08-26T04:24:30.524+0200][gc,heap     ] GC(31) Archive regions: 2->2
[2023-08-26T04:24:30.524+0200][gc,heap     ] GC(31) Humongous regions: 131->131
[2023-08-26T04:24:30.524+0200][gc,metaspace] GC(31) Metaspace: 46375K(47168K)->46375K(47168K) NonClass: 40554K(40960K)->40554K(40960K) Class: 5820K(6208K)->5820K(6208K)
[2023-08-26T04:24:30.524+0200][gc          ] GC(31) Pause Young (Normal) (G1 Evacuation Pause) 627M->153M(1024M) 22,848ms
[2023-08-26T04:24:30.524+0200][gc,cpu      ] GC(31) User=0,02s Sys=0,00s Real=0,03s
[2023-08-26T04:24:37.580+0200][gc,start    ] GC(32) Pause Young (Normal) (G1 Evacuation Pause)
[2023-08-26T04:24:37.580+0200][gc,task     ] GC(32) Using 4 workers of 4 for evacuation
[2023-08-26T04:24:37.604+0200][gc,mmu      ] GC(32) MMU target violated: 21,0ms (20,0ms/21,0ms)
[2023-08-26T04:24:37.604+0200][gc,phases   ] GC(32)   Pre Evacuate Collection Set: 0,3ms
[2023-08-26T04:24:37.604+0200][gc,phases   ] GC(32)   Merge Heap Roots: 0,2ms
[2023-08-26T04:24:37.604+0200][gc,phases   ] GC(32)   Evacuate Collection Set: 14,0ms
[2023-08-26T04:24:37.604+0200][gc,phases   ] GC(32)   Post Evacuate Collection Set: 9,2ms
[2023-08-26T04:24:37.604+0200][gc,phases   ] GC(32)   Other: 0,4ms
[2023-08-26T04:24:37.604+0200][gc,heap     ] GC(32) Eden regions: 610->0(433)
[2023-08-26T04:24:37.604+0200][gc,heap     ] GC(32) Survivor regions: 4->4(77)
[2023-08-26T04:24:37.604+0200][gc,heap     ] GC(32) Old regions: 19->19
[2023-08-26T04:24:37.604+0200][gc,heap     ] GC(32) Archive regions: 2->2
[2023-08-26T04:24:37.604+0200][gc,heap     ] GC(32) Humongous regions: 131->131
[2023-08-26T04:24:37.604+0200][gc,metaspace] GC(32) Metaspace: 46405K(47232K)->46405K(47232K) NonClass: 40583K(41024K)->40583K(41024K) Class: 5822K(6208K)->5822K(6208K)
[2023-08-26T04:24:37.604+0200][gc          ] GC(32) Pause Young (Normal) (G1 Evacuation Pause) 763M->154M(1024M) 24,483ms
[2023-08-26T04:24:37.604+0200][gc,cpu      ] GC(32) User=0,02s Sys=0,01s Real=0,03s
[2023-08-26T04:24:41.852+0200][gc,start    ] GC(33) Pause Young (Normal) (G1 Evacuation Pause)
[2023-08-26T04:24:41.852+0200][gc,task     ] GC(33) Using 4 workers of 4 for evacuation
[2023-08-26T04:24:41.889+0200][gc,mmu      ] GC(33) MMU target violated: 21,0ms (20,0ms/21,0ms)
[2023-08-26T04:24:41.889+0200][gc,phases   ] GC(33)   Pre Evacuate Collection Set: 0,2ms
[2023-08-26T04:24:41.889+0200][gc,phases   ] GC(33)   Merge Heap Roots: 0,1ms
[2023-08-26T04:24:41.889+0200][gc,phases   ] GC(33)   Evacuate Collection Set: 23,4ms
[2023-08-26T04:24:41.889+0200][gc,phases   ] GC(33)   Post Evacuate Collection Set: 13,3ms
[2023-08-26T04:24:41.889+0200][gc,phases   ] GC(33)   Other: 0,4ms
[2023-08-26T04:24:41.889+0200][gc,heap     ] GC(33) Eden regions: 433->0(149)
[2023-08-26T04:24:41.889+0200][gc,heap     ] GC(33) Survivor regions: 4->4(55)
[2023-08-26T04:24:41.890+0200][gc,heap     ] GC(33) Old regions: 19->20
[2023-08-26T04:24:41.890+0200][gc,heap     ] GC(33) Archive regions: 2->2
[2023-08-26T04:24:41.890+0200][gc,heap     ] GC(33) Humongous regions: 131->131
[2023-08-26T04:24:41.890+0200][gc,metaspace] GC(33) Metaspace: 46419K(47232K)->46419K(47232K) NonClass: 40597K(41024K)->40597K(41024K) Class: 5822K(6208K)->5822K(6208K)
[2023-08-26T04:24:41.890+0200][gc          ] GC(33) Pause Young (Normal) (G1 Evacuation Pause) 587M->154M(1024M) 37,667ms
[2023-08-26T04:24:41.890+0200][gc,cpu      ] GC(33) User=0,02s Sys=0,00s Real=0,04s
[2023-08-26T04:24:43.323+0200][gc,start    ] GC(34) Pause Young (Normal) (G1 Evacuation Pause)
[2023-08-26T04:24:43.323+0200][gc,task     ] GC(34) Using 4 workers of 4 for evacuation
[2023-08-26T04:24:43.359+0200][gc,mmu      ] GC(34) MMU target violated: 21,0ms (20,0ms/21,0ms)
[2023-08-26T04:24:43.359+0200][gc,phases   ] GC(34)   Pre Evacuate Collection Set: 0,4ms
[2023-08-26T04:24:43.359+0200][gc,phases   ] GC(34)   Merge Heap Roots: 0,3ms
[2023-08-26T04:24:43.359+0200][gc,phases   ] GC(34)   Evacuate Collection Set: 33,9ms
[2023-08-26T04:24:43.359+0200][gc,phases   ] GC(34)   Post Evacuate Collection Set: 1,0ms
[2023-08-26T04:24:43.359+0200][gc,phases   ] GC(34)   Other: 0,3ms
[2023-08-26T04:24:43.359+0200][gc,heap     ] GC(34) Eden regions: 142->0(171)
[2023-08-26T04:24:43.359+0200][gc,heap     ] GC(34) Survivor regions: 4->4(19)
[2023-08-26T04:24:43.359+0200][gc,heap     ] GC(34) Old regions: 20->20
[2023-08-26T04:24:43.359+0200][gc,heap     ] GC(34) Archive regions: 2->2
[2023-08-26T04:24:43.359+0200][gc,heap     ] GC(34) Humongous regions: 131->131
[2023-08-26T04:24:43.359+0200][gc,metaspace] GC(34) Metaspace: 46421K(47232K)->46421K(47232K) NonClass: 40598K(41024K)->40598K(41024K) Class: 5822K(6208K)->5822K(6208K)
[2023-08-26T04:24:43.359+0200][gc          ] GC(34) Pause Young (Normal) (G1 Evacuation Pause) 296M->154M(1024M) 35,989ms
[2023-08-26T04:24:43.359+0200][gc,cpu      ] GC(34) User=0,03s Sys=0,00s Real=0,04s
[2023-08-26T04:24:45.292+0200][gc,start    ] GC(35) Pause Young (Normal) (G1 Evacuation Pause)
[2023-08-26T04:24:45.292+0200][gc,task     ] GC(35) Using 4 workers of 4 for evacuation
[2023-08-26T04:24:45.302+0200][gc,phases   ] GC(35)   Pre Evacuate Collection Set: 0,2ms
[2023-08-26T04:24:45.302+0200][gc,phases   ] GC(35)   Merge Heap Roots: 0,1ms
[2023-08-26T04:24:45.302+0200][gc,phases   ] GC(35)   Evacuate Collection Set: 8,8ms
[2023-08-26T04:24:45.302+0200][gc,phases   ] GC(35)   Post Evacuate Collection Set: 0,6ms
[2023-08-26T04:24:45.302+0200][gc,phases   ] GC(35)   Other: 0,2ms
[2023-08-26T04:24:45.302+0200][gc,heap     ] GC(35) Eden regions: 171->0(527)
[2023-08-26T04:24:45.302+0200][gc,heap     ] GC(35) Survivor regions: 4->4(22)
[2023-08-26T04:24:45.302+0200][gc,heap     ] GC(35) Old regions: 20->20
[2023-08-26T04:24:45.302+0200][gc,heap     ] GC(35) Archive regions: 2->2
[2023-08-26T04:24:45.302+0200][gc,heap     ] GC(35) Humongous regions: 131->131
[2023-08-26T04:24:45.302+0200][gc,metaspace] GC(35) Metaspace: 46430K(47232K)->46430K(47232K) NonClass: 40608K(41024K)->40608K(41024K) Class: 5822K(6208K)->5822K(6208K)
[2023-08-26T04:24:45.302+0200][gc          ] GC(35) Pause Young (Normal) (G1 Evacuation Pause) 325M->154M(1024M) 10,102ms
[2023-08-26T04:24:45.302+0200][gc,cpu      ] GC(35) User=0,01s Sys=0,01s Real=0,01s
[2023-08-26T04:24:51.149+0200][gc,start    ] GC(36) Pause Young (Normal) (G1 Evacuation Pause)
[2023-08-26T04:24:51.149+0200][gc,task     ] GC(36) Using 4 workers of 4 for evacuation
[2023-08-26T04:24:51.160+0200][gc,phases   ] GC(36)   Pre Evacuate Collection Set: 0,3ms
[2023-08-26T04:24:51.160+0200][gc,phases   ] GC(36)   Merge Heap Roots: 0,2ms
[2023-08-26T04:24:51.160+0200][gc,phases   ] GC(36)   Evacuate Collection Set: 9,2ms
[2023-08-26T04:24:51.160+0200][gc,phases   ] GC(36)   Post Evacuate Collection Set: 1,0ms
[2023-08-26T04:24:51.160+0200][gc,phases   ] GC(36)   Other: 0,3ms
[2023-08-26T04:24:51.160+0200][gc,heap     ] GC(36) Eden regions: 522->0(610)
[2023-08-26T04:24:51.160+0200][gc,heap     ] GC(36) Survivor regions: 4->4(66)
[2023-08-26T04:24:51.160+0200][gc,heap     ] GC(36) Old regions: 20->20
[2023-08-26T04:24:51.160+0200][gc,heap     ] GC(36) Archive regions: 2->2
[2023-08-26T04:24:51.160+0200][gc,heap     ] GC(36) Humongous regions: 131->131
[2023-08-26T04:24:51.160+0200][gc,metaspace] GC(36) Metaspace: 46456K(47232K)->46456K(47232K) NonClass: 40634K(41024K)->40634K(41024K) Class: 5822K(6208K)->5822K(6208K)
[2023-08-26T04:24:51.160+0200][gc          ] GC(36) Pause Young (Normal) (G1 Evacuation Pause) 676M->154M(1024M) 11,174ms
[2023-08-26T04:24:51.160+0200][gc,cpu      ] GC(36) User=0,02s Sys=0,00s Real=0,01s
[2023-08-26T04:24:58.819+0200][gc,start    ] GC(37) Pause Young (Normal) (G1 Evacuation Pause)
[2023-08-26T04:24:58.819+0200][gc,task     ] GC(37) Using 4 workers of 4 for evacuation
[2023-08-26T04:24:58.839+0200][gc,phases   ] GC(37)   Pre Evacuate Collection Set: 0,3ms
[2023-08-26T04:24:58.839+0200][gc,phases   ] GC(37)   Merge Heap Roots: 0,3ms
[2023-08-26T04:24:58.839+0200][gc,phases   ] GC(37)   Evacuate Collection Set: 17,7ms
[2023-08-26T04:24:58.839+0200][gc,phases   ] GC(37)   Post Evacuate Collection Set: 1,5ms
[2023-08-26T04:24:58.839+0200][gc,phases   ] GC(37)   Other: 0,7ms
[2023-08-26T04:24:58.839+0200][gc,heap     ] GC(37) Eden regions: 610->0(611)
[2023-08-26T04:24:58.839+0200][gc,heap     ] GC(37) Survivor regions: 4->3(77)
[2023-08-26T04:24:58.839+0200][gc,heap     ] GC(37) Old regions: 20->20
[2023-08-26T04:24:58.839+0200][gc,heap     ] GC(37) Archive regions: 2->2
[2023-08-26T04:24:58.839+0200][gc,heap     ] GC(37) Humongous regions: 131->131
[2023-08-26T04:24:58.839+0200][gc,metaspace] GC(37) Metaspace: 46496K(47232K)->46496K(47232K) NonClass: 40674K(41024K)->40674K(41024K) Class: 5822K(6208K)->5822K(6208K)
[2023-08-26T04:24:58.839+0200][gc          ] GC(37) Pause Young (Normal) (G1 Evacuation Pause) 764M->154M(1024M) 20,480ms
[2023-08-26T04:24:58.839+0200][gc,cpu      ] GC(37) User=0,02s Sys=0,00s Real=0,02s
[2023-08-26T04:25:05.301+0200][gc,start    ] GC(38) Pause Young (Normal) (G1 Evacuation Pause)
[2023-08-26T04:25:05.302+0200][gc,task     ] GC(38) Using 4 workers of 4 for evacuation
[2023-08-26T04:25:05.317+0200][gc,phases   ] GC(38)   Pre Evacuate Collection Set: 0,5ms
[2023-08-26T04:25:05.317+0200][gc,phases   ] GC(38)   Merge Heap Roots: 0,2ms
[2023-08-26T04:25:05.317+0200][gc,phases   ] GC(38)   Evacuate Collection Set: 9,8ms
[2023-08-26T04:25:05.317+0200][gc,phases   ] GC(38)   Post Evacuate Collection Set: 2,4ms
[2023-08-26T04:25:05.317+0200][gc,phases   ] GC(38)   Other: 2,4ms
[2023-08-26T04:25:05.318+0200][gc,heap     ] GC(38) Eden regions: 611->0(611)
[2023-08-26T04:25:05.318+0200][gc,heap     ] GC(38) Survivor regions: 3->3(77)
[2023-08-26T04:25:05.318+0200][gc,heap     ] GC(38) Old regions: 20->21
[2023-08-26T04:25:05.318+0200][gc,heap     ] GC(38) Archive regions: 2->2
[2023-08-26T04:25:05.318+0200][gc,heap     ] GC(38) Humongous regions: 131->131
[2023-08-26T04:25:05.318+0200][gc,metaspace] GC(38) Metaspace: 46526K(47296K)->46526K(47296K) NonClass: 40704K(41088K)->40704K(41088K) Class: 5822K(6208K)->5822K(6208K)
[2023-08-26T04:25:05.318+0200][gc          ] GC(38) Pause Young (Normal) (G1 Evacuation Pause) 765M->155M(1024M) 16,195ms
[2023-08-26T04:25:05.318+0200][gc,cpu      ] GC(38) User=0,02s Sys=0,01s Real=0,02s
[2023-08-26T04:25:12.797+0200][gc,start    ] GC(39) Pause Young (Normal) (G1 Evacuation Pause)
[2023-08-26T04:25:12.800+0200][gc,task     ] GC(39) Using 4 workers of 4 for evacuation
[2023-08-26T04:25:12.818+0200][gc,phases   ] GC(39)   Pre Evacuate Collection Set: 0,3ms
[2023-08-26T04:25:12.818+0200][gc,phases   ] GC(39)   Merge Heap Roots: 1,3ms
[2023-08-26T04:25:12.818+0200][gc,phases   ] GC(39)   Evacuate Collection Set: 11,7ms
[2023-08-26T04:25:12.818+0200][gc,phases   ] GC(39)   Post Evacuate Collection Set: 3,5ms
[2023-08-26T04:25:12.818+0200][gc,phases   ] GC(39)   Other: 5,6ms
[2023-08-26T04:25:12.818+0200][gc,heap     ] GC(39) Eden regions: 611->0(611)
[2023-08-26T04:25:12.818+0200][gc,heap     ] GC(39) Survivor regions: 3->3(77)
[2023-08-26T04:25:12.818+0200][gc,heap     ] GC(39) Old regions: 21->21
[2023-08-26T04:25:12.818+0200][gc,heap     ] GC(39) Archive regions: 2->2
[2023-08-26T04:25:12.818+0200][gc,heap     ] GC(39) Humongous regions: 131->131
[2023-08-26T04:25:12.819+0200][gc,metaspace] GC(39) Metaspace: 46553K(47360K)->46553K(47360K) NonClass: 40731K(41152K)->40731K(41152K) Class: 5822K(6208K)->5822K(6208K)
[2023-08-26T04:25:12.819+0200][gc          ] GC(39) Pause Young (Normal) (G1 Evacuation Pause) 766M->155M(1024M) 22,047ms
[2023-08-26T04:25:12.819+0200][gc,cpu      ] GC(39) User=0,02s Sys=0,00s Real=0,02s
[2023-08-26T04:25:20.557+0200][gc,start    ] GC(40) Pause Young (Normal) (G1 Evacuation Pause)
[2023-08-26T04:25:20.559+0200][gc,task     ] GC(40) Using 4 workers of 4 for evacuation
[2023-08-26T04:25:20.585+0200][gc,mmu      ] GC(40) MMU target violated: 21,0ms (20,0ms/21,0ms)
[2023-08-26T04:25:20.586+0200][gc,phases   ] GC(40)   Pre Evacuate Collection Set: 1,2ms
[2023-08-26T04:25:20.586+0200][gc,phases   ] GC(40)   Merge Heap Roots: 2,1ms
[2023-08-26T04:25:20.586+0200][gc,phases   ] GC(40)   Evacuate Collection Set: 8,9ms
[2023-08-26T04:25:20.586+0200][gc,phases   ] GC(40)   Post Evacuate Collection Set: 12,1ms
[2023-08-26T04:25:20.586+0200][gc,phases   ] GC(40)   Other: 9,8ms
[2023-08-26T04:25:20.589+0200][gc,heap     ] GC(40) Eden regions: 611->0(611)
[2023-08-26T04:25:20.589+0200][gc,heap     ] GC(40) Survivor regions: 3->3(77)
[2023-08-26T04:25:20.589+0200][gc,heap     ] GC(40) Old regions: 21->21
[2023-08-26T04:25:20.589+0200][gc,heap     ] GC(40) Archive regions: 2->2
[2023-08-26T04:25:20.589+0200][gc,heap     ] GC(40) Humongous regions: 131->131
[2023-08-26T04:25:20.589+0200][gc,metaspace] GC(40) Metaspace: 46559K(47360K)->46559K(47360K) NonClass: 40736K(41152K)->40736K(41152K) Class: 5822K(6208K)->5822K(6208K)
[2023-08-26T04:25:20.590+0200][gc          ] GC(40) Pause Young (Normal) (G1 Evacuation Pause) 766M->155M(1024M) 34,640ms
[2023-08-26T04:25:20.590+0200][gc,cpu      ] GC(40) User=0,01s Sys=0,00s Real=0,04s
[2023-08-26T04:25:27.930+0200][gc,start    ] GC(41) Pause Young (Normal) (G1 Evacuation Pause)
[2023-08-26T04:25:27.951+0200][gc,task     ] GC(41) Using 4 workers of 4 for evacuation
[2023-08-26T04:25:28.080+0200][gc,mmu      ] GC(41) MMU target violated: 21,0ms (20,0ms/21,0ms)
[2023-08-26T04:25:28.122+0200][gc,phases   ] GC(41)   Pre Evacuate Collection Set: 16,3ms
[2023-08-26T04:25:28.122+0200][gc,phases   ] GC(41)   Merge Heap Roots: 3,9ms
[2023-08-26T04:25:28.122+0200][gc,phases   ] GC(41)   Evacuate Collection Set: 39,9ms
[2023-08-26T04:25:28.122+0200][gc,phases   ] GC(41)   Post Evacuate Collection Set: 47,6ms
[2023-08-26T04:25:28.129+0200][gc,phases   ] GC(41)   Other: 90,5ms
[2023-08-26T04:25:28.132+0200][gc,heap     ] GC(41) Eden regions: 611->0(47)
[2023-08-26T04:25:28.132+0200][gc,heap     ] GC(41) Survivor regions: 3->4(77)
[2023-08-26T04:25:28.132+0200][gc,heap     ] GC(41) Old regions: 21->21
[2023-08-26T04:25:28.132+0200][gc,heap     ] GC(41) Archive regions: 2->2
[2023-08-26T04:25:28.132+0200][gc,heap     ] GC(41) Humongous regions: 131->131
[2023-08-26T04:25:28.134+0200][gc,metaspace] GC(41) Metaspace: 46594K(47360K)->46594K(47360K) NonClass: 40772K(41152K)->40772K(41152K) Class: 5822K(6208K)->5822K(6208K)
[2023-08-26T04:25:28.140+0200][gc          ] GC(41) Pause Young (Normal) (G1 Evacuation Pause) 766M->156M(1024M) 211,413ms
[2023-08-26T04:25:28.142+0200][gc,cpu      ] GC(41) User=0,06s Sys=0,02s Real=0,21s
[2023-08-26T04:25:29.410+0200][gc,start    ] GC(42) Pause Young (Normal) (G1 Evacuation Pause)
[2023-08-26T04:25:29.426+0200][gc,task     ] GC(42) Using 4 workers of 4 for evacuation
[2023-08-26T04:25:29.681+0200][gc,mmu      ] GC(42) MMU target violated: 21,0ms (20,0ms/21,0ms)
[2023-08-26T04:25:29.722+0200][gc,phases   ] GC(42)   Pre Evacuate Collection Set: 16,2ms
[2023-08-26T04:25:29.722+0200][gc,phases   ] GC(42)   Merge Heap Roots: 3,7ms
[2023-08-26T04:25:29.722+0200][gc,phases   ] GC(42)   Evacuate Collection Set: 96,9ms
[2023-08-26T04:25:29.723+0200][gc,phases   ] GC(42)   Post Evacuate Collection Set: 57,4ms
[2023-08-26T04:25:29.729+0200][gc,phases   ] GC(42)   Other: 163,5ms
[2023-08-26T04:25:29.731+0200][gc,heap     ] GC(42) Eden regions: 47->0(48)
[2023-08-26T04:25:29.731+0200][gc,heap     ] GC(42) Survivor regions: 4->3(7)
[2023-08-26T04:25:29.731+0200][gc,heap     ] GC(42) Old regions: 21->22
[2023-08-26T04:25:29.731+0200][gc,heap     ] GC(42) Archive regions: 2->2
[2023-08-26T04:25:29.731+0200][gc,heap     ] GC(42) Humongous regions: 131->131
[2023-08-26T04:25:29.734+0200][gc,metaspace] GC(42) Metaspace: 46598K(47360K)->46598K(47360K) NonClass: 40776K(41152K)->40776K(41152K) Class: 5822K(6208K)->5822K(6208K)
[2023-08-26T04:25:29.750+0200][gc          ] GC(42) Pause Young (Normal) (G1 Evacuation Pause) 203M->155M(1024M) 347,152ms
[2023-08-26T04:25:29.752+0200][gc,cpu      ] GC(42) User=0,03s Sys=0,00s Real=0,35s
[2023-08-26T04:25:53.525+0200][gc,start    ] GC(43) Pause Young (Normal) (G1 Evacuation Pause)
[2023-08-26T04:25:53.541+0200][gc,task     ] GC(43) Using 4 workers of 4 for evacuation
[2023-08-26T04:25:54.221+0200][gc,mmu      ] GC(43) MMU target violated: 21,0ms (20,0ms/21,0ms)
[2023-08-26T04:25:54.267+0200][gc,phases   ] GC(43)   Pre Evacuate Collection Set: 6,9ms
[2023-08-26T04:25:54.267+0200][gc,phases   ] GC(43)   Merge Heap Roots: 14,9ms
[2023-08-26T04:25:54.267+0200][gc,phases   ] GC(43)   Evacuate Collection Set: 466,8ms
[2023-08-26T04:25:54.267+0200][gc,phases   ] GC(43)   Post Evacuate Collection Set: 128,0ms
[2023-08-26T04:25:54.280+0200][gc,phases   ] GC(43)   Other: 160,8ms
[2023-08-26T04:25:54.281+0200][gc,heap     ] GC(43) Eden regions: 48->0(48)
[2023-08-26T04:25:54.281+0200][gc,heap     ] GC(43) Survivor regions: 3->3(7)
[2023-08-26T04:25:54.281+0200][gc,heap     ] GC(43) Old regions: 22->22
[2023-08-26T04:25:54.281+0200][gc,heap     ] GC(43) Archive regions: 2->2
[2023-08-26T04:25:54.281+0200][gc,heap     ] GC(43) Humongous regions: 131->131
[2023-08-26T04:25:54.284+0200][gc,metaspace] GC(43) Metaspace: 46599K(47360K)->46599K(47360K) NonClass: 40776K(41152K)->40776K(41152K) Class: 5822K(6208K)->5822K(6208K)
[2023-08-26T04:25:54.295+0200][gc          ] GC(43) Pause Young (Normal) (G1 Evacuation Pause) 203M->155M(1024M) 770,163ms
[2023-08-26T04:25:54.295+0200][gc,cpu      ] GC(43) User=0,19s Sys=0,03s Real=0,77s
