[2023-08-29T18:54:37.277+0200][gc] Using G1
[2023-08-29T18:54:37.295+0200][gc,init] Version: 17.0.8+7-Ubuntu-122.04 (release)
[2023-08-29T18:54:37.295+0200][gc,init] CPUs: 4 total, 4 available
[2023-08-29T18:54:37.296+0200][gc,init] Memory: 7843M
[2023-08-29T18:54:37.296+0200][gc,init] Large Page Support: Disabled
[2023-08-29T18:54:37.296+0200][gc,init] NUMA Support: Disabled
[2023-08-29T18:54:37.296+0200][gc,init] Compressed Oops: Enabled (32-bit)
[2023-08-29T18:54:37.296+0200][gc,init] Heap Region Size: 1M
[2023-08-29T18:54:37.296+0200][gc,init] Heap Min Capacity: 1G
[2023-08-29T18:54:37.296+0200][gc,init] Heap Initial Capacity: 1G
[2023-08-29T18:54:37.296+0200][gc,init] Heap Max Capacity: 1G
[2023-08-29T18:54:37.296+0200][gc,init] Pre-touch: Disabled
[2023-08-29T18:54:37.296+0200][gc,init] Parallel Workers: 4
[2023-08-29T18:54:37.296+0200][gc,init] Concurrent Workers: 1
[2023-08-29T18:54:37.296+0200][gc,init] Concurrent Refinement Workers: 4
[2023-08-29T18:54:37.296+0200][gc,init] Periodic GC: Disabled
[2023-08-29T18:54:37.304+0200][gc,metaspace] CDS archive(s) mapped at: [0x00007fe5f7000000-0x00007fe5f7beb000-0x00007fe5f7beb000), size 12496896, SharedBaseAddress: 0x00007fe5f7000000, ArchiveRelocationMode: 1.
[2023-08-29T18:54:37.304+0200][gc,metaspace] Compressed class space mapped at: 0x00007fe5f8000000-0x00007fe638000000, reserved size: 1073741824
[2023-08-29T18:54:37.304+0200][gc,metaspace] Narrow klass base: 0x00007fe5f7000000, Narrow klass shift: 0, Narrow klass range: 0x100000000
[2023-08-29T18:54:39.163+0200][gc,start    ] GC(0) Pause Young (Normal) (G1 Evacuation Pause)
[2023-08-29T18:54:39.164+0200][gc,task     ] GC(0) Using 4 workers of 4 for evacuation
[2023-08-29T18:54:39.173+0200][gc,phases   ] GC(0)   Pre Evacuate Collection Set: 0,2ms
[2023-08-29T18:54:39.173+0200][gc,phases   ] GC(0)   Merge Heap Roots: 0,1ms
[2023-08-29T18:54:39.173+0200][gc,phases   ] GC(0)   Evacuate Collection Set: 8,0ms
[2023-08-29T18:54:39.173+0200][gc,phases   ] GC(0)   Post Evacuate Collection Set: 0,6ms
[2023-08-29T18:54:39.173+0200][gc,phases   ] GC(0)   Other: 1,7ms
[2023-08-29T18:54:39.173+0200][gc,heap     ] GC(0) Eden regions: 51->0(44)
[2023-08-29T18:54:39.173+0200][gc,heap     ] GC(0) Survivor regions: 0->7(7)
[2023-08-29T18:54:39.173+0200][gc,heap     ] GC(0) Old regions: 0->1
[2023-08-29T18:54:39.173+0200][gc,heap     ] GC(0) Archive regions: 2->2
[2023-08-29T18:54:39.173+0200][gc,heap     ] GC(0) Humongous regions: 0->0
[2023-08-29T18:54:39.173+0200][gc,metaspace] GC(0) Metaspace: 18735K(18944K)->18735K(18944K) NonClass: 16284K(16384K)->16284K(16384K) Class: 2450K(2560K)->2450K(2560K)
[2023-08-29T18:54:39.173+0200][gc          ] GC(0) Pause Young (Normal) (G1 Evacuation Pause) 51M->8M(1024M) 10,524ms
[2023-08-29T18:54:39.173+0200][gc,cpu      ] GC(0) User=0,03s Sys=0,00s Real=0,01s
[2023-08-29T18:54:39.405+0200][gc,start    ] GC(1) Pause Young (Concurrent Start) (Metadata GC Threshold)
[2023-08-29T18:54:39.405+0200][gc,task     ] GC(1) Using 4 workers of 4 for evacuation
[2023-08-29T18:54:39.414+0200][gc,phases   ] GC(1)   Pre Evacuate Collection Set: 0,1ms
[2023-08-29T18:54:39.414+0200][gc,phases   ] GC(1)   Merge Heap Roots: 0,1ms
[2023-08-29T18:54:39.414+0200][gc,phases   ] GC(1)   Evacuate Collection Set: 8,4ms
[2023-08-29T18:54:39.414+0200][gc,phases   ] GC(1)   Post Evacuate Collection Set: 0,5ms
[2023-08-29T18:54:39.414+0200][gc,phases   ] GC(1)   Other: 0,2ms
[2023-08-29T18:54:39.414+0200][gc,heap     ] GC(1) Eden regions: 10->0(50)
[2023-08-29T18:54:39.414+0200][gc,heap     ] GC(1) Survivor regions: 7->1(7)
[2023-08-29T18:54:39.414+0200][gc,heap     ] GC(1) Old regions: 1->8
[2023-08-29T18:54:39.414+0200][gc,heap     ] GC(1) Archive regions: 2->2
[2023-08-29T18:54:39.414+0200][gc,heap     ] GC(1) Humongous regions: 0->0
[2023-08-29T18:54:39.414+0200][gc,metaspace] GC(1) Metaspace: 21311K(21504K)->21311K(21504K) NonClass: 18485K(18560K)->18485K(18560K) Class: 2825K(2944K)->2825K(2944K)
[2023-08-29T18:54:39.414+0200][gc          ] GC(1) Pause Young (Concurrent Start) (Metadata GC Threshold) 18M->9M(1024M) 9,475ms
[2023-08-29T18:54:39.414+0200][gc,cpu      ] GC(1) User=0,02s Sys=0,00s Real=0,00s
[2023-08-29T18:54:39.414+0200][gc          ] GC(2) Concurrent Mark Cycle
[2023-08-29T18:54:39.414+0200][gc,marking  ] GC(2) Concurrent Clear Claimed Marks
[2023-08-29T18:54:39.414+0200][gc,marking  ] GC(2) Concurrent Clear Claimed Marks 0,024ms
[2023-08-29T18:54:39.414+0200][gc,marking  ] GC(2) Concurrent Scan Root Regions
[2023-08-29T18:54:39.420+0200][gc,marking  ] GC(2) Concurrent Scan Root Regions 5,886ms
[2023-08-29T18:54:39.420+0200][gc,marking  ] GC(2) Concurrent Mark
[2023-08-29T18:54:39.420+0200][gc,marking  ] GC(2) Concurrent Mark From Roots
[2023-08-29T18:54:39.420+0200][gc,task     ] GC(2) Using 1 workers of 1 for marking
[2023-08-29T18:54:39.425+0200][gc,marking  ] GC(2) Concurrent Mark From Roots 4,332ms
[2023-08-29T18:54:39.425+0200][gc,marking  ] GC(2) Concurrent Preclean
[2023-08-29T18:54:39.425+0200][gc,marking  ] GC(2) Concurrent Preclean 0,091ms
[2023-08-29T18:54:39.425+0200][gc,start    ] GC(2) Pause Remark
[2023-08-29T18:54:39.427+0200][gc          ] GC(2) Pause Remark 10M->10M(1024M) 2,586ms
[2023-08-29T18:54:39.427+0200][gc,cpu      ] GC(2) User=0,01s Sys=0,00s Real=0,00s
[2023-08-29T18:54:39.428+0200][gc,marking  ] GC(2) Concurrent Mark 7,355ms
[2023-08-29T18:54:39.428+0200][gc,marking  ] GC(2) Concurrent Rebuild Remembered Sets
[2023-08-29T18:54:39.433+0200][gc,marking  ] GC(2) Concurrent Rebuild Remembered Sets 5,399ms
[2023-08-29T18:54:39.433+0200][gc,start    ] GC(2) Pause Cleanup
[2023-08-29T18:54:39.433+0200][gc          ] GC(2) Pause Cleanup 10M->10M(1024M) 0,156ms
[2023-08-29T18:54:39.433+0200][gc,cpu      ] GC(2) User=0,00s Sys=0,00s Real=0,00s
[2023-08-29T18:54:39.433+0200][gc,marking  ] GC(2) Concurrent Cleanup for Next Mark
[2023-08-29T18:54:39.445+0200][gc,marking  ] GC(2) Concurrent Cleanup for Next Mark 11,334ms
[2023-08-29T18:54:39.445+0200][gc          ] GC(2) Concurrent Mark Cycle 30,639ms
[2023-08-29T18:54:40.850+0200][gc,start    ] GC(3) Pause Young (Normal) (G1 Evacuation Pause)
[2023-08-29T18:54:40.851+0200][gc,task     ] GC(3) Using 4 workers of 4 for evacuation
[2023-08-29T18:54:40.860+0200][gc,phases   ] GC(3)   Pre Evacuate Collection Set: 0,4ms
[2023-08-29T18:54:40.860+0200][gc,phases   ] GC(3)   Merge Heap Roots: 0,1ms
[2023-08-29T18:54:40.860+0200][gc,phases   ] GC(3)   Evacuate Collection Set: 8,1ms
[2023-08-29T18:54:40.860+0200][gc,phases   ] GC(3)   Post Evacuate Collection Set: 0,6ms
[2023-08-29T18:54:40.860+0200][gc,phases   ] GC(3)   Other: 0,2ms
[2023-08-29T18:54:40.860+0200][gc,heap     ] GC(3) Eden regions: 50->0(45)
[2023-08-29T18:54:40.860+0200][gc,heap     ] GC(3) Survivor regions: 1->6(7)
[2023-08-29T18:54:40.860+0200][gc,heap     ] GC(3) Old regions: 8->8
[2023-08-29T18:54:40.860+0200][gc,heap     ] GC(3) Archive regions: 2->2
[2023-08-29T18:54:40.860+0200][gc,heap     ] GC(3) Humongous regions: 129->129
[2023-08-29T18:54:40.860+0200][gc,metaspace] GC(3) Metaspace: 33268K(33600K)->33268K(33600K) NonClass: 29164K(29312K)->29164K(29312K) Class: 4104K(4288K)->4104K(4288K)
[2023-08-29T18:54:40.860+0200][gc          ] GC(3) Pause Young (Normal) (G1 Evacuation Pause) 188M->142M(1024M) 9,479ms
[2023-08-29T18:54:40.860+0200][gc,cpu      ] GC(3) User=0,04s Sys=0,00s Real=0,01s
[2023-08-29T18:54:41.001+0200][gc,start    ] GC(4) Pause Young (Concurrent Start) (Metadata GC Threshold)
[2023-08-29T18:54:41.001+0200][gc,task     ] GC(4) Using 4 workers of 4 for evacuation
[2023-08-29T18:54:41.009+0200][gc,phases   ] GC(4)   Pre Evacuate Collection Set: 0,1ms
[2023-08-29T18:54:41.009+0200][gc,phases   ] GC(4)   Merge Heap Roots: 0,0ms
[2023-08-29T18:54:41.009+0200][gc,phases   ] GC(4)   Evacuate Collection Set: 7,4ms
[2023-08-29T18:54:41.009+0200][gc,phases   ] GC(4)   Post Evacuate Collection Set: 0,4ms
[2023-08-29T18:54:41.009+0200][gc,phases   ] GC(4)   Other: 0,2ms
[2023-08-29T18:54:41.009+0200][gc,heap     ] GC(4) Eden regions: 12->0(50)
[2023-08-29T18:54:41.009+0200][gc,heap     ] GC(4) Survivor regions: 6->1(7)
[2023-08-29T18:54:41.009+0200][gc,heap     ] GC(4) Old regions: 8->13
[2023-08-29T18:54:41.009+0200][gc,heap     ] GC(4) Archive regions: 2->2
[2023-08-29T18:54:41.009+0200][gc,heap     ] GC(4) Humongous regions: 129->129
[2023-08-29T18:54:41.009+0200][gc,metaspace] GC(4) Metaspace: 35812K(36096K)->35812K(36096K) NonClass: 31420K(31552K)->31420K(31552K) Class: 4391K(4544K)->4391K(4544K)
[2023-08-29T18:54:41.009+0200][gc          ] GC(4) Pause Young (Concurrent Start) (Metadata GC Threshold) 153M->143M(1024M) 8,247ms
[2023-08-29T18:54:41.009+0200][gc,cpu      ] GC(4) User=0,03s Sys=0,00s Real=0,01s
[2023-08-29T18:54:41.009+0200][gc          ] GC(5) Concurrent Mark Cycle
[2023-08-29T18:54:41.009+0200][gc,marking  ] GC(5) Concurrent Clear Claimed Marks
[2023-08-29T18:54:41.009+0200][gc,marking  ] GC(5) Concurrent Clear Claimed Marks 0,029ms
[2023-08-29T18:54:41.009+0200][gc,marking  ] GC(5) Concurrent Scan Root Regions
[2023-08-29T18:54:41.017+0200][gc,marking  ] GC(5) Concurrent Scan Root Regions 8,111ms
[2023-08-29T18:54:41.017+0200][gc,marking  ] GC(5) Concurrent Mark
[2023-08-29T18:54:41.017+0200][gc,marking  ] GC(5) Concurrent Mark From Roots
[2023-08-29T18:54:41.017+0200][gc,task     ] GC(5) Using 1 workers of 1 for marking
[2023-08-29T18:54:41.041+0200][gc,marking  ] GC(5) Concurrent Mark From Roots 23,874ms
[2023-08-29T18:54:41.041+0200][gc,marking  ] GC(5) Concurrent Preclean
[2023-08-29T18:54:41.041+0200][gc,marking  ] GC(5) Concurrent Preclean 0,174ms
[2023-08-29T18:54:41.042+0200][gc,start    ] GC(5) Pause Remark
[2023-08-29T18:54:41.044+0200][gc          ] GC(5) Pause Remark 147M->147M(1024M) 1,870ms
[2023-08-29T18:54:41.044+0200][gc,cpu      ] GC(5) User=0,01s Sys=0,00s Real=0,00s
[2023-08-29T18:54:41.044+0200][gc,marking  ] GC(5) Concurrent Mark 26,381ms
[2023-08-29T18:54:41.044+0200][gc,marking  ] GC(5) Concurrent Rebuild Remembered Sets
[2023-08-29T18:54:41.064+0200][gc,marking  ] GC(5) Concurrent Rebuild Remembered Sets 20,048ms
[2023-08-29T18:54:41.064+0200][gc,start    ] GC(5) Pause Cleanup
[2023-08-29T18:54:41.064+0200][gc          ] GC(5) Pause Cleanup 148M->148M(1024M) 0,145ms
[2023-08-29T18:54:41.064+0200][gc,cpu      ] GC(5) User=0,00s Sys=0,00s Real=0,00s
[2023-08-29T18:54:41.064+0200][gc,marking  ] GC(5) Concurrent Cleanup for Next Mark
[2023-08-29T18:54:41.085+0200][gc,marking  ] GC(5) Concurrent Cleanup for Next Mark 21,106ms
[2023-08-29T18:54:41.085+0200][gc          ] GC(5) Concurrent Mark Cycle 76,294ms
[2023-08-29T18:54:42.274+0200][gc,start    ] GC(6) Pause Young (Concurrent Start) (G1 Evacuation Pause)
[2023-08-29T18:54:42.274+0200][gc,task     ] GC(6) Using 4 workers of 4 for evacuation
[2023-08-29T18:54:42.283+0200][gc,phases   ] GC(6)   Pre Evacuate Collection Set: 0,2ms
[2023-08-29T18:54:42.283+0200][gc,phases   ] GC(6)   Merge Heap Roots: 0,1ms
[2023-08-29T18:54:42.283+0200][gc,phases   ] GC(6)   Evacuate Collection Set: 7,6ms
[2023-08-29T18:54:42.283+0200][gc,phases   ] GC(6)   Post Evacuate Collection Set: 0,6ms
[2023-08-29T18:54:42.283+0200][gc,phases   ] GC(6)   Other: 0,3ms
[2023-08-29T18:54:42.283+0200][gc,heap     ] GC(6) Eden regions: 50->0(49)
[2023-08-29T18:54:42.283+0200][gc,heap     ] GC(6) Survivor regions: 1->2(7)
[2023-08-29T18:54:42.283+0200][gc,heap     ] GC(6) Old regions: 13->13
[2023-08-29T18:54:42.283+0200][gc,heap     ] GC(6) Archive regions: 2->2
[2023-08-29T18:54:42.283+0200][gc,heap     ] GC(6) Humongous regions: 131->131
[2023-08-29T18:54:42.283+0200][gc,metaspace] GC(6) Metaspace: 38849K(39296K)->38849K(39296K) NonClass: 33964K(34240K)->33964K(34240K) Class: 4884K(5056K)->4884K(5056K)
[2023-08-29T18:54:42.283+0200][gc          ] GC(6) Pause Young (Concurrent Start) (G1 Evacuation Pause) 195M->146M(1024M) 8,983ms
[2023-08-29T18:54:42.283+0200][gc,cpu      ] GC(6) User=0,02s Sys=0,00s Real=0,01s
[2023-08-29T18:54:42.283+0200][gc          ] GC(7) Concurrent Mark Cycle
[2023-08-29T18:54:42.283+0200][gc,marking  ] GC(7) Concurrent Clear Claimed Marks
[2023-08-29T18:54:42.283+0200][gc,marking  ] GC(7) Concurrent Clear Claimed Marks 0,045ms
[2023-08-29T18:54:42.283+0200][gc,marking  ] GC(7) Concurrent Scan Root Regions
[2023-08-29T18:54:42.287+0200][gc,marking  ] GC(7) Concurrent Scan Root Regions 4,057ms
[2023-08-29T18:54:42.287+0200][gc,marking  ] GC(7) Concurrent Mark
[2023-08-29T18:54:42.288+0200][gc,marking  ] GC(7) Concurrent Mark From Roots
[2023-08-29T18:54:42.288+0200][gc,task     ] GC(7) Using 1 workers of 1 for marking
[2023-08-29T18:54:42.328+0200][gc,marking  ] GC(7) Concurrent Mark From Roots 40,252ms
[2023-08-29T18:54:42.328+0200][gc,marking  ] GC(7) Concurrent Preclean
[2023-08-29T18:54:42.328+0200][gc,marking  ] GC(7) Concurrent Preclean 0,168ms
[2023-08-29T18:54:42.328+0200][gc,start    ] GC(7) Pause Remark
[2023-08-29T18:54:42.331+0200][gc          ] GC(7) Pause Remark 149M->149M(1024M) 3,137ms
[2023-08-29T18:54:42.331+0200][gc,cpu      ] GC(7) User=0,01s Sys=0,00s Real=0,00s
[2023-08-29T18:54:42.331+0200][gc,marking  ] GC(7) Concurrent Mark 43,949ms
[2023-08-29T18:54:42.331+0200][gc,marking  ] GC(7) Concurrent Rebuild Remembered Sets
[2023-08-29T18:54:42.347+0200][gc,marking  ] GC(7) Concurrent Rebuild Remembered Sets 15,878ms
[2023-08-29T18:54:42.348+0200][gc,start    ] GC(7) Pause Cleanup
[2023-08-29T18:54:42.348+0200][gc          ] GC(7) Pause Cleanup 151M->151M(1024M) 0,277ms
[2023-08-29T18:54:42.348+0200][gc,cpu      ] GC(7) User=0,00s Sys=0,00s Real=0,00s
[2023-08-29T18:54:42.348+0200][gc,marking  ] GC(7) Concurrent Cleanup for Next Mark
[2023-08-29T18:54:42.350+0200][gc,marking  ] GC(7) Concurrent Cleanup for Next Mark 2,326ms
[2023-08-29T18:54:42.350+0200][gc          ] GC(7) Concurrent Mark Cycle 67,129ms
[2023-08-29T18:54:42.852+0200][gc,start    ] GC(8) Pause Young (Prepare Mixed) (G1 Evacuation Pause)
[2023-08-29T18:54:42.852+0200][gc,task     ] GC(8) Using 4 workers of 4 for evacuation
[2023-08-29T18:54:42.856+0200][gc,phases   ] GC(8)   Pre Evacuate Collection Set: 0,2ms
[2023-08-29T18:54:42.856+0200][gc,phases   ] GC(8)   Merge Heap Roots: 0,1ms
[2023-08-29T18:54:42.856+0200][gc,phases   ] GC(8)   Evacuate Collection Set: 3,5ms
[2023-08-29T18:54:42.856+0200][gc,phases   ] GC(8)   Post Evacuate Collection Set: 0,5ms
[2023-08-29T18:54:42.856+0200][gc,phases   ] GC(8)   Other: 0,2ms
[2023-08-29T18:54:42.856+0200][gc,heap     ] GC(8) Eden regions: 49->0(49)
[2023-08-29T18:54:42.856+0200][gc,heap     ] GC(8) Survivor regions: 2->2(7)
[2023-08-29T18:54:42.856+0200][gc,heap     ] GC(8) Old regions: 13->13
[2023-08-29T18:54:42.856+0200][gc,heap     ] GC(8) Archive regions: 2->2
[2023-08-29T18:54:42.856+0200][gc,heap     ] GC(8) Humongous regions: 131->131
[2023-08-29T18:54:42.856+0200][gc,metaspace] GC(8) Metaspace: 39040K(39488K)->39040K(39488K) NonClass: 34121K(34368K)->34121K(34368K) Class: 4919K(5120K)->4919K(5120K)
[2023-08-29T18:54:42.856+0200][gc          ] GC(8) Pause Young (Prepare Mixed) (G1 Evacuation Pause) 195M->146M(1024M) 4,651ms
[2023-08-29T18:54:42.856+0200][gc,cpu      ] GC(8) User=0,02s Sys=0,00s Real=0,00s
[2023-08-29T18:54:43.273+0200][gc,start    ] GC(9) Pause Young (Mixed) (G1 Evacuation Pause)
[2023-08-29T18:54:43.273+0200][gc,task     ] GC(9) Using 4 workers of 4 for evacuation
[2023-08-29T18:54:43.278+0200][gc,phases   ] GC(9)   Pre Evacuate Collection Set: 0,1ms
[2023-08-29T18:54:43.278+0200][gc,phases   ] GC(9)   Merge Heap Roots: 0,1ms
[2023-08-29T18:54:43.278+0200][gc,phases   ] GC(9)   Evacuate Collection Set: 4,3ms
[2023-08-29T18:54:43.278+0200][gc,phases   ] GC(9)   Post Evacuate Collection Set: 0,4ms
[2023-08-29T18:54:43.278+0200][gc,phases   ] GC(9)   Other: 0,1ms
[2023-08-29T18:54:43.278+0200][gc,heap     ] GC(9) Eden regions: 49->0(49)
[2023-08-29T18:54:43.278+0200][gc,heap     ] GC(9) Survivor regions: 2->2(7)
[2023-08-29T18:54:43.278+0200][gc,heap     ] GC(9) Old regions: 13->13
[2023-08-29T18:54:43.278+0200][gc,heap     ] GC(9) Archive regions: 2->2
[2023-08-29T18:54:43.278+0200][gc,heap     ] GC(9) Humongous regions: 131->131
[2023-08-29T18:54:43.278+0200][gc,metaspace] GC(9) Metaspace: 39132K(39552K)->39132K(39552K) NonClass: 34197K(34432K)->34197K(34432K) Class: 4934K(5120K)->4934K(5120K)
[2023-08-29T18:54:43.279+0200][gc          ] GC(9) Pause Young (Mixed) (G1 Evacuation Pause) 195M->146M(1024M) 5,237ms
[2023-08-29T18:54:43.279+0200][gc,cpu      ] GC(9) User=0,02s Sys=0,00s Real=0,01s
[2023-08-29T18:54:43.753+0200][gc,start    ] GC(10) Pause Young (Normal) (G1 Evacuation Pause)
[2023-08-29T18:54:43.753+0200][gc,task     ] GC(10) Using 4 workers of 4 for evacuation
[2023-08-29T18:54:43.758+0200][gc,phases   ] GC(10)   Pre Evacuate Collection Set: 0,1ms
[2023-08-29T18:54:43.758+0200][gc,phases   ] GC(10)   Merge Heap Roots: 0,1ms
[2023-08-29T18:54:43.758+0200][gc,phases   ] GC(10)   Evacuate Collection Set: 4,3ms
[2023-08-29T18:54:43.758+0200][gc,phases   ] GC(10)   Post Evacuate Collection Set: 0,5ms
[2023-08-29T18:54:43.758+0200][gc,phases   ] GC(10)   Other: 0,2ms
[2023-08-29T18:54:43.758+0200][gc,heap     ] GC(10) Eden regions: 49->0(47)
[2023-08-29T18:54:43.758+0200][gc,heap     ] GC(10) Survivor regions: 2->4(7)
[2023-08-29T18:54:43.758+0200][gc,heap     ] GC(10) Old regions: 13->13
[2023-08-29T18:54:43.758+0200][gc,heap     ] GC(10) Archive regions: 2->2
[2023-08-29T18:54:43.758+0200][gc,heap     ] GC(10) Humongous regions: 131->131
[2023-08-29T18:54:43.758+0200][gc,metaspace] GC(10) Metaspace: 40217K(40704K)->40217K(40704K) NonClass: 35147K(35392K)->35147K(35392K) Class: 5070K(5312K)->5070K(5312K)
[2023-08-29T18:54:43.758+0200][gc          ] GC(10) Pause Young (Normal) (G1 Evacuation Pause) 195M->147M(1024M) 5,322ms
[2023-08-29T18:54:43.758+0200][gc,cpu      ] GC(10) User=0,02s Sys=0,00s Real=0,01s
[2023-08-29T18:54:44.066+0200][gc,start    ] GC(11) Pause Young (Normal) (G1 Evacuation Pause)
[2023-08-29T18:54:44.066+0200][gc,task     ] GC(11) Using 4 workers of 4 for evacuation
[2023-08-29T18:54:44.072+0200][gc,phases   ] GC(11)   Pre Evacuate Collection Set: 0,2ms
[2023-08-29T18:54:44.072+0200][gc,phases   ] GC(11)   Merge Heap Roots: 0,1ms
[2023-08-29T18:54:44.072+0200][gc,phases   ] GC(11)   Evacuate Collection Set: 5,6ms
[2023-08-29T18:54:44.072+0200][gc,phases   ] GC(11)   Post Evacuate Collection Set: 0,5ms
[2023-08-29T18:54:44.072+0200][gc,phases   ] GC(11)   Other: 0,2ms
[2023-08-29T18:54:44.072+0200][gc,heap     ] GC(11) Eden regions: 47->0(47)
[2023-08-29T18:54:44.072+0200][gc,heap     ] GC(11) Survivor regions: 4->4(7)
[2023-08-29T18:54:44.072+0200][gc,heap     ] GC(11) Old regions: 13->13
[2023-08-29T18:54:44.072+0200][gc,heap     ] GC(11) Archive regions: 2->2
[2023-08-29T18:54:44.072+0200][gc,heap     ] GC(11) Humongous regions: 131->131
[2023-08-29T18:54:44.072+0200][gc,metaspace] GC(11) Metaspace: 40609K(41152K)->40609K(41152K) NonClass: 35471K(35776K)->35471K(35776K) Class: 5138K(5376K)->5138K(5376K)
[2023-08-29T18:54:44.072+0200][gc          ] GC(11) Pause Young (Normal) (G1 Evacuation Pause) 194M->148M(1024M) 6,677ms
[2023-08-29T18:54:44.072+0200][gc,cpu      ] GC(11) User=0,03s Sys=0,00s Real=0,00s
[2023-08-29T18:54:44.517+0200][gc,start    ] GC(12) Pause Young (Normal) (G1 Evacuation Pause)
[2023-08-29T18:54:44.517+0200][gc,task     ] GC(12) Using 4 workers of 4 for evacuation
[2023-08-29T18:54:44.524+0200][gc,phases   ] GC(12)   Pre Evacuate Collection Set: 0,3ms
[2023-08-29T18:54:44.524+0200][gc,phases   ] GC(12)   Merge Heap Roots: 0,1ms
[2023-08-29T18:54:44.524+0200][gc,phases   ] GC(12)   Evacuate Collection Set: 5,3ms
[2023-08-29T18:54:44.524+0200][gc,phases   ] GC(12)   Post Evacuate Collection Set: 0,7ms
[2023-08-29T18:54:44.524+0200][gc,phases   ] GC(12)   Other: 0,2ms
[2023-08-29T18:54:44.524+0200][gc,heap     ] GC(12) Eden regions: 47->0(60)
[2023-08-29T18:54:44.524+0200][gc,heap     ] GC(12) Survivor regions: 4->4(7)
[2023-08-29T18:54:44.524+0200][gc,heap     ] GC(12) Old regions: 13->13
[2023-08-29T18:54:44.524+0200][gc,heap     ] GC(12) Archive regions: 2->2
[2023-08-29T18:54:44.524+0200][gc,heap     ] GC(12) Humongous regions: 131->131
[2023-08-29T18:54:44.524+0200][gc,metaspace] GC(12) Metaspace: 40826K(41344K)->40826K(41344K) NonClass: 35671K(35968K)->35671K(35968K) Class: 5155K(5376K)->5155K(5376K)
[2023-08-29T18:54:44.524+0200][gc          ] GC(12) Pause Young (Normal) (G1 Evacuation Pause) 195M->148M(1024M) 6,762ms
[2023-08-29T18:54:44.524+0200][gc,cpu      ] GC(12) User=0,02s Sys=0,00s Real=0,00s
[2023-08-29T18:54:44.818+0200][gc,start    ] GC(13) Pause Young (Normal) (G1 Evacuation Pause)
[2023-08-29T18:54:44.818+0200][gc,task     ] GC(13) Using 4 workers of 4 for evacuation
[2023-08-29T18:54:44.825+0200][gc,phases   ] GC(13)   Pre Evacuate Collection Set: 0,1ms
[2023-08-29T18:54:44.825+0200][gc,phases   ] GC(13)   Merge Heap Roots: 0,1ms
[2023-08-29T18:54:44.825+0200][gc,phases   ] GC(13)   Evacuate Collection Set: 6,2ms
[2023-08-29T18:54:44.825+0200][gc,phases   ] GC(13)   Post Evacuate Collection Set: 0,5ms
[2023-08-29T18:54:44.825+0200][gc,phases   ] GC(13)   Other: 0,2ms
[2023-08-29T18:54:44.825+0200][gc,heap     ] GC(13) Eden regions: 60->0(332)
[2023-08-29T18:54:44.825+0200][gc,heap     ] GC(13) Survivor regions: 4->4(8)
[2023-08-29T18:54:44.825+0200][gc,heap     ] GC(13) Old regions: 13->13
[2023-08-29T18:54:44.825+0200][gc,heap     ] GC(13) Archive regions: 2->2
[2023-08-29T18:54:44.825+0200][gc,heap     ] GC(13) Humongous regions: 131->131
[2023-08-29T18:54:44.825+0200][gc,metaspace] GC(13) Metaspace: 40836K(41344K)->40836K(41344K) NonClass: 35681K(35968K)->35681K(35968K) Class: 5155K(5376K)->5155K(5376K)
[2023-08-29T18:54:44.825+0200][gc          ] GC(13) Pause Young (Normal) (G1 Evacuation Pause) 208M->147M(1024M) 7,261ms
[2023-08-29T18:54:44.825+0200][gc,cpu      ] GC(13) User=0,02s Sys=0,00s Real=0,01s
[2023-08-29T18:54:48.029+0200][gc,start    ] GC(14) Pause Young (Normal) (G1 Evacuation Pause)
[2023-08-29T18:54:48.029+0200][gc,task     ] GC(14) Using 4 workers of 4 for evacuation
[2023-08-29T18:54:48.046+0200][gc,phases   ] GC(14)   Pre Evacuate Collection Set: 0,2ms
[2023-08-29T18:54:48.047+0200][gc,phases   ] GC(14)   Merge Heap Roots: 0,2ms
[2023-08-29T18:54:48.047+0200][gc,phases   ] GC(14)   Evacuate Collection Set: 13,0ms
[2023-08-29T18:54:48.047+0200][gc,phases   ] GC(14)   Post Evacuate Collection Set: 4,2ms
[2023-08-29T18:54:48.047+0200][gc,phases   ] GC(14)   Other: 0,3ms
[2023-08-29T18:54:48.047+0200][gc,heap     ] GC(14) Eden regions: 332->0(423)
[2023-08-29T18:54:48.047+0200][gc,heap     ] GC(14) Survivor regions: 4->4(42)
[2023-08-29T18:54:48.047+0200][gc,heap     ] GC(14) Old regions: 13->13
[2023-08-29T18:54:48.047+0200][gc,heap     ] GC(14) Archive regions: 2->2
[2023-08-29T18:54:48.047+0200][gc,heap     ] GC(14) Humongous regions: 131->131
[2023-08-29T18:54:48.047+0200][gc,metaspace] GC(14) Metaspace: 41033K(41600K)->41033K(41600K) NonClass: 35852K(36160K)->35852K(36160K) Class: 5181K(5440K)->5181K(5440K)
[2023-08-29T18:54:48.047+0200][gc          ] GC(14) Pause Young (Normal) (G1 Evacuation Pause) 479M->148M(1024M) 18,012ms
[2023-08-29T18:54:48.047+0200][gc,cpu      ] GC(14) User=0,03s Sys=0,00s Real=0,02s
[2023-08-29T18:54:52.600+0200][gc,start    ] GC(15) Pause Young (Normal) (G1 Evacuation Pause)
[2023-08-29T18:54:52.600+0200][gc,task     ] GC(15) Using 4 workers of 4 for evacuation
[2023-08-29T18:54:52.609+0200][gc,phases   ] GC(15)   Pre Evacuate Collection Set: 0,2ms
[2023-08-29T18:54:52.609+0200][gc,phases   ] GC(15)   Merge Heap Roots: 0,2ms
[2023-08-29T18:54:52.609+0200][gc,phases   ] GC(15)   Evacuate Collection Set: 7,6ms
[2023-08-29T18:54:52.609+0200][gc,phases   ] GC(15)   Post Evacuate Collection Set: 0,9ms
[2023-08-29T18:54:52.609+0200][gc,phases   ] GC(15)   Other: 0,3ms
[2023-08-29T18:54:52.609+0200][gc,heap     ] GC(15) Eden regions: 423->0(610)
[2023-08-29T18:54:52.609+0200][gc,heap     ] GC(15) Survivor regions: 4->4(54)
[2023-08-29T18:54:52.609+0200][gc,heap     ] GC(15) Old regions: 13->13
[2023-08-29T18:54:52.609+0200][gc,heap     ] GC(15) Archive regions: 2->2
[2023-08-29T18:54:52.609+0200][gc,heap     ] GC(15) Humongous regions: 131->131
[2023-08-29T18:54:52.609+0200][gc,metaspace] GC(15) Metaspace: 41114K(41600K)->41114K(41600K) NonClass: 35927K(36160K)->35927K(36160K) Class: 5187K(5440K)->5187K(5440K)
[2023-08-29T18:54:52.609+0200][gc          ] GC(15) Pause Young (Normal) (G1 Evacuation Pause) 571M->148M(1024M) 9,436ms
[2023-08-29T18:54:52.609+0200][gc,cpu      ] GC(15) User=0,02s Sys=0,00s Real=0,01s
[2023-08-29T18:55:59.455+0200][gc,heap,exit] Heap
[2023-08-29T18:55:59.456+0200][gc,heap,exit]  garbage-first heap   total 1048576K, used 203904K [0x00000000c0000000, 0x0000000100000000)
[2023-08-29T18:55:59.456+0200][gc,heap,exit]   region size 1024K, 55 young (56320K), 4 survivors (4096K)
[2023-08-29T18:55:59.456+0200][gc,heap,exit]  Metaspace       used 42980K, committed 43520K, reserved 1114112K
[2023-08-29T18:55:59.456+0200][gc,heap,exit]   class space    used 5561K, committed 5824K, reserved 1048576K
