[2023-08-26T04:15:54.363+0200][gc] Using G1
[2023-08-26T04:15:54.387+0200][gc,init] Version: 17.0.8+7-Ubuntu-122.04 (release)
[2023-08-26T04:15:54.387+0200][gc,init] CPUs: 4 total, 4 available
[2023-08-26T04:15:54.387+0200][gc,init] Memory: 7843M
[2023-08-26T04:15:54.387+0200][gc,init] Large Page Support: Disabled
[2023-08-26T04:15:54.387+0200][gc,init] NUMA Support: Disabled
[2023-08-26T04:15:54.387+0200][gc,init] Compressed Oops: Enabled (32-bit)
[2023-08-26T04:15:54.387+0200][gc,init] Heap Region Size: 1M
[2023-08-26T04:15:54.387+0200][gc,init] Heap Min Capacity: 1G
[2023-08-26T04:15:54.387+0200][gc,init] Heap Initial Capacity: 1G
[2023-08-26T04:15:54.387+0200][gc,init] Heap Max Capacity: 1G
[2023-08-26T04:15:54.387+0200][gc,init] Pre-touch: Disabled
[2023-08-26T04:15:54.387+0200][gc,init] Parallel Workers: 4
[2023-08-26T04:15:54.387+0200][gc,init] Concurrent Workers: 1
[2023-08-26T04:15:54.387+0200][gc,init] Concurrent Refinement Workers: 4
[2023-08-26T04:15:54.387+0200][gc,init] Periodic GC: Disabled
[2023-08-26T04:15:54.396+0200][gc,metaspace] CDS archive(s) mapped at: [0x00007f9b57000000-0x00007f9b57beb000-0x00007f9b57beb000), size 12496896, SharedBaseAddress: 0x00007f9b57000000, ArchiveRelocationMode: 1.
[2023-08-26T04:15:54.396+0200][gc,metaspace] Compressed class space mapped at: 0x00007f9b58000000-0x00007f9b98000000, reserved size: 1073741824
[2023-08-26T04:15:54.396+0200][gc,metaspace] Narrow klass base: 0x00007f9b57000000, Narrow klass shift: 0, Narrow klass range: 0x100000000
[2023-08-26T04:15:55.511+0200][gc,heap,exit] Heap
[2023-08-26T04:15:55.511+0200][gc,heap,exit]  garbage-first heap   total 1048576K, used 30186K [0x00000000c0000000, 0x0000000100000000)
[2023-08-26T04:15:55.511+0200][gc,heap,exit]   region size 1024K, 29 young (29696K), 0 survivors (0K)
[2023-08-26T04:15:55.511+0200][gc,heap,exit]  Metaspace       used 11973K, committed 12160K, reserved 1114112K
[2023-08-26T04:15:55.511+0200][gc,heap,exit]   class space    used 1574K, committed 1664K, reserved 1048576K
