[2023-06-14T16:11:15.282+0200][gc,heap] Heap region size: 1M
[2023-06-14T16:11:15.299+0200][gc     ] Using G1
[2023-06-14T16:11:15.300+0200][gc,heap,coops] Heap address: 0x00000000c0000000, size: 1024 MB, Compressed Oops mode: 32-bit
[2023-06-14T16:11:15.300+0200][gc,cds       ] Mark closed archive regions in map: [0x00000000fff00000, 0x00000000fff6aff8]
[2023-06-14T16:11:15.300+0200][gc,cds       ] Mark open archive regions in map: [0x00000000ffe00000, 0x00000000ffe46ff8]
[2023-06-14T16:11:19.021+0200][gc,start     ] GC(0) Pause Young (Normal) (G1 Evacuation Pause)
[2023-06-14T16:11:19.024+0200][gc,task      ] GC(0) Using 4 workers of 4 for evacuation
[2023-06-14T16:11:19.105+0200][gc,mmu       ] GC(0) MMU target violated: 21,0ms (20,0ms/21,0ms)
[2023-06-14T16:11:19.105+0200][gc,phases    ] GC(0)   Pre Evacuate Collection Set: 0,1ms
[2023-06-14T16:11:19.105+0200][gc,phases    ] GC(0)   Evacuate Collection Set: 79,9ms
[2023-06-14T16:11:19.105+0200][gc,phases    ] GC(0)   Post Evacuate Collection Set: 0,6ms
[2023-06-14T16:11:19.105+0200][gc,phases    ] GC(0)   Other: 3,2ms
[2023-06-14T16:11:19.105+0200][gc,heap      ] GC(0) Eden regions: 51->0(44)
[2023-06-14T16:11:19.105+0200][gc,heap      ] GC(0) Survivor regions: 0->7(7)
[2023-06-14T16:11:19.105+0200][gc,heap      ] GC(0) Old regions: 2->2
[2023-06-14T16:11:19.105+0200][gc,heap      ] GC(0) Humongous regions: 0->0
[2023-06-14T16:11:19.105+0200][gc,metaspace ] GC(0) Metaspace: 14469K(15360K)->14469K(15360K) NonClass: 12448K(13056K)->12448K(13056K) Class: 2020K(2304K)->2020K(2304K)
[2023-06-14T16:11:19.105+0200][gc           ] GC(0) Pause Young (Normal) (G1 Evacuation Pause) 51M->7M(1024M) 83,732ms
[2023-06-14T16:11:19.105+0200][gc,cpu       ] GC(0) User=0,05s Sys=0,01s Real=0,09s
[2023-06-14T16:11:20.462+0200][gc,start     ] GC(1) Pause Young (Concurrent Start) (Metadata GC Threshold)
[2023-06-14T16:11:20.462+0200][gc,task      ] GC(1) Using 4 workers of 4 for evacuation
[2023-06-14T16:11:20.499+0200][gc,mmu       ] GC(1) MMU target violated: 21,0ms (20,0ms/21,0ms)
[2023-06-14T16:11:20.499+0200][gc,phases    ] GC(1)   Pre Evacuate Collection Set: 0,1ms
[2023-06-14T16:11:20.499+0200][gc,phases    ] GC(1)   Evacuate Collection Set: 34,1ms
[2023-06-14T16:11:20.499+0200][gc,phases    ] GC(1)   Post Evacuate Collection Set: 2,7ms
[2023-06-14T16:11:20.499+0200][gc,phases    ] GC(1)   Other: 0,4ms
[2023-06-14T16:11:20.499+0200][gc,heap      ] GC(1) Eden regions: 25->0(50)
[2023-06-14T16:11:20.499+0200][gc,heap      ] GC(1) Survivor regions: 7->1(7)
[2023-06-14T16:11:20.499+0200][gc,heap      ] GC(1) Old regions: 2->9
[2023-06-14T16:11:20.499+0200][gc,heap      ] GC(1) Humongous regions: 0->0
[2023-06-14T16:11:20.499+0200][gc,metaspace ] GC(1) Metaspace: 20504K(21248K)->20504K(21248K) NonClass: 17753K(18176K)->17753K(18176K) Class: 2750K(3072K)->2750K(3072K)
[2023-06-14T16:11:20.499+0200][gc           ] GC(1) Pause Young (Concurrent Start) (Metadata GC Threshold) 31M->8M(1024M) 37,454ms
[2023-06-14T16:11:20.499+0200][gc,cpu       ] GC(1) User=0,04s Sys=0,01s Real=0,04s
[2023-06-14T16:11:20.499+0200][gc           ] GC(2) Concurrent Cycle
[2023-06-14T16:11:20.499+0200][gc,marking   ] GC(2) Concurrent Clear Claimed Marks
[2023-06-14T16:11:20.499+0200][gc,marking   ] GC(2) Concurrent Clear Claimed Marks 0,057ms
[2023-06-14T16:11:20.499+0200][gc,marking   ] GC(2) Concurrent Scan Root Regions
[2023-06-14T16:11:20.504+0200][gc,marking   ] GC(2) Concurrent Scan Root Regions 4,953ms
[2023-06-14T16:11:20.504+0200][gc,marking   ] GC(2) Concurrent Mark (5,230s)
[2023-06-14T16:11:20.505+0200][gc,marking   ] GC(2) Concurrent Mark From Roots
[2023-06-14T16:11:20.505+0200][gc,task      ] GC(2) Using 1 workers of 1 for marking
[2023-06-14T16:11:20.525+0200][gc,marking   ] GC(2) Concurrent Mark From Roots 20,148ms
[2023-06-14T16:11:20.525+0200][gc,marking   ] GC(2) Concurrent Preclean
[2023-06-14T16:11:20.525+0200][gc,marking   ] GC(2) Concurrent Preclean 0,156ms
[2023-06-14T16:11:20.525+0200][gc,marking   ] GC(2) Concurrent Mark (5,230s, 5,250s) 20,396ms
[2023-06-14T16:11:20.530+0200][gc,start     ] GC(2) Pause Remark
[2023-06-14T16:11:20.533+0200][gc,stringtable] GC(2) Cleaned string and symbol table, strings: 5180 processed, 0 removed, symbols: 51856 processed, 59 removed
[2023-06-14T16:11:20.533+0200][gc            ] GC(2) Pause Remark 8M->8M(1024M) 3,875ms
[2023-06-14T16:11:20.533+0200][gc,cpu        ] GC(2) User=0,00s Sys=0,00s Real=0,00s
[2023-06-14T16:11:20.534+0200][gc,marking    ] GC(2) Concurrent Rebuild Remembered Sets
[2023-06-14T16:11:20.543+0200][gc,marking    ] GC(2) Concurrent Rebuild Remembered Sets 8,943ms
[2023-06-14T16:11:20.551+0200][gc,start      ] GC(2) Pause Cleanup
[2023-06-14T16:11:20.551+0200][gc            ] GC(2) Pause Cleanup 8M->8M(1024M) 0,358ms
[2023-06-14T16:11:20.551+0200][gc,cpu        ] GC(2) User=0,00s Sys=0,00s Real=0,00s
[2023-06-14T16:11:20.551+0200][gc,marking    ] GC(2) Concurrent Cleanup for Next Mark
[2023-06-14T16:11:20.596+0200][gc,marking    ] GC(2) Concurrent Cleanup for Next Mark 44,402ms
[2023-06-14T16:11:20.596+0200][gc            ] GC(2) Concurrent Cycle 96,333ms
[2023-06-14T16:11:23.896+0200][gc,start      ] GC(3) Pause Young (Normal) (G1 Evacuation Pause)
[2023-06-14T16:11:23.896+0200][gc,task       ] GC(3) Using 4 workers of 4 for evacuation
[2023-06-14T16:11:23.904+0200][gc,phases     ] GC(3)   Pre Evacuate Collection Set: 0,3ms
[2023-06-14T16:11:23.904+0200][gc,phases     ] GC(3)   Evacuate Collection Set: 6,2ms
[2023-06-14T16:11:23.904+0200][gc,phases     ] GC(3)   Post Evacuate Collection Set: 0,6ms
[2023-06-14T16:11:23.904+0200][gc,phases     ] GC(3)   Other: 0,3ms
[2023-06-14T16:11:23.904+0200][gc,heap       ] GC(3) Eden regions: 50->0(47)
[2023-06-14T16:11:23.904+0200][gc,heap       ] GC(3) Survivor regions: 1->4(7)
[2023-06-14T16:11:23.904+0200][gc,heap       ] GC(3) Old regions: 9->9
[2023-06-14T16:11:23.904+0200][gc,heap       ] GC(3) Humongous regions: 129->129
[2023-06-14T16:11:23.904+0200][gc,metaspace  ] GC(3) Metaspace: 28404K(29568K)->28404K(29568K) NonClass: 24705K(25344K)->24705K(25344K) Class: 3699K(4224K)->3699K(4224K)
[2023-06-14T16:11:23.904+0200][gc            ] GC(3) Pause Young (Normal) (G1 Evacuation Pause) 187M->139M(1024M) 7,532ms
[2023-06-14T16:11:23.904+0200][gc,cpu        ] GC(3) User=0,02s Sys=0,00s Real=0,01s
[2023-06-14T16:11:24.875+0200][gc,start      ] GC(4) Pause Young (Concurrent Start) (Metadata GC Threshold)
[2023-06-14T16:11:24.875+0200][gc,task       ] GC(4) Using 4 workers of 4 for evacuation
[2023-06-14T16:11:24.889+0200][gc,phases     ] GC(4)   Pre Evacuate Collection Set: 0,1ms
[2023-06-14T16:11:24.889+0200][gc,phases     ] GC(4)   Evacuate Collection Set: 12,8ms
[2023-06-14T16:11:24.889+0200][gc,phases     ] GC(4)   Post Evacuate Collection Set: 0,5ms
[2023-06-14T16:11:24.889+0200][gc,phases     ] GC(4)   Other: 0,3ms
[2023-06-14T16:11:24.889+0200][gc,heap       ] GC(4) Eden regions: 39->0(44)
[2023-06-14T16:11:24.889+0200][gc,heap       ] GC(4) Survivor regions: 4->7(7)
[2023-06-14T16:11:24.889+0200][gc,heap       ] GC(4) Old regions: 9->9
[2023-06-14T16:11:24.889+0200][gc,heap       ] GC(4) Humongous regions: 129->129
[2023-06-14T16:11:24.889+0200][gc,metaspace  ] GC(4) Metaspace: 34497K(35840K)->34497K(35840K) NonClass: 30123K(30848K)->30123K(30848K) Class: 4374K(4992K)->4374K(4992K)
[2023-06-14T16:11:24.889+0200][gc            ] GC(4) Pause Young (Concurrent Start) (Metadata GC Threshold) 178M->142M(1024M) 13,826ms
[2023-06-14T16:11:24.889+0200][gc,cpu        ] GC(4) User=0,03s Sys=0,01s Real=0,01s
[2023-06-14T16:11:24.889+0200][gc            ] GC(5) Concurrent Cycle
[2023-06-14T16:11:24.889+0200][gc,marking    ] GC(5) Concurrent Clear Claimed Marks
[2023-06-14T16:11:24.889+0200][gc,marking    ] GC(5) Concurrent Clear Claimed Marks 0,095ms
[2023-06-14T16:11:24.889+0200][gc,marking    ] GC(5) Concurrent Scan Root Regions
[2023-06-14T16:11:24.897+0200][gc,marking    ] GC(5) Concurrent Scan Root Regions 8,210ms
[2023-06-14T16:11:24.897+0200][gc,marking    ] GC(5) Concurrent Mark (9,623s)
[2023-06-14T16:11:24.897+0200][gc,marking    ] GC(5) Concurrent Mark From Roots
[2023-06-14T16:11:24.897+0200][gc,task       ] GC(5) Using 1 workers of 1 for marking
[2023-06-14T16:11:24.915+0200][gc,marking    ] GC(5) Concurrent Mark From Roots 18,083ms
[2023-06-14T16:11:24.915+0200][gc,marking    ] GC(5) Concurrent Preclean
[2023-06-14T16:11:24.916+0200][gc,marking    ] GC(5) Concurrent Preclean 0,139ms
[2023-06-14T16:11:24.916+0200][gc,marking    ] GC(5) Concurrent Mark (9,623s, 9,641s) 18,328ms
[2023-06-14T16:11:24.919+0200][gc,start      ] GC(5) Pause Remark
[2023-06-14T16:11:24.924+0200][gc,stringtable] GC(5) Cleaned string and symbol table, strings: 10705 processed, 12 removed, symbols: 81820 processed, 16 removed
[2023-06-14T16:11:24.924+0200][gc            ] GC(5) Pause Remark 144M->144M(1024M) 4,820ms
[2023-06-14T16:11:24.924+0200][gc,cpu        ] GC(5) User=0,02s Sys=0,00s Real=0,01s
[2023-06-14T16:11:24.924+0200][gc,marking    ] GC(5) Concurrent Rebuild Remembered Sets
[2023-06-14T16:11:24.943+0200][gc,marking    ] GC(5) Concurrent Rebuild Remembered Sets 18,863ms
[2023-06-14T16:11:24.945+0200][gc,start      ] GC(5) Pause Cleanup
[2023-06-14T16:11:24.945+0200][gc            ] GC(5) Pause Cleanup 145M->145M(1024M) 0,242ms
[2023-06-14T16:11:24.945+0200][gc,cpu        ] GC(5) User=0,00s Sys=0,00s Real=0,00s
[2023-06-14T16:11:24.945+0200][gc,marking    ] GC(5) Concurrent Cleanup for Next Mark
[2023-06-14T16:11:24.970+0200][gc,marking    ] GC(5) Concurrent Cleanup for Next Mark 25,087ms
[2023-06-14T16:11:24.970+0200][gc            ] GC(5) Concurrent Cycle 81,297ms
[2023-06-14T16:11:26.349+0200][gc,start      ] GC(6) Pause Young (Normal) (G1 Evacuation Pause)
[2023-06-14T16:11:26.349+0200][gc,task       ] GC(6) Using 4 workers of 4 for evacuation
[2023-06-14T16:11:26.369+0200][gc,mmu        ] GC(6) MMU target violated: 20,7ms (20,0ms/21,0ms)
[2023-06-14T16:11:26.370+0200][gc,phases     ] GC(6)   Pre Evacuate Collection Set: 0,0ms
[2023-06-14T16:11:26.370+0200][gc,phases     ] GC(6)   Evacuate Collection Set: 18,6ms
[2023-06-14T16:11:26.370+0200][gc,phases     ] GC(6)   Post Evacuate Collection Set: 2,0ms
[2023-06-14T16:11:26.370+0200][gc,phases     ] GC(6)   Other: 0,4ms
[2023-06-14T16:11:26.370+0200][gc,heap       ] GC(6) Eden regions: 44->0(45)
[2023-06-14T16:11:26.370+0200][gc,heap       ] GC(6) Survivor regions: 7->6(7)
[2023-06-14T16:11:26.370+0200][gc,heap       ] GC(6) Old regions: 9->12
[2023-06-14T16:11:26.370+0200][gc,heap       ] GC(6) Humongous regions: 135->129
[2023-06-14T16:11:26.370+0200][gc,metaspace  ] GC(6) Metaspace: 41225K(43596K)->41225K(43596K) NonClass: 35636K(36864K)->35636K(36864K) Class: 5588K(6732K)->5588K(6732K)
[2023-06-14T16:11:26.370+0200][gc            ] GC(6) Pause Young (Normal) (G1 Evacuation Pause) 192M->144M(1024M) 21,059ms
[2023-06-14T16:11:26.370+0200][gc,cpu        ] GC(6) User=0,04s Sys=0,00s Real=0,02s
[2023-06-14T16:17:08.578+0200][gc,start      ] GC(7) Pause Young (Normal) (G1 Evacuation Pause)
[2023-06-14T16:17:08.578+0200][gc,task       ] GC(7) Using 4 workers of 4 for evacuation
[2023-06-14T16:17:08.599+0200][gc,mmu        ] GC(7) MMU target violated: 21,0ms (20,0ms/21,0ms)
[2023-06-14T16:17:08.599+0200][gc,phases     ] GC(7)   Pre Evacuate Collection Set: 0,3ms
[2023-06-14T16:17:08.599+0200][gc,phases     ] GC(7)   Evacuate Collection Set: 15,5ms
[2023-06-14T16:17:08.599+0200][gc,phases     ] GC(7)   Post Evacuate Collection Set: 5,2ms
[2023-06-14T16:17:08.599+0200][gc,phases     ] GC(7)   Other: 0,4ms
[2023-06-14T16:17:08.599+0200][gc,heap       ] GC(7) Eden regions: 45->0(45)
[2023-06-14T16:17:08.600+0200][gc,heap       ] GC(7) Survivor regions: 6->6(7)
[2023-06-14T16:17:08.600+0200][gc,heap       ] GC(7) Old regions: 12->15
[2023-06-14T16:17:08.600+0200][gc,heap       ] GC(7) Humongous regions: 261->129
[2023-06-14T16:17:08.600+0200][gc,metaspace  ] GC(7) Metaspace: 44533K(47308K)->44533K(47308K) NonClass: 38494K(39936K)->38494K(39936K) Class: 6039K(7372K)->6039K(7372K)
[2023-06-14T16:17:08.600+0200][gc            ] GC(7) Pause Young (Normal) (G1 Evacuation Pause) 321M->147M(1024M) 21,531ms
[2023-06-14T16:17:08.600+0200][gc,cpu        ] GC(7) User=0,04s Sys=0,01s Real=0,02s
[2023-06-14T16:19:35.181+0200][gc,start      ] GC(8) Pause Young (Normal) (G1 Evacuation Pause)
[2023-06-14T16:19:35.181+0200][gc,task       ] GC(8) Using 4 workers of 4 for evacuation
[2023-06-14T16:19:35.194+0200][gc,phases     ] GC(8)   Pre Evacuate Collection Set: 0,1ms
[2023-06-14T16:19:35.194+0200][gc,phases     ] GC(8)   Evacuate Collection Set: 12,6ms
[2023-06-14T16:19:35.194+0200][gc,phases     ] GC(8)   Post Evacuate Collection Set: 0,7ms
[2023-06-14T16:19:35.195+0200][gc,phases     ] GC(8)   Other: 4,1ms
[2023-06-14T16:19:35.195+0200][gc,heap       ] GC(8) Eden regions: 45->0(46)
[2023-06-14T16:19:35.195+0200][gc,heap       ] GC(8) Survivor regions: 6->5(7)
[2023-06-14T16:19:35.195+0200][gc,heap       ] GC(8) Old regions: 15->17
[2023-06-14T16:19:35.195+0200][gc,heap       ] GC(8) Humongous regions: 129->129
[2023-06-14T16:19:35.195+0200][gc,metaspace  ] GC(8) Metaspace: 44726K(47692K)->44726K(47692K) NonClass: 38643K(40192K)->38643K(40192K) Class: 6083K(7500K)->6083K(7500K)
[2023-06-14T16:19:35.195+0200][gc            ] GC(8) Pause Young (Normal) (G1 Evacuation Pause) 192M->149M(1024M) 14,009ms
[2023-06-14T16:19:35.195+0200][gc,cpu        ] GC(8) User=0,04s Sys=0,00s Real=0,02s
[2023-06-14T16:21:05.970+0200][gc,start      ] GC(9) Pause Young (Normal) (G1 Evacuation Pause)
[2023-06-14T16:21:05.970+0200][gc,task       ] GC(9) Using 4 workers of 4 for evacuation
[2023-06-14T16:21:05.991+0200][gc,mmu        ] GC(9) MMU target violated: 20,5ms (20,0ms/21,0ms)
[2023-06-14T16:21:05.991+0200][gc,phases     ] GC(9)   Pre Evacuate Collection Set: 0,1ms
[2023-06-14T16:21:05.991+0200][gc,phases     ] GC(9)   Evacuate Collection Set: 19,8ms
[2023-06-14T16:21:05.991+0200][gc,phases     ] GC(9)   Post Evacuate Collection Set: 0,5ms
[2023-06-14T16:21:05.991+0200][gc,phases     ] GC(9)   Other: 0,4ms
[2023-06-14T16:21:05.991+0200][gc,heap       ] GC(9) Eden regions: 46->0(49)
[2023-06-14T16:21:05.991+0200][gc,heap       ] GC(9) Survivor regions: 5->2(7)
[2023-06-14T16:21:05.991+0200][gc,heap       ] GC(9) Old regions: 17->19
[2023-06-14T16:21:05.991+0200][gc,heap       ] GC(9) Humongous regions: 129->129
[2023-06-14T16:21:05.991+0200][gc,metaspace  ] GC(9) Metaspace: 44784K(47692K)->44784K(47692K) NonClass: 38695K(40192K)->38695K(40192K) Class: 6089K(7500K)->6089K(7500K)
[2023-06-14T16:21:05.991+0200][gc            ] GC(9) Pause Young (Normal) (G1 Evacuation Pause) 195M->148M(1024M) 20,929ms
[2023-06-14T16:21:05.991+0200][gc,cpu        ] GC(9) User=0,02s Sys=0,00s Real=0,02s
[2023-06-14T16:23:59.847+0200][gc,start      ] GC(10) Pause Young (Normal) (G1 Evacuation Pause)
[2023-06-14T16:23:59.850+0200][gc,task       ] GC(10) Using 4 workers of 4 for evacuation
[2023-06-14T16:23:59.875+0200][gc,mmu        ] GC(10) MMU target violated: 21,0ms (20,0ms/21,0ms)
[2023-06-14T16:23:59.875+0200][gc,phases     ] GC(10)   Pre Evacuate Collection Set: 0,1ms
[2023-06-14T16:23:59.875+0200][gc,phases     ] GC(10)   Evacuate Collection Set: 22,7ms
[2023-06-14T16:23:59.875+0200][gc,phases     ] GC(10)   Post Evacuate Collection Set: 1,9ms
[2023-06-14T16:23:59.875+0200][gc,phases     ] GC(10)   Other: 3,7ms
[2023-06-14T16:23:59.875+0200][gc,heap       ] GC(10) Eden regions: 49->0(48)
[2023-06-14T16:23:59.875+0200][gc,heap       ] GC(10) Survivor regions: 2->3(7)
[2023-06-14T16:23:59.875+0200][gc,heap       ] GC(10) Old regions: 19->19
[2023-06-14T16:23:59.875+0200][gc,heap       ] GC(10) Humongous regions: 129->129
[2023-06-14T16:23:59.875+0200][gc,metaspace  ] GC(10) Metaspace: 44943K(47948K)->44943K(47948K) NonClass: 38823K(40448K)->38823K(40448K) Class: 6119K(7500K)->6119K(7500K)
[2023-06-14T16:23:59.875+0200][gc            ] GC(10) Pause Young (Normal) (G1 Evacuation Pause) 197M->149M(1024M) 28,063ms
[2023-06-14T16:23:59.875+0200][gc,cpu        ] GC(10) User=0,03s Sys=0,00s Real=0,03s
[2023-06-14T16:25:25.966+0200][gc,start      ] GC(11) Pause Young (Normal) (G1 Evacuation Pause)
[2023-06-14T16:25:25.967+0200][gc,task       ] GC(11) Using 4 workers of 4 for evacuation
[2023-06-14T16:25:25.974+0200][gc,phases     ] GC(11)   Pre Evacuate Collection Set: 0,0ms
[2023-06-14T16:25:25.974+0200][gc,phases     ] GC(11)   Evacuate Collection Set: 6,4ms
[2023-06-14T16:25:25.974+0200][gc,phases     ] GC(11)   Post Evacuate Collection Set: 0,4ms
[2023-06-14T16:25:25.974+0200][gc,phases     ] GC(11)   Other: 0,5ms
[2023-06-14T16:25:25.974+0200][gc,heap       ] GC(11) Eden regions: 48->0(47)
[2023-06-14T16:25:25.974+0200][gc,heap       ] GC(11) Survivor regions: 3->4(7)
[2023-06-14T16:25:25.974+0200][gc,heap       ] GC(11) Old regions: 19->19
[2023-06-14T16:25:25.974+0200][gc,heap       ] GC(11) Humongous regions: 129->129
[2023-06-14T16:25:25.974+0200][gc,metaspace  ] GC(11) Metaspace: 44951K(47948K)->44951K(47948K) NonClass: 38832K(40448K)->38832K(40448K) Class: 6119K(7500K)->6119K(7500K)
[2023-06-14T16:25:25.974+0200][gc            ] GC(11) Pause Young (Normal) (G1 Evacuation Pause) 197M->150M(1024M) 7,538ms
[2023-06-14T16:25:25.974+0200][gc,cpu        ] GC(11) User=0,02s Sys=0,01s Real=0,00s
[2023-06-14T16:26:40.179+0200][gc,start      ] GC(12) Pause Young (Normal) (G1 Evacuation Pause)
[2023-06-14T16:26:40.179+0200][gc,task       ] GC(12) Using 4 workers of 4 for evacuation
[2023-06-14T16:26:40.187+0200][gc,phases     ] GC(12)   Pre Evacuate Collection Set: 0,0ms
[2023-06-14T16:26:40.187+0200][gc,phases     ] GC(12)   Evacuate Collection Set: 7,3ms
[2023-06-14T16:26:40.187+0200][gc,phases     ] GC(12)   Post Evacuate Collection Set: 0,4ms
[2023-06-14T16:26:40.187+0200][gc,phases     ] GC(12)   Other: 0,2ms
[2023-06-14T16:26:40.187+0200][gc,heap       ] GC(12) Eden regions: 47->0(46)
[2023-06-14T16:26:40.187+0200][gc,heap       ] GC(12) Survivor regions: 4->5(7)
[2023-06-14T16:26:40.187+0200][gc,heap       ] GC(12) Old regions: 19->20
[2023-06-14T16:26:40.187+0200][gc,heap       ] GC(12) Humongous regions: 129->129
[2023-06-14T16:26:40.187+0200][gc,metaspace  ] GC(12) Metaspace: 44960K(47948K)->44960K(47948K) NonClass: 38840K(40448K)->38840K(40448K) Class: 6119K(7500K)->6119K(7500K)
[2023-06-14T16:26:40.187+0200][gc            ] GC(12) Pause Young (Normal) (G1 Evacuation Pause) 197M->151M(1024M) 8,096ms
[2023-06-14T16:26:40.187+0200][gc,cpu        ] GC(12) User=0,02s Sys=0,00s Real=0,01s
[2023-06-14T16:27:54.257+0200][gc,start      ] GC(13) Pause Young (Normal) (G1 Evacuation Pause)
[2023-06-14T16:27:54.257+0200][gc,task       ] GC(13) Using 4 workers of 4 for evacuation
[2023-06-14T16:27:54.266+0200][gc,phases     ] GC(13)   Pre Evacuate Collection Set: 0,0ms
[2023-06-14T16:27:54.266+0200][gc,phases     ] GC(13)   Evacuate Collection Set: 7,8ms
[2023-06-14T16:27:54.266+0200][gc,phases     ] GC(13)   Post Evacuate Collection Set: 0,4ms
[2023-06-14T16:27:54.266+0200][gc,phases     ] GC(13)   Other: 0,3ms
[2023-06-14T16:27:54.266+0200][gc,heap       ] GC(13) Eden regions: 46->0(47)
[2023-06-14T16:27:54.266+0200][gc,heap       ] GC(13) Survivor regions: 5->4(7)
[2023-06-14T16:27:54.266+0200][gc,heap       ] GC(13) Old regions: 20->22
[2023-06-14T16:27:54.266+0200][gc,heap       ] GC(13) Humongous regions: 129->129
[2023-06-14T16:27:54.266+0200][gc,metaspace  ] GC(13) Metaspace: 44962K(47948K)->44962K(47948K) NonClass: 38842K(40448K)->38842K(40448K) Class: 6119K(7500K)->6119K(7500K)
[2023-06-14T16:27:54.266+0200][gc            ] GC(13) Pause Young (Normal) (G1 Evacuation Pause) 197M->152M(1024M) 8,623ms
[2023-06-14T16:27:54.266+0200][gc,cpu        ] GC(13) User=0,03s Sys=0,00s Real=0,01s
[2023-06-14T16:29:09.910+0200][gc,start      ] GC(14) Pause Young (Normal) (G1 Evacuation Pause)
[2023-06-14T16:29:09.910+0200][gc,task       ] GC(14) Using 4 workers of 4 for evacuation
[2023-06-14T16:29:09.918+0200][gc,phases     ] GC(14)   Pre Evacuate Collection Set: 0,0ms
[2023-06-14T16:29:09.918+0200][gc,phases     ] GC(14)   Evacuate Collection Set: 6,3ms
[2023-06-14T16:29:09.918+0200][gc,phases     ] GC(14)   Post Evacuate Collection Set: 0,6ms
[2023-06-14T16:29:09.918+0200][gc,phases     ] GC(14)   Other: 0,2ms
[2023-06-14T16:29:09.918+0200][gc,heap       ] GC(14) Eden regions: 47->0(46)
[2023-06-14T16:29:09.918+0200][gc,heap       ] GC(14) Survivor regions: 4->5(7)
[2023-06-14T16:29:09.918+0200][gc,heap       ] GC(14) Old regions: 22->22
[2023-06-14T16:29:09.918+0200][gc,heap       ] GC(14) Humongous regions: 129->129
[2023-06-14T16:29:09.918+0200][gc,metaspace  ] GC(14) Metaspace: 44969K(47948K)->44969K(47948K) NonClass: 38849K(40448K)->38849K(40448K) Class: 6119K(7500K)->6119K(7500K)
[2023-06-14T16:29:09.918+0200][gc            ] GC(14) Pause Young (Normal) (G1 Evacuation Pause) 199M->153M(1024M) 7,304ms
[2023-06-14T16:29:09.918+0200][gc,cpu        ] GC(14) User=0,03s Sys=0,00s Real=0,01s
[2023-06-14T16:30:24.005+0200][gc,start      ] GC(15) Pause Young (Normal) (G1 Evacuation Pause)
[2023-06-14T16:30:24.006+0200][gc,task       ] GC(15) Using 4 workers of 4 for evacuation
[2023-06-14T16:30:24.016+0200][gc,phases     ] GC(15)   Pre Evacuate Collection Set: 0,0ms
[2023-06-14T16:30:24.016+0200][gc,phases     ] GC(15)   Evacuate Collection Set: 8,1ms
[2023-06-14T16:30:24.016+0200][gc,phases     ] GC(15)   Post Evacuate Collection Set: 1,4ms
[2023-06-14T16:30:24.016+0200][gc,phases     ] GC(15)   Other: 1,3ms
[2023-06-14T16:30:24.016+0200][gc,heap       ] GC(15) Eden regions: 46->0(46)
[2023-06-14T16:30:24.016+0200][gc,heap       ] GC(15) Survivor regions: 5->5(7)
[2023-06-14T16:30:24.016+0200][gc,heap       ] GC(15) Old regions: 22->23
[2023-06-14T16:30:24.016+0200][gc,heap       ] GC(15) Humongous regions: 129->129
[2023-06-14T16:30:24.016+0200][gc,metaspace  ] GC(15) Metaspace: 44976K(47948K)->44976K(47948K) NonClass: 38856K(40448K)->38856K(40448K) Class: 6119K(7500K)->6119K(7500K)
[2023-06-14T16:30:24.016+0200][gc            ] GC(15) Pause Young (Normal) (G1 Evacuation Pause) 199M->154M(1024M) 10,644ms
[2023-06-14T16:30:24.016+0200][gc,cpu        ] GC(15) User=0,03s Sys=0,00s Real=0,01s
[2023-06-14T16:31:37.406+0200][gc,start      ] GC(16) Pause Young (Normal) (G1 Evacuation Pause)
[2023-06-14T16:31:37.406+0200][gc,task       ] GC(16) Using 4 workers of 4 for evacuation
[2023-06-14T16:31:37.415+0200][gc,phases     ] GC(16)   Pre Evacuate Collection Set: 0,0ms
[2023-06-14T16:31:37.415+0200][gc,phases     ] GC(16)   Evacuate Collection Set: 8,4ms
[2023-06-14T16:31:37.415+0200][gc,phases     ] GC(16)   Post Evacuate Collection Set: 0,5ms
[2023-06-14T16:31:37.415+0200][gc,phases     ] GC(16)   Other: 0,3ms
[2023-06-14T16:31:37.415+0200][gc,heap       ] GC(16) Eden regions: 46->0(49)
[2023-06-14T16:31:37.415+0200][gc,heap       ] GC(16) Survivor regions: 5->5(7)
[2023-06-14T16:31:37.415+0200][gc,heap       ] GC(16) Old regions: 23->25
[2023-06-14T16:31:37.415+0200][gc,heap       ] GC(16) Humongous regions: 129->129
[2023-06-14T16:31:37.415+0200][gc,metaspace  ] GC(16) Metaspace: 44990K(47948K)->44990K(47948K) NonClass: 38870K(40448K)->38870K(40448K) Class: 6119K(7500K)->6119K(7500K)
[2023-06-14T16:31:37.415+0200][gc            ] GC(16) Pause Young (Normal) (G1 Evacuation Pause) 200M->155M(1024M) 9,243ms
[2023-06-14T16:31:37.415+0200][gc,cpu        ] GC(16) User=0,03s Sys=0,00s Real=0,01s
[2023-06-14T16:32:56.098+0200][gc,start      ] GC(17) Pause Young (Normal) (G1 Evacuation Pause)
[2023-06-14T16:32:56.099+0200][gc,task       ] GC(17) Using 4 workers of 4 for evacuation
[2023-06-14T16:32:56.111+0200][gc,phases     ] GC(17)   Pre Evacuate Collection Set: 0,0ms
[2023-06-14T16:32:56.111+0200][gc,phases     ] GC(17)   Evacuate Collection Set: 11,6ms
[2023-06-14T16:32:56.111+0200][gc,phases     ] GC(17)   Post Evacuate Collection Set: 0,4ms
[2023-06-14T16:32:56.111+0200][gc,phases     ] GC(17)   Other: 0,2ms
[2023-06-14T16:32:56.111+0200][gc,heap       ] GC(17) Eden regions: 49->0(51)
[2023-06-14T16:32:56.111+0200][gc,heap       ] GC(17) Survivor regions: 5->5(7)
[2023-06-14T16:32:56.111+0200][gc,heap       ] GC(17) Old regions: 25->26
[2023-06-14T16:32:56.111+0200][gc,heap       ] GC(17) Humongous regions: 129->129
[2023-06-14T16:32:56.111+0200][gc,metaspace  ] GC(17) Metaspace: 45014K(47948K)->45014K(47948K) NonClass: 38894K(40448K)->38894K(40448K) Class: 6119K(7500K)->6119K(7500K)
[2023-06-14T16:32:56.111+0200][gc            ] GC(17) Pause Young (Normal) (G1 Evacuation Pause) 204M->157M(1024M) 12,270ms
[2023-06-14T16:32:56.111+0200][gc,cpu        ] GC(17) User=0,03s Sys=0,01s Real=0,01s
[2023-06-14T16:34:16.213+0200][gc,start      ] GC(18) Pause Young (Normal) (G1 Evacuation Pause)
[2023-06-14T16:34:16.214+0200][gc,task       ] GC(18) Using 4 workers of 4 for evacuation
[2023-06-14T16:34:16.225+0200][gc,phases     ] GC(18)   Pre Evacuate Collection Set: 0,0ms
[2023-06-14T16:34:16.225+0200][gc,phases     ] GC(18)   Evacuate Collection Set: 8,8ms
[2023-06-14T16:34:16.225+0200][gc,phases     ] GC(18)   Post Evacuate Collection Set: 2,0ms
[2023-06-14T16:34:16.225+0200][gc,phases     ] GC(18)   Other: 1,6ms
[2023-06-14T16:34:16.225+0200][gc,heap       ] GC(18) Eden regions: 50->0(56)
[2023-06-14T16:34:16.225+0200][gc,heap       ] GC(18) Survivor regions: 5->5(7)
[2023-06-14T16:34:16.225+0200][gc,heap       ] GC(18) Old regions: 26->27
[2023-06-14T16:34:16.225+0200][gc,heap       ] GC(18) Humongous regions: 129->129
[2023-06-14T16:34:16.225+0200][gc,metaspace  ] GC(18) Metaspace: 45030K(47948K)->45030K(47948K) NonClass: 38911K(40448K)->38911K(40448K) Class: 6119K(7500K)->6119K(7500K)
[2023-06-14T16:34:16.225+0200][gc            ] GC(18) Pause Young (Normal) (G1 Evacuation Pause) 207M->158M(1024M) 11,924ms
[2023-06-14T16:34:16.225+0200][gc,cpu        ] GC(18) User=0,03s Sys=0,01s Real=0,02s
[2023-06-14T16:35:44.716+0200][gc,start      ] GC(19) Pause Young (Normal) (G1 Evacuation Pause)
[2023-06-14T16:35:44.719+0200][gc,task       ] GC(19) Using 4 workers of 4 for evacuation
[2023-06-14T16:35:44.730+0200][gc,phases     ] GC(19)   Pre Evacuate Collection Set: 0,0ms
[2023-06-14T16:35:44.730+0200][gc,phases     ] GC(19)   Evacuate Collection Set: 10,2ms
[2023-06-14T16:35:44.730+0200][gc,phases     ] GC(19)   Post Evacuate Collection Set: 0,4ms
[2023-06-14T16:35:44.730+0200][gc,phases     ] GC(19)   Other: 4,1ms
[2023-06-14T16:35:44.730+0200][gc,heap       ] GC(19) Eden regions: 55->0(69)
[2023-06-14T16:35:44.730+0200][gc,heap       ] GC(19) Survivor regions: 5->6(8)
[2023-06-14T16:35:44.730+0200][gc,heap       ] GC(19) Old regions: 27->27
[2023-06-14T16:35:44.730+0200][gc,heap       ] GC(19) Humongous regions: 129->129
[2023-06-14T16:35:44.730+0200][gc,metaspace  ] GC(19) Metaspace: 45035K(47948K)->45035K(47948K) NonClass: 38915K(40448K)->38915K(40448K) Class: 6119K(7500K)->6119K(7500K)
[2023-06-14T16:35:44.730+0200][gc            ] GC(19) Pause Young (Normal) (G1 Evacuation Pause) 213M->160M(1024M) 14,887ms
[2023-06-14T16:35:44.730+0200][gc,cpu        ] GC(19) User=0,03s Sys=0,00s Real=0,01s
[2023-06-14T16:37:27.432+0200][gc,start      ] GC(20) Pause Young (Normal) (G1 Evacuation Pause)
[2023-06-14T16:37:27.433+0200][gc,task       ] GC(20) Using 4 workers of 4 for evacuation
[2023-06-14T16:37:27.449+0200][gc,phases     ] GC(20)   Pre Evacuate Collection Set: 0,4ms
[2023-06-14T16:37:27.449+0200][gc,phases     ] GC(20)   Evacuate Collection Set: 12,6ms
[2023-06-14T16:37:27.449+0200][gc,phases     ] GC(20)   Post Evacuate Collection Set: 1,2ms
[2023-06-14T16:37:27.449+0200][gc,phases     ] GC(20)   Other: 3,2ms
[2023-06-14T16:37:27.449+0200][gc,heap       ] GC(20) Eden regions: 64->0(66)
[2023-06-14T16:37:27.449+0200][gc,heap       ] GC(20) Survivor regions: 6->6(9)
[2023-06-14T16:37:27.449+0200][gc,heap       ] GC(20) Old regions: 27->28
[2023-06-14T16:37:27.449+0200][gc,heap       ] GC(20) Humongous regions: 129->129
[2023-06-14T16:37:27.449+0200][gc,metaspace  ] GC(20) Metaspace: 45042K(47948K)->45042K(47948K) NonClass: 38922K(40448K)->38922K(40448K) Class: 6119K(7500K)->6119K(7500K)
[2023-06-14T16:37:27.449+0200][gc            ] GC(20) Pause Young (Normal) (G1 Evacuation Pause) 224M->161M(1024M) 16,490ms
[2023-06-14T16:37:27.449+0200][gc,cpu        ] GC(20) User=0,05s Sys=0,00s Real=0,02s
[2023-06-14T16:47:26.154+0200][gc,start      ] GC(21) Pause Young (Normal) (G1 Evacuation Pause)
[2023-06-14T16:47:26.154+0200][gc,task       ] GC(21) Using 4 workers of 4 for evacuation
[2023-06-14T16:47:26.170+0200][gc,phases     ] GC(21)   Pre Evacuate Collection Set: 0,1ms
[2023-06-14T16:47:26.170+0200][gc,phases     ] GC(21)   Evacuate Collection Set: 14,1ms
[2023-06-14T16:47:26.170+0200][gc,phases     ] GC(21)   Post Evacuate Collection Set: 1,2ms
[2023-06-14T16:47:26.170+0200][gc,phases     ] GC(21)   Other: 1,3ms
[2023-06-14T16:47:26.170+0200][gc,heap       ] GC(21) Eden regions: 65->0(67)
[2023-06-14T16:47:26.171+0200][gc,heap       ] GC(21) Survivor regions: 6->9(9)
[2023-06-14T16:47:26.171+0200][gc,heap       ] GC(21) Old regions: 28->30
[2023-06-14T16:47:26.171+0200][gc,heap       ] GC(21) Humongous regions: 129->129
[2023-06-14T16:47:26.171+0200][gc,metaspace  ] GC(21) Metaspace: 45100K(47948K)->45100K(47948K) NonClass: 38980K(40448K)->38980K(40448K) Class: 6119K(7500K)->6119K(7500K)
[2023-06-14T16:47:26.171+0200][gc            ] GC(21) Pause Young (Normal) (G1 Evacuation Pause) 226M->165M(1024M) 16,773ms
[2023-06-14T16:47:26.171+0200][gc,cpu        ] GC(21) User=0,05s Sys=0,01s Real=0,02s
[2023-06-14T17:01:20.422+0200][gc,start      ] GC(22) Pause Young (Normal) (G1 Evacuation Pause)
[2023-06-14T17:01:20.424+0200][gc,task       ] GC(22) Using 4 workers of 4 for evacuation
[2023-06-14T17:01:20.458+0200][gc,mmu        ] GC(22) MMU target violated: 21,0ms (20,0ms/21,0ms)
[2023-06-14T17:01:20.459+0200][gc,phases     ] GC(22)   Pre Evacuate Collection Set: 0,9ms
[2023-06-14T17:01:20.459+0200][gc,phases     ] GC(22)   Evacuate Collection Set: 30,2ms
[2023-06-14T17:01:20.459+0200][gc,phases     ] GC(22)   Post Evacuate Collection Set: 1,8ms
[2023-06-14T17:01:20.459+0200][gc,phases     ] GC(22)   Other: 6,3ms
[2023-06-14T17:01:20.459+0200][gc,heap       ] GC(22) Eden regions: 66->0(41)
[2023-06-14T17:01:20.459+0200][gc,heap       ] GC(22) Survivor regions: 9->10(10)
[2023-06-14T17:01:20.459+0200][gc,heap       ] GC(22) Old regions: 30->34
[2023-06-14T17:01:20.459+0200][gc,heap       ] GC(22) Humongous regions: 129->129
[2023-06-14T17:01:20.459+0200][gc,metaspace  ] GC(22) Metaspace: 45151K(48204K)->45151K(48204K) NonClass: 39030K(40704K)->39030K(40704K) Class: 6120K(7500K)->6120K(7500K)
[2023-06-14T17:01:20.459+0200][gc            ] GC(22) Pause Young (Normal) (G1 Evacuation Pause) 231M->170M(1024M) 37,671ms
[2023-06-14T17:01:20.459+0200][gc,cpu        ] GC(22) User=0,09s Sys=0,00s Real=0,04s
[2023-06-14T17:04:09.816+0200][gc,heap,exit  ] Heap
[2023-06-14T17:04:09.817+0200][gc,heap,exit  ]  garbage-first heap   total 1048576K, used 197589K [0x00000000c0000000, 0x0000000100000000)
[2023-06-14T17:04:09.817+0200][gc,heap,exit  ]   region size 1024K, 34 young (34816K), 10 survivors (10240K)
[2023-06-14T17:04:09.817+0200][gc,heap,exit  ]  Metaspace       used 45963K, capacity 48939K, committed 49100K, reserved 1091584K
[2023-06-14T17:04:09.817+0200][gc,heap,exit  ]   class space    used 6342K, capacity 7762K, committed 7884K, reserved 1048576K
