[2023-08-29T00:10:20.229+0200][gc] Using G1
[2023-08-29T00:10:20.238+0200][gc,init] Version: 17.0.8+7-Ubuntu-122.04 (release)
[2023-08-29T00:10:20.238+0200][gc,init] CPUs: 4 total, 4 available
[2023-08-29T00:10:20.238+0200][gc,init] Memory: 7843M
[2023-08-29T00:10:20.238+0200][gc,init] Large Page Support: Disabled
[2023-08-29T00:10:20.238+0200][gc,init] NUMA Support: Disabled
[2023-08-29T00:10:20.238+0200][gc,init] Compressed Oops: Enabled (32-bit)
[2023-08-29T00:10:20.238+0200][gc,init] Heap Region Size: 1M
[2023-08-29T00:10:20.238+0200][gc,init] Heap Min Capacity: 512M
[2023-08-29T00:10:20.238+0200][gc,init] Heap Initial Capacity: 512M
[2023-08-29T00:10:20.238+0200][gc,init] Heap Max Capacity: 512M
[2023-08-29T00:10:20.238+0200][gc,init] Pre-touch: Disabled
[2023-08-29T00:10:20.238+0200][gc,init] Parallel Workers: 4
[2023-08-29T00:10:20.238+0200][gc,init] Concurrent Workers: 1
[2023-08-29T00:10:20.238+0200][gc,init] Concurrent Refinement Workers: 4
[2023-08-29T00:10:20.238+0200][gc,init] Periodic GC: Disabled
[2023-08-29T00:10:20.248+0200][gc,metaspace] CDS archive(s) mapped at: [0x00007f5d23000000-0x00007f5d23beb000-0x00007f5d23beb000), size 12496896, SharedBaseAddress: 0x00007f5d23000000, ArchiveRelocationMode: 1.
[2023-08-29T00:10:20.248+0200][gc,metaspace] Compressed class space mapped at: 0x00007f5d24000000-0x00007f5d64000000, reserved size: 1073741824
[2023-08-29T00:10:20.248+0200][gc,metaspace] Narrow klass base: 0x00007f5d23000000, Narrow klass shift: 0, Narrow klass range: 0x100000000
[2023-08-29T00:10:38.211+0200][gc,start    ] GC(0) Pause Young (Normal) (G1 Evacuation Pause)
[2023-08-29T00:10:38.211+0200][gc,task     ] GC(0) Using 4 workers of 4 for evacuation
[2023-08-29T00:10:38.217+0200][gc,phases   ] GC(0)   Pre Evacuate Collection Set: 0,1ms
[2023-08-29T00:10:38.217+0200][gc,phases   ] GC(0)   Merge Heap Roots: 0,1ms
[2023-08-29T00:10:38.217+0200][gc,phases   ] GC(0)   Evacuate Collection Set: 5,3ms
[2023-08-29T00:10:38.217+0200][gc,phases   ] GC(0)   Post Evacuate Collection Set: 0,5ms
[2023-08-29T00:10:38.217+0200][gc,phases   ] GC(0)   Other: 0,5ms
[2023-08-29T00:10:38.217+0200][gc,heap     ] GC(0) Eden regions: 25->0(21)
[2023-08-29T00:10:38.217+0200][gc,heap     ] GC(0) Survivor regions: 0->4(4)
[2023-08-29T00:10:38.217+0200][gc,heap     ] GC(0) Old regions: 0->4
[2023-08-29T00:10:38.217+0200][gc,heap     ] GC(0) Archive regions: 2->2
[2023-08-29T00:10:38.217+0200][gc,heap     ] GC(0) Humongous regions: 0->0
[2023-08-29T00:10:38.217+0200][gc,metaspace] GC(0) Metaspace: 7996K(8128K)->7996K(8128K) NonClass: 7098K(7168K)->7098K(7168K) Class: 897K(960K)->897K(960K)
[2023-08-29T00:10:38.217+0200][gc          ] GC(0) Pause Young (Normal) (G1 Evacuation Pause) 25M->8M(512M) 6,603ms
[2023-08-29T00:10:38.217+0200][gc,cpu      ] GC(0) User=0,02s Sys=0,00s Real=0,01s
