[2023-02-08T17:50:04.319+0100][gc,heap] Heap region size: 1M
[2023-02-08T17:50:04.325+0100][gc     ] Using G1
[2023-02-08T17:50:04.325+0100][gc,heap,coops] Heap address: 0x00000000e0000000, size: 512 MB, Compressed Oops mode: 32-bit
[2023-02-08T17:50:04.326+0100][gc,cds       ] Mark closed archive regions in map: [0x00000000fff00000, 0x00000000fff6aff8]
[2023-02-08T17:50:04.326+0100][gc,cds       ] Mark open archive regions in map: [0x00000000ffe00000, 0x00000000ffe47ff8]
[2023-02-08T17:50:05.296+0100][gc,start     ] GC(0) Pause Young (Normal) (G1 Evacuation Pause)
[2023-02-08T17:50:05.296+0100][gc,task      ] GC(0) Using 4 workers of 4 for evacuation
[2023-02-08T17:50:05.311+0100][gc,phases    ] GC(0)   Pre Evacuate Collection Set: 0,0ms
[2023-02-08T17:50:05.312+0100][gc,phases    ] GC(0)   Evacuate Collection Set: 14,7ms
[2023-02-08T17:50:05.312+0100][gc,phases    ] GC(0)   Post Evacuate Collection Set: 0,4ms
[2023-02-08T17:50:05.312+0100][gc,phases    ] GC(0)   Other: 0,5ms
[2023-02-08T17:50:05.312+0100][gc,heap      ] GC(0) Eden regions: 25->0(21)
[2023-02-08T17:50:05.312+0100][gc,heap      ] GC(0) Survivor regions: 0->4(4)
[2023-02-08T17:50:05.312+0100][gc,heap      ] GC(0) Old regions: 2->5
[2023-02-08T17:50:05.312+0100][gc,heap      ] GC(0) Humongous regions: 0->0
[2023-02-08T17:50:05.312+0100][gc,metaspace ] GC(0) Metaspace: 7482K(7936K)->7482K(7936K) NonClass: 6651K(6912K)->6651K(6912K) Class: 830K(1024K)->830K(1024K)
[2023-02-08T17:50:05.312+0100][gc           ] GC(0) Pause Young (Normal) (G1 Evacuation Pause) 25M->7M(512M) 15,648ms
[2023-02-08T17:50:05.312+0100][gc,cpu       ] GC(0) User=0,04s Sys=0,00s Real=0,01s
[2023-02-10T19:36:23.437+0100][gc,start     ] GC(1) Pause Young (Normal) (G1 Evacuation Pause)
[2023-02-10T19:36:23.439+0100][gc,task      ] GC(1) Using 4 workers of 4 for evacuation
[2023-02-10T19:36:23.526+0100][gc,mmu       ] GC(1) MMU target violated: 21,0ms (20,0ms/21,0ms)
[2023-02-10T19:36:23.526+0100][gc,phases    ] GC(1)   Pre Evacuate Collection Set: 31,4ms
[2023-02-10T19:36:23.526+0100][gc,phases    ] GC(1)   Evacuate Collection Set: 53,4ms
[2023-02-10T19:36:23.526+0100][gc,phases    ] GC(1)   Post Evacuate Collection Set: 1,2ms
[2023-02-10T19:36:23.526+0100][gc,phases    ] GC(1)   Other: 3,1ms
[2023-02-10T19:36:23.526+0100][gc,heap      ] GC(1) Eden regions: 21->0(24)
[2023-02-10T19:36:23.526+0100][gc,heap      ] GC(1) Survivor regions: 4->1(4)
[2023-02-10T19:36:23.526+0100][gc,heap      ] GC(1) Old regions: 5->9
[2023-02-10T19:36:23.526+0100][gc,heap      ] GC(1) Humongous regions: 0->0
[2023-02-10T19:36:23.526+0100][gc,metaspace ] GC(1) Metaspace: 9303K(10112K)->9303K(10112K) NonClass: 8325K(8960K)->8325K(8960K) Class: 977K(1152K)->977K(1152K)
[2023-02-10T19:36:23.526+0100][gc           ] GC(1) Pause Young (Normal) (G1 Evacuation Pause) 28M->8M(512M) 88,824ms
[2023-02-10T19:36:23.526+0100][gc,cpu       ] GC(1) User=0,03s Sys=0,05s Real=0,09s
[2023-02-15T19:32:25.106+0100][gc,heap,exit ] Heap
[2023-02-15T19:32:25.111+0100][gc,heap,exit ]  garbage-first heap   total 524288K, used 17735K [0x00000000e0000000, 0x0000000100000000)
[2023-02-15T19:32:25.111+0100][gc,heap,exit ]   region size 1024K, 11 young (11264K), 1 survivors (1024K)
[2023-02-15T19:32:25.111+0100][gc,heap,exit ]  Metaspace       used 9316K, capacity 9722K, committed 10112K, reserved 1058816K
[2023-02-15T19:32:25.111+0100][gc,heap,exit ]   class space    used 978K, capacity 1120K, committed 1152K, reserved 1048576K
