[2023-01-19T15:43:23.653+0100][gc,heap] Heap region size: 1M
[2023-01-19T15:43:23.661+0100][gc     ] Using G1
[2023-01-19T15:43:23.661+0100][gc,heap,coops] Heap address: 0x00000000e0000000, size: 512 MB, Compressed Oops mode: 32-bit
[2023-01-19T15:43:23.662+0100][gc,cds       ] Mark closed archive regions in map: [0x00000000fff00000, 0x00000000fff6aff8]
[2023-01-19T15:43:23.662+0100][gc,cds       ] Mark open archive regions in map: [0x00000000ffe00000, 0x00000000ffe47ff8]
[2023-01-19T15:43:24.813+0100][gc,start     ] GC(0) Pause Young (Normal) (G1 Evacuation Pause)
[2023-01-19T15:43:24.813+0100][gc,task      ] GC(0) Using 4 workers of 4 for evacuation
[2023-01-19T15:43:24.829+0100][gc,phases    ] GC(0)   Pre Evacuate Collection Set: 0,0ms
[2023-01-19T15:43:24.829+0100][gc,phases    ] GC(0)   Evacuate Collection Set: 15,4ms
[2023-01-19T15:43:24.829+0100][gc,phases    ] GC(0)   Post Evacuate Collection Set: 0,3ms
[2023-01-19T15:43:24.829+0100][gc,phases    ] GC(0)   Other: 0,6ms
[2023-01-19T15:43:24.829+0100][gc,heap      ] GC(0) Eden regions: 25->0(21)
[2023-01-19T15:43:24.829+0100][gc,heap      ] GC(0) Survivor regions: 0->4(4)
[2023-01-19T15:43:24.829+0100][gc,heap      ] GC(0) Old regions: 2->5
[2023-01-19T15:43:24.829+0100][gc,heap      ] GC(0) Humongous regions: 0->0
[2023-01-19T15:43:24.829+0100][gc,metaspace ] GC(0) Metaspace: 7396K(7936K)->7396K(7936K) NonClass: 6568K(6912K)->6568K(6912K) Class: 827K(1024K)->827K(1024K)
[2023-01-19T15:43:24.829+0100][gc           ] GC(0) Pause Young (Normal) (G1 Evacuation Pause) 25M->7M(512M) 16,440ms
[2023-01-19T15:43:24.829+0100][gc,cpu       ] GC(0) User=0,04s Sys=0,01s Real=0,02s
[2023-01-19T17:43:52.245+0100][gc,heap,exit ] Heap
[2023-01-19T17:43:52.245+0100][gc,heap,exit ]  garbage-first heap   total 524288K, used 21964K [0x00000000e0000000, 0x0000000100000000)
[2023-01-19T17:43:52.245+0100][gc,heap,exit ]   region size 1024K, 19 young (19456K), 4 survivors (4096K)
[2023-01-19T17:43:52.245+0100][gc,heap,exit ]  Metaspace       used 9220K, capacity 9629K, committed 9856K, reserved 1058816K
[2023-01-19T17:43:52.245+0100][gc,heap,exit ]   class space    used 974K, capacity 1088K, committed 1152K, reserved 1048576K
