[2023-08-26T04:15:59.287+0200][gc] Using G1
[2023-08-26T04:15:59.300+0200][gc,init] Version: 17.0.8+7-Ubuntu-122.04 (release)
[2023-08-26T04:15:59.300+0200][gc,init] CPUs: 4 total, 4 available
[2023-08-26T04:15:59.300+0200][gc,init] Memory: 7843M
[2023-08-26T04:15:59.300+0200][gc,init] Large Page Support: Disabled
[2023-08-26T04:15:59.300+0200][gc,init] NUMA Support: Disabled
[2023-08-26T04:15:59.300+0200][gc,init] Compressed Oops: Enabled (32-bit)
[2023-08-26T04:15:59.300+0200][gc,init] Heap Region Size: 1M
[2023-08-26T04:15:59.300+0200][gc,init] Heap Min Capacity: 512M
[2023-08-26T04:15:59.300+0200][gc,init] Heap Initial Capacity: 512M
[2023-08-26T04:15:59.300+0200][gc,init] Heap Max Capacity: 512M
[2023-08-26T04:15:59.300+0200][gc,init] Pre-touch: Disabled
[2023-08-26T04:15:59.300+0200][gc,init] Parallel Workers: 4
[2023-08-26T04:15:59.300+0200][gc,init] Concurrent Workers: 1
[2023-08-26T04:15:59.300+0200][gc,init] Concurrent Refinement Workers: 4
[2023-08-26T04:15:59.300+0200][gc,init] Periodic GC: Disabled
[2023-08-26T04:15:59.310+0200][gc,metaspace] CDS archive(s) mapped at: [0x00007f71fb000000-0x00007f71fbbeb000-0x00007f71fbbeb000), size 12496896, SharedBaseAddress: 0x00007f71fb000000, ArchiveRelocationMode: 1.
[2023-08-26T04:15:59.310+0200][gc,metaspace] Compressed class space mapped at: 0x00007f71fc000000-0x00007f723c000000, reserved size: 1073741824
[2023-08-26T04:15:59.310+0200][gc,metaspace] Narrow klass base: 0x00007f71fb000000, Narrow klass shift: 0, Narrow klass range: 0x100000000
[2023-08-26T04:16:03.650+0200][gc,start    ] GC(0) Pause Young (Normal) (G1 Evacuation Pause)
[2023-08-26T04:16:03.650+0200][gc,task     ] GC(0) Using 4 workers of 4 for evacuation
[2023-08-26T04:16:03.657+0200][gc,phases   ] GC(0)   Pre Evacuate Collection Set: 0,1ms
[2023-08-26T04:16:03.657+0200][gc,phases   ] GC(0)   Merge Heap Roots: 0,1ms
[2023-08-26T04:16:03.657+0200][gc,phases   ] GC(0)   Evacuate Collection Set: 5,7ms
[2023-08-26T04:16:03.657+0200][gc,phases   ] GC(0)   Post Evacuate Collection Set: 0,6ms
[2023-08-26T04:16:03.657+0200][gc,phases   ] GC(0)   Other: 0,5ms
[2023-08-26T04:16:03.657+0200][gc,heap     ] GC(0) Eden regions: 25->0(21)
[2023-08-26T04:16:03.657+0200][gc,heap     ] GC(0) Survivor regions: 0->4(4)
[2023-08-26T04:16:03.657+0200][gc,heap     ] GC(0) Old regions: 0->4
[2023-08-26T04:16:03.657+0200][gc,heap     ] GC(0) Archive regions: 2->2
[2023-08-26T04:16:03.657+0200][gc,heap     ] GC(0) Humongous regions: 0->0
[2023-08-26T04:16:03.657+0200][gc,metaspace] GC(0) Metaspace: 8024K(8192K)->8024K(8192K) NonClass: 7127K(7232K)->7127K(7232K) Class: 896K(960K)->896K(960K)
[2023-08-26T04:16:03.657+0200][gc          ] GC(0) Pause Young (Normal) (G1 Evacuation Pause) 25M->8M(512M) 6,990ms
[2023-08-26T04:16:03.657+0200][gc,cpu      ] GC(0) User=0,03s Sys=0,00s Real=0,01s
