Spark Command: /usr/lib/jvm/java-17-openjdk-amd64/bin/java -cp /home/dell/Documentos/TFM/spark/conf/:/home/dell/Documentos/TFM/spark/jars/* -Xmx1g org.apache.spark.deploy.worker.Worker --webui-port 8081 spark://127.0.0.1:7077
========================================
Using Spark's default log4j profile: org/apache/spark/log4j2-defaults.properties
23/08/14 21:31:23 INFO Worker: Started daemon with process name: 226184@dell-Vostro-3558tion
23/08/14 21:31:23 INFO SignalUtils: Registering signal handler for TERM
23/08/14 21:31:23 INFO SignalUtils: Registering signal handler for HUP
23/08/14 21:31:23 INFO SignalUtils: Registering signal handler for INT
23/08/14 21:31:24 WARN Utils: Your hostname, dell-Vostro-3558tion resolves to a loopback address: 127.0.1.1; using 192.168.1.184 instead (on interface wlp6s0)
23/08/14 21:31:24 WARN Utils: Set SPARK_LOCAL_IP if you need to bind to another address
23/08/14 21:31:24 WARN NativeCodeLoader: Unable to load native-hadoop library for your platform... using builtin-java classes where applicable
23/08/14 21:31:24 INFO SecurityManager: Changing view acls to: dell
23/08/14 21:31:24 INFO SecurityManager: Changing modify acls to: dell
23/08/14 21:31:24 INFO SecurityManager: Changing view acls groups to: 
23/08/14 21:31:24 INFO SecurityManager: Changing modify acls groups to: 
23/08/14 21:31:24 INFO SecurityManager: SecurityManager: authentication disabled; ui acls disabled; users  with view permissions: Set(dell); groups with view permissions: Set(); users  with modify permissions: Set(dell); groups with modify permissions: Set()
23/08/14 21:31:25 INFO Utils: Successfully started service 'sparkWorker' on port 46429.
23/08/14 21:31:25 INFO Worker: Worker decommissioning not enabled.
23/08/14 21:31:25 WARN ExternalShuffleService: 'spark.local.dir' should be set first when we use db in ExternalShuffleService. Note that this only affects standalone mode.
23/08/14 21:31:25 INFO Worker: Starting Spark worker 192.168.1.184:46429 with 4 cores, 6.7 GiB RAM
23/08/14 21:31:25 INFO Worker: Running Spark version 3.3.1
23/08/14 21:31:25 INFO Worker: Spark home: /home/dell/Documentos/TFM/spark
23/08/14 21:31:25 INFO ExternalShuffleService: Starting shuffle service on port 7337 (auth enabled = false)
23/08/14 21:31:25 INFO ResourceUtils: ==============================================================
23/08/14 21:31:25 INFO ResourceUtils: No custom resources configured for spark.worker.
23/08/14 21:31:25 INFO ResourceUtils: ==============================================================
23/08/14 21:31:25 INFO Utils: Successfully started service 'WorkerUI' on port 8081.
23/08/14 21:31:25 INFO WorkerWebUI: Bound WorkerWebUI to 0.0.0.0, and started at http://dell-Vostro-3558tion.lan:8081
23/08/14 21:31:26 INFO Worker: Connecting to master 127.0.0.1:7077...
23/08/14 21:31:26 INFO TransportClientFactory: Successfully created connection to /127.0.0.1:7077 after 102 ms (0 ms spent in bootstraps)
23/08/14 21:31:26 INFO Worker: Successfully registered with master spark://0.0.0.0:7077
23/08/14 21:31:32 INFO Worker: Asked to launch executor app-20230814213132-0000/0 for Filtrado
23/08/14 21:31:32 INFO SecurityManager: Changing view acls to: dell
23/08/14 21:31:32 INFO SecurityManager: Changing modify acls to: dell
23/08/14 21:31:32 INFO SecurityManager: Changing view acls groups to: 
23/08/14 21:31:32 INFO SecurityManager: Changing modify acls groups to: 
23/08/14 21:31:32 INFO SecurityManager: SecurityManager: authentication disabled; ui acls disabled; users  with view permissions: Set(dell); groups with view permissions: Set(); users  with modify permissions: Set(dell); groups with modify permissions: Set()
23/08/14 21:31:32 INFO ExecutorRunner: Launch command: "/usr/lib/jvm/java-17-openjdk-amd64/bin/java" "-cp" "/home/dell/Documentos/TFM/spark/conf/:/home/dell/Documentos/TFM/spark/jars/*" "-Xmx1024M" "-Dspark.driver.port=35389" "-XX:+IgnoreUnrecognizedVMOptions" "--add-opens=java.base/java.lang=ALL-UNNAMED" "--add-opens=java.base/java.lang.invoke=ALL-UNNAMED" "--add-opens=java.base/java.lang.reflect=ALL-UNNAMED" "--add-opens=java.base/java.io=ALL-UNNAMED" "--add-opens=java.base/java.net=ALL-UNNAMED" "--add-opens=java.base/java.nio=ALL-UNNAMED" "--add-opens=java.base/java.util=ALL-UNNAMED" "--add-opens=java.base/java.util.concurrent=ALL-UNNAMED" "--add-opens=java.base/java.util.concurrent.atomic=ALL-UNNAMED" "--add-opens=java.base/sun.nio.ch=ALL-UNNAMED" "--add-opens=java.base/sun.nio.cs=ALL-UNNAMED" "--add-opens=java.base/sun.security.action=ALL-UNNAMED" "--add-opens=java.base/sun.util.calendar=ALL-UNNAMED" "--add-opens=java.security.jgss/sun.security.krb5=ALL-UNNAMED" "org.apache.spark.executor.CoarseGrainedExecutorBackend" "--driver-url" "spark://CoarseGrainedScheduler@dell-Vostro-3558tion.lan:35389" "--executor-id" "0" "--hostname" "192.168.1.184" "--cores" "1" "--app-id" "app-20230814213132-0000" "--worker-url" "spark://Worker@192.168.1.184:46429"
23/08/14 21:31:42 INFO ExternalShuffleBlockResolver: Registered executor ExternalShuffleBlockResolver.AppExecId[appId=app-20230814213132-0000,execId=0] with ExecutorShuffleInfo[localDirs=[/tmp/spark-2a49edeb-67c1-4413-998d-4c7837a32c07/executor-9cb62da1-abfb-43e3-8fd3-6cb4cbdc9990/blockmgr-3283df16-de36-4c06-8dc8-813b057a12f7],subDirsPerLocalDir=64,shuffleManager=org.apache.spark.shuffle.sort.SortShuffleManager]
23/08/14 21:32:00 INFO Worker: Asked to kill executor app-20230814213132-0000/0
23/08/14 21:32:00 INFO ExecutorRunner: Runner thread for executor app-20230814213132-0000/0 interrupted
23/08/14 21:32:00 INFO ExecutorRunner: Killing process!
23/08/14 21:32:00 INFO Worker: Executor app-20230814213132-0000/0 finished with state KILLED exitStatus 143
23/08/14 21:32:00 INFO ExternalShuffleBlockResolver: Clean up non-shuffle and non-RDD files associated with the finished executor 0
23/08/14 21:32:00 INFO ExternalShuffleBlockResolver: Cleaning up non-shuffle and non-RDD files in executor ExternalShuffleBlockResolver.AppExecId[appId=app-20230814213132-0000,execId=0]'s 1 local dirs
23/08/14 21:32:00 INFO ExternalShuffleBlockResolver: Application app-20230814213132-0000 removed, cleanupLocalDirs = true
23/08/14 21:32:00 INFO Worker: Cleaning up local directories for application app-20230814213132-0000
23/08/14 21:32:00 INFO ExternalShuffleBlockResolver: Cleaning up executor ExternalShuffleBlockResolver.AppExecId[appId=app-20230814213132-0000,execId=0]'s 1 local dirs
23/08/14 21:51:12 INFO Worker: Asked to launch executor app-20230814215111-0001/0 for Filtrado
23/08/14 21:51:12 INFO SecurityManager: Changing view acls to: dell
23/08/14 21:51:12 INFO SecurityManager: Changing modify acls to: dell
23/08/14 21:51:12 INFO SecurityManager: Changing view acls groups to: 
23/08/14 21:51:12 INFO SecurityManager: Changing modify acls groups to: 
23/08/14 21:51:12 INFO SecurityManager: SecurityManager: authentication disabled; ui acls disabled; users  with view permissions: Set(dell); groups with view permissions: Set(); users  with modify permissions: Set(dell); groups with modify permissions: Set()
23/08/14 21:51:12 INFO ExecutorRunner: Launch command: "/usr/lib/jvm/java-17-openjdk-amd64/bin/java" "-cp" "/home/dell/Documentos/TFM/spark/conf/:/home/dell/Documentos/TFM/spark/jars/*" "-Xmx1024M" "-Dspark.driver.port=41471" "-XX:+IgnoreUnrecognizedVMOptions" "--add-opens=java.base/java.lang=ALL-UNNAMED" "--add-opens=java.base/java.lang.invoke=ALL-UNNAMED" "--add-opens=java.base/java.lang.reflect=ALL-UNNAMED" "--add-opens=java.base/java.io=ALL-UNNAMED" "--add-opens=java.base/java.net=ALL-UNNAMED" "--add-opens=java.base/java.nio=ALL-UNNAMED" "--add-opens=java.base/java.util=ALL-UNNAMED" "--add-opens=java.base/java.util.concurrent=ALL-UNNAMED" "--add-opens=java.base/java.util.concurrent.atomic=ALL-UNNAMED" "--add-opens=java.base/sun.nio.ch=ALL-UNNAMED" "--add-opens=java.base/sun.nio.cs=ALL-UNNAMED" "--add-opens=java.base/sun.security.action=ALL-UNNAMED" "--add-opens=java.base/sun.util.calendar=ALL-UNNAMED" "--add-opens=java.security.jgss/sun.security.krb5=ALL-UNNAMED" "org.apache.spark.executor.CoarseGrainedExecutorBackend" "--driver-url" "spark://CoarseGrainedScheduler@dell-Vostro-3558tion.lan:41471" "--executor-id" "0" "--hostname" "192.168.1.184" "--cores" "1" "--app-id" "app-20230814215111-0001" "--worker-url" "spark://Worker@192.168.1.184:46429"
23/08/14 21:51:19 INFO ExternalShuffleBlockResolver: Registered executor ExternalShuffleBlockResolver.AppExecId[appId=app-20230814215111-0001,execId=0] with ExecutorShuffleInfo[localDirs=[/tmp/spark-2a49edeb-67c1-4413-998d-4c7837a32c07/executor-ebb24ca6-ba8e-46bf-bcba-8c254518b89f/blockmgr-79b1079b-3860-45c9-b71b-556c1f82c861],subDirsPerLocalDir=64,shuffleManager=org.apache.spark.shuffle.sort.SortShuffleManager]
23/08/14 21:51:19 INFO Worker: Asked to kill executor app-20230814215111-0001/0
23/08/14 21:51:19 INFO ExecutorRunner: Runner thread for executor app-20230814215111-0001/0 interrupted
23/08/14 21:51:19 INFO ExecutorRunner: Killing process!
23/08/14 21:51:19 INFO Worker: Executor app-20230814215111-0001/0 finished with state KILLED exitStatus 143
23/08/14 21:51:19 INFO ExternalShuffleBlockResolver: Clean up non-shuffle and non-RDD files associated with the finished executor 0
23/08/14 21:51:19 INFO ExternalShuffleBlockResolver: Cleaning up non-shuffle and non-RDD files in executor ExternalShuffleBlockResolver.AppExecId[appId=app-20230814215111-0001,execId=0]'s 1 local dirs
23/08/14 21:51:19 INFO ExternalShuffleBlockResolver: Application app-20230814215111-0001 removed, cleanupLocalDirs = true
23/08/14 21:51:19 INFO Worker: Cleaning up local directories for application app-20230814215111-0001
23/08/14 21:51:19 INFO ExternalShuffleBlockResolver: Cleaning up executor ExternalShuffleBlockResolver.AppExecId[appId=app-20230814215111-0001,execId=0]'s 1 local dirs
23/08/14 21:52:21 INFO Worker: Asked to launch executor app-20230814215221-0002/0 for Validacion
23/08/14 21:52:21 INFO SecurityManager: Changing view acls to: dell
23/08/14 21:52:21 INFO SecurityManager: Changing modify acls to: dell
23/08/14 21:52:21 INFO SecurityManager: Changing view acls groups to: 
23/08/14 21:52:21 INFO SecurityManager: Changing modify acls groups to: 
23/08/14 21:52:21 INFO SecurityManager: SecurityManager: authentication disabled; ui acls disabled; users  with view permissions: Set(dell); groups with view permissions: Set(); users  with modify permissions: Set(dell); groups with modify permissions: Set()
23/08/14 21:52:21 INFO ExecutorRunner: Launch command: "/usr/lib/jvm/java-17-openjdk-amd64/bin/java" "-cp" "/home/dell/Documentos/TFM/spark/conf/:/home/dell/Documentos/TFM/spark/jars/*" "-Xmx1024M" "-Dspark.driver.port=45913" "-XX:+IgnoreUnrecognizedVMOptions" "--add-opens=java.base/java.lang=ALL-UNNAMED" "--add-opens=java.base/java.lang.invoke=ALL-UNNAMED" "--add-opens=java.base/java.lang.reflect=ALL-UNNAMED" "--add-opens=java.base/java.io=ALL-UNNAMED" "--add-opens=java.base/java.net=ALL-UNNAMED" "--add-opens=java.base/java.nio=ALL-UNNAMED" "--add-opens=java.base/java.util=ALL-UNNAMED" "--add-opens=java.base/java.util.concurrent=ALL-UNNAMED" "--add-opens=java.base/java.util.concurrent.atomic=ALL-UNNAMED" "--add-opens=java.base/sun.nio.ch=ALL-UNNAMED" "--add-opens=java.base/sun.nio.cs=ALL-UNNAMED" "--add-opens=java.base/sun.security.action=ALL-UNNAMED" "--add-opens=java.base/sun.util.calendar=ALL-UNNAMED" "--add-opens=java.security.jgss/sun.security.krb5=ALL-UNNAMED" "org.apache.spark.executor.CoarseGrainedExecutorBackend" "--driver-url" "spark://CoarseGrainedScheduler@dell-Vostro-3558tion.lan:45913" "--executor-id" "0" "--hostname" "192.168.1.184" "--cores" "1" "--app-id" "app-20230814215221-0002" "--worker-url" "spark://Worker@192.168.1.184:46429"
23/08/14 21:52:31 INFO ExternalShuffleBlockResolver: Registered executor ExternalShuffleBlockResolver.AppExecId[appId=app-20230814215221-0002,execId=0] with ExecutorShuffleInfo[localDirs=[/tmp/spark-2a49edeb-67c1-4413-998d-4c7837a32c07/executor-df196353-fb3c-44f8-94d0-228deba2de32/blockmgr-60ae41f2-c0d5-4ba8-aa10-846e3f121c4a],subDirsPerLocalDir=64,shuffleManager=org.apache.spark.shuffle.sort.SortShuffleManager]
23/08/14 21:57:13 INFO Worker: Asked to kill executor app-20230814215221-0002/0
23/08/14 21:57:13 INFO ExecutorRunner: Runner thread for executor app-20230814215221-0002/0 interrupted
23/08/14 21:57:13 INFO ExecutorRunner: Killing process!
23/08/14 21:57:13 INFO Worker: Executor app-20230814215221-0002/0 finished with state KILLED exitStatus 143
23/08/14 21:57:13 INFO ExternalShuffleBlockResolver: Clean up non-shuffle and non-RDD files associated with the finished executor 0
23/08/14 21:57:13 INFO ExternalShuffleBlockResolver: Cleaning up non-shuffle and non-RDD files in executor ExternalShuffleBlockResolver.AppExecId[appId=app-20230814215221-0002,execId=0]'s 1 local dirs
23/08/14 21:57:13 INFO Worker: Cleaning up local directories for application app-20230814215221-0002
23/08/14 21:57:13 INFO ExternalShuffleBlockResolver: Application app-20230814215221-0002 removed, cleanupLocalDirs = true
23/08/14 21:57:13 INFO ExternalShuffleBlockResolver: Cleaning up executor ExternalShuffleBlockResolver.AppExecId[appId=app-20230814215221-0002,execId=0]'s 1 local dirs
23/08/14 22:06:03 INFO Worker: Asked to launch executor app-20230814220602-0003/0 for Validacion
23/08/14 22:06:03 INFO SecurityManager: Changing view acls to: dell
23/08/14 22:06:03 INFO SecurityManager: Changing modify acls to: dell
23/08/14 22:06:03 INFO SecurityManager: Changing view acls groups to: 
23/08/14 22:06:03 INFO SecurityManager: Changing modify acls groups to: 
23/08/14 22:06:03 INFO SecurityManager: SecurityManager: authentication disabled; ui acls disabled; users  with view permissions: Set(dell); groups with view permissions: Set(); users  with modify permissions: Set(dell); groups with modify permissions: Set()
23/08/14 22:06:03 INFO ExecutorRunner: Launch command: "/usr/lib/jvm/java-17-openjdk-amd64/bin/java" "-cp" "/home/dell/Documentos/TFM/spark/conf/:/home/dell/Documentos/TFM/spark/jars/*" "-Xmx1024M" "-Dspark.driver.port=44257" "-XX:+IgnoreUnrecognizedVMOptions" "--add-opens=java.base/java.lang=ALL-UNNAMED" "--add-opens=java.base/java.lang.invoke=ALL-UNNAMED" "--add-opens=java.base/java.lang.reflect=ALL-UNNAMED" "--add-opens=java.base/java.io=ALL-UNNAMED" "--add-opens=java.base/java.net=ALL-UNNAMED" "--add-opens=java.base/java.nio=ALL-UNNAMED" "--add-opens=java.base/java.util=ALL-UNNAMED" "--add-opens=java.base/java.util.concurrent=ALL-UNNAMED" "--add-opens=java.base/java.util.concurrent.atomic=ALL-UNNAMED" "--add-opens=java.base/sun.nio.ch=ALL-UNNAMED" "--add-opens=java.base/sun.nio.cs=ALL-UNNAMED" "--add-opens=java.base/sun.security.action=ALL-UNNAMED" "--add-opens=java.base/sun.util.calendar=ALL-UNNAMED" "--add-opens=java.security.jgss/sun.security.krb5=ALL-UNNAMED" "org.apache.spark.executor.CoarseGrainedExecutorBackend" "--driver-url" "spark://CoarseGrainedScheduler@dell-Vostro-3558tion.lan:44257" "--executor-id" "0" "--hostname" "192.168.1.184" "--cores" "1" "--app-id" "app-20230814220602-0003" "--worker-url" "spark://Worker@192.168.1.184:46429"
23/08/14 22:06:10 INFO ExternalShuffleBlockResolver: Registered executor ExternalShuffleBlockResolver.AppExecId[appId=app-20230814220602-0003,execId=0] with ExecutorShuffleInfo[localDirs=[/tmp/spark-2a49edeb-67c1-4413-998d-4c7837a32c07/executor-89473bc9-f7f7-4062-b412-5b51f2c5e9a7/blockmgr-e6dc3a8e-8eaa-439a-9a13-5791b1549b1e],subDirsPerLocalDir=64,shuffleManager=org.apache.spark.shuffle.sort.SortShuffleManager]
23/08/14 22:06:23 INFO Worker: Asked to launch executor app-20230814220623-0004/0 for Filtrado
23/08/14 22:06:23 INFO SecurityManager: Changing view acls to: dell
23/08/14 22:06:23 INFO SecurityManager: Changing modify acls to: dell
23/08/14 22:06:23 INFO SecurityManager: Changing view acls groups to: 
23/08/14 22:06:23 INFO SecurityManager: Changing modify acls groups to: 
23/08/14 22:06:23 INFO SecurityManager: SecurityManager: authentication disabled; ui acls disabled; users  with view permissions: Set(dell); groups with view permissions: Set(); users  with modify permissions: Set(dell); groups with modify permissions: Set()
23/08/14 22:06:23 INFO ExecutorRunner: Launch command: "/usr/lib/jvm/java-17-openjdk-amd64/bin/java" "-cp" "/home/dell/Documentos/TFM/spark/conf/:/home/dell/Documentos/TFM/spark/jars/*" "-Xmx1024M" "-Dspark.driver.port=44553" "-XX:+IgnoreUnrecognizedVMOptions" "--add-opens=java.base/java.lang=ALL-UNNAMED" "--add-opens=java.base/java.lang.invoke=ALL-UNNAMED" "--add-opens=java.base/java.lang.reflect=ALL-UNNAMED" "--add-opens=java.base/java.io=ALL-UNNAMED" "--add-opens=java.base/java.net=ALL-UNNAMED" "--add-opens=java.base/java.nio=ALL-UNNAMED" "--add-opens=java.base/java.util=ALL-UNNAMED" "--add-opens=java.base/java.util.concurrent=ALL-UNNAMED" "--add-opens=java.base/java.util.concurrent.atomic=ALL-UNNAMED" "--add-opens=java.base/sun.nio.ch=ALL-UNNAMED" "--add-opens=java.base/sun.nio.cs=ALL-UNNAMED" "--add-opens=java.base/sun.security.action=ALL-UNNAMED" "--add-opens=java.base/sun.util.calendar=ALL-UNNAMED" "--add-opens=java.security.jgss/sun.security.krb5=ALL-UNNAMED" "org.apache.spark.executor.CoarseGrainedExecutorBackend" "--driver-url" "spark://CoarseGrainedScheduler@dell-Vostro-3558tion.lan:44553" "--executor-id" "0" "--hostname" "192.168.1.184" "--cores" "1" "--app-id" "app-20230814220623-0004" "--worker-url" "spark://Worker@192.168.1.184:46429"
23/08/14 22:06:32 INFO ExternalShuffleBlockResolver: Registered executor ExternalShuffleBlockResolver.AppExecId[appId=app-20230814220623-0004,execId=0] with ExecutorShuffleInfo[localDirs=[/tmp/spark-2a49edeb-67c1-4413-998d-4c7837a32c07/executor-d681fa85-e7da-429c-b7ac-c3035ded8221/blockmgr-685c9fb1-3af0-4133-8e46-446e75bf155d],subDirsPerLocalDir=64,shuffleManager=org.apache.spark.shuffle.sort.SortShuffleManager]
23/08/14 22:08:18 INFO Worker: Asked to kill executor app-20230814220602-0003/0
23/08/14 22:08:18 INFO ExecutorRunner: Runner thread for executor app-20230814220602-0003/0 interrupted
23/08/14 22:08:18 INFO ExecutorRunner: Killing process!
23/08/14 22:08:18 INFO Worker: Executor app-20230814220602-0003/0 finished with state KILLED exitStatus 143
23/08/14 22:08:18 INFO ExternalShuffleBlockResolver: Clean up non-shuffle and non-RDD files associated with the finished executor 0
23/08/14 22:08:18 INFO ExternalShuffleBlockResolver: Cleaning up non-shuffle and non-RDD files in executor ExternalShuffleBlockResolver.AppExecId[appId=app-20230814220602-0003,execId=0]'s 1 local dirs
23/08/14 22:08:18 INFO ExternalShuffleBlockResolver: Application app-20230814220602-0003 removed, cleanupLocalDirs = true
23/08/14 22:08:18 INFO ExternalShuffleBlockResolver: Cleaning up executor ExternalShuffleBlockResolver.AppExecId[appId=app-20230814220602-0003,execId=0]'s 1 local dirs
23/08/14 22:08:18 INFO Worker: Cleaning up local directories for application app-20230814220602-0003
23/08/14 22:08:35 INFO Worker: Asked to launch executor app-20230814220835-0005/0 for Recalculo
23/08/14 22:08:36 INFO SecurityManager: Changing view acls to: dell
23/08/14 22:08:36 INFO SecurityManager: Changing modify acls to: dell
23/08/14 22:08:36 INFO SecurityManager: Changing view acls groups to: 
23/08/14 22:08:36 INFO SecurityManager: Changing modify acls groups to: 
23/08/14 22:08:36 INFO SecurityManager: SecurityManager: authentication disabled; ui acls disabled; users  with view permissions: Set(dell); groups with view permissions: Set(); users  with modify permissions: Set(dell); groups with modify permissions: Set()
23/08/14 22:08:36 INFO ExecutorRunner: Launch command: "/usr/lib/jvm/java-17-openjdk-amd64/bin/java" "-cp" "/home/dell/Documentos/TFM/spark/conf/:/home/dell/Documentos/TFM/spark/jars/*" "-Xmx1024M" "-Dspark.driver.port=32813" "-XX:+IgnoreUnrecognizedVMOptions" "--add-opens=java.base/java.lang=ALL-UNNAMED" "--add-opens=java.base/java.lang.invoke=ALL-UNNAMED" "--add-opens=java.base/java.lang.reflect=ALL-UNNAMED" "--add-opens=java.base/java.io=ALL-UNNAMED" "--add-opens=java.base/java.net=ALL-UNNAMED" "--add-opens=java.base/java.nio=ALL-UNNAMED" "--add-opens=java.base/java.util=ALL-UNNAMED" "--add-opens=java.base/java.util.concurrent=ALL-UNNAMED" "--add-opens=java.base/java.util.concurrent.atomic=ALL-UNNAMED" "--add-opens=java.base/sun.nio.ch=ALL-UNNAMED" "--add-opens=java.base/sun.nio.cs=ALL-UNNAMED" "--add-opens=java.base/sun.security.action=ALL-UNNAMED" "--add-opens=java.base/sun.util.calendar=ALL-UNNAMED" "--add-opens=java.security.jgss/sun.security.krb5=ALL-UNNAMED" "org.apache.spark.executor.CoarseGrainedExecutorBackend" "--driver-url" "spark://CoarseGrainedScheduler@dell-Vostro-3558tion.lan:32813" "--executor-id" "0" "--hostname" "192.168.1.184" "--cores" "1" "--app-id" "app-20230814220835-0005" "--worker-url" "spark://Worker@192.168.1.184:46429"
23/08/14 22:08:44 INFO ExternalShuffleBlockResolver: Registered executor ExternalShuffleBlockResolver.AppExecId[appId=app-20230814220835-0005,execId=0] with ExecutorShuffleInfo[localDirs=[/tmp/spark-2a49edeb-67c1-4413-998d-4c7837a32c07/executor-866a34ab-0ceb-4b4a-9903-808a0c567676/blockmgr-3bc0517c-8d91-416a-a7e3-2da775dd30fc],subDirsPerLocalDir=64,shuffleManager=org.apache.spark.shuffle.sort.SortShuffleManager]
23/08/15 10:11:56 INFO Worker: Asked to kill executor app-20230814220835-0005/0
23/08/15 10:11:56 INFO ExecutorRunner: Runner thread for executor app-20230814220835-0005/0 interrupted
23/08/15 10:11:56 INFO ExecutorRunner: Killing process!
23/08/15 10:11:56 INFO Worker: Asked to launch executor app-20230814220835-0005/1 for Recalculo
23/08/15 10:11:56 INFO SecurityManager: Changing view acls to: dell
23/08/15 10:11:56 INFO SecurityManager: Changing modify acls to: dell
23/08/15 10:11:56 INFO SecurityManager: Changing view acls groups to: 
23/08/15 10:11:56 INFO SecurityManager: Changing modify acls groups to: 
23/08/15 10:11:56 INFO SecurityManager: SecurityManager: authentication disabled; ui acls disabled; users  with view permissions: Set(dell); groups with view permissions: Set(); users  with modify permissions: Set(dell); groups with modify permissions: Set()
23/08/15 10:11:56 INFO ExecutorRunner: Launch command: "/usr/lib/jvm/java-17-openjdk-amd64/bin/java" "-cp" "/home/dell/Documentos/TFM/spark/conf/:/home/dell/Documentos/TFM/spark/jars/*" "-Xmx1024M" "-Dspark.driver.port=32813" "-XX:+IgnoreUnrecognizedVMOptions" "--add-opens=java.base/java.lang=ALL-UNNAMED" "--add-opens=java.base/java.lang.invoke=ALL-UNNAMED" "--add-opens=java.base/java.lang.reflect=ALL-UNNAMED" "--add-opens=java.base/java.io=ALL-UNNAMED" "--add-opens=java.base/java.net=ALL-UNNAMED" "--add-opens=java.base/java.nio=ALL-UNNAMED" "--add-opens=java.base/java.util=ALL-UNNAMED" "--add-opens=java.base/java.util.concurrent=ALL-UNNAMED" "--add-opens=java.base/java.util.concurrent.atomic=ALL-UNNAMED" "--add-opens=java.base/sun.nio.ch=ALL-UNNAMED" "--add-opens=java.base/sun.nio.cs=ALL-UNNAMED" "--add-opens=java.base/sun.security.action=ALL-UNNAMED" "--add-opens=java.base/sun.util.calendar=ALL-UNNAMED" "--add-opens=java.security.jgss/sun.security.krb5=ALL-UNNAMED" "org.apache.spark.executor.CoarseGrainedExecutorBackend" "--driver-url" "spark://CoarseGrainedScheduler@dell-Vostro-3558tion.lan:32813" "--executor-id" "1" "--hostname" "192.168.1.184" "--cores" "1" "--app-id" "app-20230814220835-0005" "--worker-url" "spark://Worker@192.168.1.184:46429"
23/08/15 10:11:56 INFO Worker: Executor app-20230814220835-0005/0 finished with state KILLED exitStatus 143
23/08/15 10:11:56 INFO ExternalShuffleBlockResolver: Clean up non-shuffle and non-RDD files associated with the finished executor 0
23/08/15 10:11:56 INFO ExternalShuffleBlockResolver: Cleaning up non-shuffle and non-RDD files in executor ExternalShuffleBlockResolver.AppExecId[appId=app-20230814220835-0005,execId=0]'s 1 local dirs
23/08/15 10:12:17 INFO ExternalShuffleBlockResolver: Registered executor ExternalShuffleBlockResolver.AppExecId[appId=app-20230814220835-0005,execId=1] with ExecutorShuffleInfo[localDirs=[/tmp/spark-2a49edeb-67c1-4413-998d-4c7837a32c07/executor-866a34ab-0ceb-4b4a-9903-808a0c567676/blockmgr-c0673336-0b96-4546-9631-83d315efd087],subDirsPerLocalDir=64,shuffleManager=org.apache.spark.shuffle.sort.SortShuffleManager]
23/08/15 10:13:32 INFO Worker: Asked to kill executor app-20230814220623-0004/0
23/08/15 10:13:32 INFO ExecutorRunner: Runner thread for executor app-20230814220623-0004/0 interrupted
23/08/15 10:13:32 INFO ExecutorRunner: Killing process!
23/08/15 10:13:33 INFO Worker: Executor app-20230814220623-0004/0 finished with state KILLED exitStatus 0
23/08/15 10:13:33 INFO ExternalShuffleBlockResolver: Clean up non-shuffle and non-RDD files associated with the finished executor 0
23/08/15 10:13:33 INFO ExternalShuffleBlockResolver: Cleaning up non-shuffle and non-RDD files in executor ExternalShuffleBlockResolver.AppExecId[appId=app-20230814220623-0004,execId=0]'s 1 local dirs
23/08/15 10:13:33 INFO ExternalShuffleBlockResolver: Application app-20230814220623-0004 removed, cleanupLocalDirs = true
23/08/15 10:13:33 INFO Worker: Cleaning up local directories for application app-20230814220623-0004
23/08/15 10:13:33 INFO ExternalShuffleBlockResolver: Cleaning up executor ExternalShuffleBlockResolver.AppExecId[appId=app-20230814220623-0004,execId=0]'s 1 local dirs
23/08/15 10:16:00 INFO Worker: Asked to kill executor app-20230814220835-0005/1
23/08/15 10:16:00 INFO ExecutorRunner: Runner thread for executor app-20230814220835-0005/1 interrupted
23/08/15 10:16:00 INFO ExecutorRunner: Killing process!
23/08/15 10:16:00 INFO Worker: Executor app-20230814220835-0005/1 finished with state KILLED exitStatus 143
23/08/15 10:16:00 INFO ExternalShuffleBlockResolver: Clean up non-shuffle and non-RDD files associated with the finished executor 1
23/08/15 10:16:00 INFO ExternalShuffleBlockResolver: Cleaning up non-shuffle and non-RDD files in executor ExternalShuffleBlockResolver.AppExecId[appId=app-20230814220835-0005,execId=1]'s 1 local dirs
23/08/15 10:16:00 INFO ExternalShuffleBlockResolver: Application app-20230814220835-0005 removed, cleanupLocalDirs = true
23/08/15 10:16:00 INFO Worker: Cleaning up local directories for application app-20230814220835-0005
23/08/15 10:16:00 INFO ExternalShuffleBlockResolver: Cleaning up executor ExternalShuffleBlockResolver.AppExecId[appId=app-20230814220835-0005,execId=1]'s 1 local dirs
23/08/15 10:16:00 INFO ExternalShuffleBlockResolver: Cleaning up executor ExternalShuffleBlockResolver.AppExecId[appId=app-20230814220835-0005,execId=0]'s 1 local dirs
23/08/15 10:16:00 ERROR ExternalShuffleBlockResolver: Failed to delete files not served by shuffle service in directory: /tmp/spark-2a49edeb-67c1-4413-998d-4c7837a32c07/executor-866a34ab-0ceb-4b4a-9903-808a0c567676/blockmgr-c0673336-0b96-4546-9631-83d315efd087
java.io.IOException: Failed to list files for dir: /tmp/spark-2a49edeb-67c1-4413-998d-4c7837a32c07/executor-866a34ab-0ceb-4b4a-9903-808a0c567676/blockmgr-c0673336-0b96-4546-9631-83d315efd087/32
	at org.apache.spark.network.util.JavaUtils.listFilesSafely(JavaUtils.java:179)
	at org.apache.spark.network.util.JavaUtils.deleteRecursivelyUsingJavaIO(JavaUtils.java:126)
	at org.apache.spark.network.util.JavaUtils.deleteRecursively(JavaUtils.java:118)
	at org.apache.spark.network.util.JavaUtils.deleteRecursivelyUsingJavaIO(JavaUtils.java:128)
	at org.apache.spark.network.util.JavaUtils.deleteRecursively(JavaUtils.java:118)
	at org.apache.spark.network.shuffle.ExternalShuffleBlockResolver.deleteNonShuffleServiceServedFiles(ExternalShuffleBlockResolver.java:287)
	at org.apache.spark.network.shuffle.ExternalShuffleBlockResolver.lambda$executorRemoved$2(ExternalShuffleBlockResolver.java:255)
	at java.base/java.util.concurrent.ThreadPoolExecutor.runWorker(ThreadPoolExecutor.java:1136)
	at java.base/java.util.concurrent.ThreadPoolExecutor$Worker.run(ThreadPoolExecutor.java:635)
	at io.netty.util.concurrent.FastThreadLocalRunnable.run(FastThreadLocalRunnable.java:30)
	at java.base/java.lang.Thread.run(Thread.java:833)
23/08/15 10:17:08 INFO Worker: Asked to launch executor app-20230815101708-0006/0 for Filtrado
23/08/15 10:17:08 INFO SecurityManager: Changing view acls to: dell
23/08/15 10:17:08 INFO SecurityManager: Changing modify acls to: dell
23/08/15 10:17:08 INFO SecurityManager: Changing view acls groups to: 
23/08/15 10:17:08 INFO SecurityManager: Changing modify acls groups to: 
23/08/15 10:17:08 INFO SecurityManager: SecurityManager: authentication disabled; ui acls disabled; users  with view permissions: Set(dell); groups with view permissions: Set(); users  with modify permissions: Set(dell); groups with modify permissions: Set()
23/08/15 10:17:08 INFO ExecutorRunner: Launch command: "/usr/lib/jvm/java-17-openjdk-amd64/bin/java" "-cp" "/home/dell/Documentos/TFM/spark/conf/:/home/dell/Documentos/TFM/spark/jars/*" "-Xmx1024M" "-Dspark.driver.port=42051" "-XX:+IgnoreUnrecognizedVMOptions" "--add-opens=java.base/java.lang=ALL-UNNAMED" "--add-opens=java.base/java.lang.invoke=ALL-UNNAMED" "--add-opens=java.base/java.lang.reflect=ALL-UNNAMED" "--add-opens=java.base/java.io=ALL-UNNAMED" "--add-opens=java.base/java.net=ALL-UNNAMED" "--add-opens=java.base/java.nio=ALL-UNNAMED" "--add-opens=java.base/java.util=ALL-UNNAMED" "--add-opens=java.base/java.util.concurrent=ALL-UNNAMED" "--add-opens=java.base/java.util.concurrent.atomic=ALL-UNNAMED" "--add-opens=java.base/sun.nio.ch=ALL-UNNAMED" "--add-opens=java.base/sun.nio.cs=ALL-UNNAMED" "--add-opens=java.base/sun.security.action=ALL-UNNAMED" "--add-opens=java.base/sun.util.calendar=ALL-UNNAMED" "--add-opens=java.security.jgss/sun.security.krb5=ALL-UNNAMED" "org.apache.spark.executor.CoarseGrainedExecutorBackend" "--driver-url" "spark://CoarseGrainedScheduler@dell-Vostro-3558tion.lan:42051" "--executor-id" "0" "--hostname" "192.168.1.184" "--cores" "1" "--app-id" "app-20230815101708-0006" "--worker-url" "spark://Worker@192.168.1.184:46429"
23/08/15 10:17:17 INFO ExternalShuffleBlockResolver: Registered executor ExternalShuffleBlockResolver.AppExecId[appId=app-20230815101708-0006,execId=0] with ExecutorShuffleInfo[localDirs=[/tmp/spark-2a49edeb-67c1-4413-998d-4c7837a32c07/executor-1fd30f9f-3657-4e37-b223-ce7bba07b570/blockmgr-37f0f4a0-cfe2-4b4f-9339-c83cf877d51f],subDirsPerLocalDir=64,shuffleManager=org.apache.spark.shuffle.sort.SortShuffleManager]
23/08/15 10:26:51 INFO Worker: Asked to launch executor app-20230815102651-0007/0 for Recalculo
23/08/15 10:26:52 INFO SecurityManager: Changing view acls to: dell
23/08/15 10:26:52 INFO SecurityManager: Changing modify acls to: dell
23/08/15 10:26:52 INFO SecurityManager: Changing view acls groups to: 
23/08/15 10:26:52 INFO SecurityManager: Changing modify acls groups to: 
23/08/15 10:26:52 INFO SecurityManager: SecurityManager: authentication disabled; ui acls disabled; users  with view permissions: Set(dell); groups with view permissions: Set(); users  with modify permissions: Set(dell); groups with modify permissions: Set()
23/08/15 10:26:52 INFO ExecutorRunner: Launch command: "/usr/lib/jvm/java-17-openjdk-amd64/bin/java" "-cp" "/home/dell/Documentos/TFM/spark/conf/:/home/dell/Documentos/TFM/spark/jars/*" "-Xmx1024M" "-Dspark.driver.port=41087" "-XX:+IgnoreUnrecognizedVMOptions" "--add-opens=java.base/java.lang=ALL-UNNAMED" "--add-opens=java.base/java.lang.invoke=ALL-UNNAMED" "--add-opens=java.base/java.lang.reflect=ALL-UNNAMED" "--add-opens=java.base/java.io=ALL-UNNAMED" "--add-opens=java.base/java.net=ALL-UNNAMED" "--add-opens=java.base/java.nio=ALL-UNNAMED" "--add-opens=java.base/java.util=ALL-UNNAMED" "--add-opens=java.base/java.util.concurrent=ALL-UNNAMED" "--add-opens=java.base/java.util.concurrent.atomic=ALL-UNNAMED" "--add-opens=java.base/sun.nio.ch=ALL-UNNAMED" "--add-opens=java.base/sun.nio.cs=ALL-UNNAMED" "--add-opens=java.base/sun.security.action=ALL-UNNAMED" "--add-opens=java.base/sun.util.calendar=ALL-UNNAMED" "--add-opens=java.security.jgss/sun.security.krb5=ALL-UNNAMED" "org.apache.spark.executor.CoarseGrainedExecutorBackend" "--driver-url" "spark://CoarseGrainedScheduler@dell-Vostro-3558tion.lan:41087" "--executor-id" "0" "--hostname" "192.168.1.184" "--cores" "1" "--app-id" "app-20230815102651-0007" "--worker-url" "spark://Worker@192.168.1.184:46429"
23/08/15 10:27:01 INFO ExternalShuffleBlockResolver: Registered executor ExternalShuffleBlockResolver.AppExecId[appId=app-20230815102651-0007,execId=0] with ExecutorShuffleInfo[localDirs=[/tmp/spark-2a49edeb-67c1-4413-998d-4c7837a32c07/executor-4bb30c63-6995-450a-84c3-98c148b9c7a3/blockmgr-2e231527-67a2-44c5-9322-6855754121ae],subDirsPerLocalDir=64,shuffleManager=org.apache.spark.shuffle.sort.SortShuffleManager]
23/08/15 10:57:00 INFO Worker: Asked to kill executor app-20230815101708-0006/0
23/08/15 10:57:00 INFO ExecutorRunner: Runner thread for executor app-20230815101708-0006/0 interrupted
23/08/15 10:57:00 INFO ExecutorRunner: Killing process!
23/08/15 10:57:00 INFO Worker: Executor app-20230815101708-0006/0 finished with state KILLED exitStatus 143
23/08/15 10:57:00 INFO ExternalShuffleBlockResolver: Clean up non-shuffle and non-RDD files associated with the finished executor 0
23/08/15 10:57:00 INFO ExternalShuffleBlockResolver: Cleaning up non-shuffle and non-RDD files in executor ExternalShuffleBlockResolver.AppExecId[appId=app-20230815101708-0006,execId=0]'s 1 local dirs
23/08/15 10:57:00 INFO ExternalShuffleBlockResolver: Application app-20230815101708-0006 removed, cleanupLocalDirs = true
23/08/15 10:57:00 INFO ExternalShuffleBlockResolver: Cleaning up executor ExternalShuffleBlockResolver.AppExecId[appId=app-20230815101708-0006,execId=0]'s 1 local dirs
23/08/15 10:57:00 INFO Worker: Cleaning up local directories for application app-20230815101708-0006
23/08/15 10:57:00 ERROR ExternalShuffleBlockResolver: Failed to delete files not served by shuffle service in directory: /tmp/spark-2a49edeb-67c1-4413-998d-4c7837a32c07/executor-1fd30f9f-3657-4e37-b223-ce7bba07b570/blockmgr-37f0f4a0-cfe2-4b4f-9339-c83cf877d51f
java.io.IOException: Failed to list files for dir: /tmp/spark-2a49edeb-67c1-4413-998d-4c7837a32c07/executor-1fd30f9f-3657-4e37-b223-ce7bba07b570/blockmgr-37f0f4a0-cfe2-4b4f-9339-c83cf877d51f/17
	at org.apache.spark.network.util.JavaUtils.listFilesSafely(JavaUtils.java:179)
	at org.apache.spark.network.util.JavaUtils.deleteRecursivelyUsingJavaIO(JavaUtils.java:140)
	at org.apache.spark.network.util.JavaUtils.deleteRecursively(JavaUtils.java:118)
	at org.apache.spark.network.util.JavaUtils.deleteRecursivelyUsingJavaIO(JavaUtils.java:128)
	at org.apache.spark.network.util.JavaUtils.deleteRecursively(JavaUtils.java:118)
	at org.apache.spark.network.shuffle.ExternalShuffleBlockResolver.deleteNonShuffleServiceServedFiles(ExternalShuffleBlockResolver.java:287)
	at org.apache.spark.network.shuffle.ExternalShuffleBlockResolver.lambda$executorRemoved$2(ExternalShuffleBlockResolver.java:255)
	at java.base/java.util.concurrent.ThreadPoolExecutor.runWorker(ThreadPoolExecutor.java:1136)
	at java.base/java.util.concurrent.ThreadPoolExecutor$Worker.run(ThreadPoolExecutor.java:635)
	at io.netty.util.concurrent.FastThreadLocalRunnable.run(FastThreadLocalRunnable.java:30)
	at java.base/java.lang.Thread.run(Thread.java:833)
23/08/15 10:57:14 INFO Worker: Asked to kill executor app-20230815102651-0007/0
23/08/15 10:57:14 INFO ExecutorRunner: Runner thread for executor app-20230815102651-0007/0 interrupted
23/08/15 10:57:14 INFO ExecutorRunner: Killing process!
23/08/15 10:57:14 INFO Worker: Executor app-20230815102651-0007/0 finished with state KILLED exitStatus 143
23/08/15 10:57:14 INFO ExternalShuffleBlockResolver: Clean up non-shuffle and non-RDD files associated with the finished executor 0
23/08/15 10:57:14 INFO ExternalShuffleBlockResolver: Cleaning up non-shuffle and non-RDD files in executor ExternalShuffleBlockResolver.AppExecId[appId=app-20230815102651-0007,execId=0]'s 1 local dirs
23/08/15 10:57:14 INFO Worker: Cleaning up local directories for application app-20230815102651-0007
23/08/15 10:57:14 INFO ExternalShuffleBlockResolver: Application app-20230815102651-0007 removed, cleanupLocalDirs = true
23/08/15 10:57:14 INFO ExternalShuffleBlockResolver: Cleaning up executor ExternalShuffleBlockResolver.AppExecId[appId=app-20230815102651-0007,execId=0]'s 1 local dirs
23/08/15 10:57:14 ERROR ExternalShuffleBlockResolver: Failed to delete files not served by shuffle service in directory: /tmp/spark-2a49edeb-67c1-4413-998d-4c7837a32c07/executor-4bb30c63-6995-450a-84c3-98c148b9c7a3/blockmgr-2e231527-67a2-44c5-9322-6855754121ae
java.io.IOException: Failed to list files for dir: /tmp/spark-2a49edeb-67c1-4413-998d-4c7837a32c07/executor-4bb30c63-6995-450a-84c3-98c148b9c7a3/blockmgr-2e231527-67a2-44c5-9322-6855754121ae/39
	at org.apache.spark.network.util.JavaUtils.listFilesSafely(JavaUtils.java:179)
	at org.apache.spark.network.util.JavaUtils.deleteRecursivelyUsingJavaIO(JavaUtils.java:126)
	at org.apache.spark.network.util.JavaUtils.deleteRecursively(JavaUtils.java:118)
	at org.apache.spark.network.util.JavaUtils.deleteRecursivelyUsingJavaIO(JavaUtils.java:128)
	at org.apache.spark.network.util.JavaUtils.deleteRecursively(JavaUtils.java:118)
	at org.apache.spark.network.shuffle.ExternalShuffleBlockResolver.deleteNonShuffleServiceServedFiles(ExternalShuffleBlockResolver.java:287)
	at org.apache.spark.network.shuffle.ExternalShuffleBlockResolver.lambda$executorRemoved$2(ExternalShuffleBlockResolver.java:255)
	at java.base/java.util.concurrent.ThreadPoolExecutor.runWorker(ThreadPoolExecutor.java:1136)
	at java.base/java.util.concurrent.ThreadPoolExecutor$Worker.run(ThreadPoolExecutor.java:635)
	at io.netty.util.concurrent.FastThreadLocalRunnable.run(FastThreadLocalRunnable.java:30)
	at java.base/java.lang.Thread.run(Thread.java:833)
23/08/15 11:01:41 INFO Worker: Asked to launch executor app-20230815110141-0008/0 for Validacion
23/08/15 11:01:41 INFO SecurityManager: Changing view acls to: dell
23/08/15 11:01:41 INFO SecurityManager: Changing modify acls to: dell
23/08/15 11:01:41 INFO SecurityManager: Changing view acls groups to: 
23/08/15 11:01:41 INFO SecurityManager: Changing modify acls groups to: 
23/08/15 11:01:41 INFO SecurityManager: SecurityManager: authentication disabled; ui acls disabled; users  with view permissions: Set(dell); groups with view permissions: Set(); users  with modify permissions: Set(dell); groups with modify permissions: Set()
23/08/15 11:01:41 INFO ExecutorRunner: Launch command: "/usr/lib/jvm/java-17-openjdk-amd64/bin/java" "-cp" "/home/dell/Documentos/TFM/spark/conf/:/home/dell/Documentos/TFM/spark/jars/*" "-Xmx1024M" "-Dspark.driver.port=34259" "-XX:+IgnoreUnrecognizedVMOptions" "--add-opens=java.base/java.lang=ALL-UNNAMED" "--add-opens=java.base/java.lang.invoke=ALL-UNNAMED" "--add-opens=java.base/java.lang.reflect=ALL-UNNAMED" "--add-opens=java.base/java.io=ALL-UNNAMED" "--add-opens=java.base/java.net=ALL-UNNAMED" "--add-opens=java.base/java.nio=ALL-UNNAMED" "--add-opens=java.base/java.util=ALL-UNNAMED" "--add-opens=java.base/java.util.concurrent=ALL-UNNAMED" "--add-opens=java.base/java.util.concurrent.atomic=ALL-UNNAMED" "--add-opens=java.base/sun.nio.ch=ALL-UNNAMED" "--add-opens=java.base/sun.nio.cs=ALL-UNNAMED" "--add-opens=java.base/sun.security.action=ALL-UNNAMED" "--add-opens=java.base/sun.util.calendar=ALL-UNNAMED" "--add-opens=java.security.jgss/sun.security.krb5=ALL-UNNAMED" "org.apache.spark.executor.CoarseGrainedExecutorBackend" "--driver-url" "spark://CoarseGrainedScheduler@dell-Vostro-3558tion.lan:34259" "--executor-id" "0" "--hostname" "192.168.1.184" "--cores" "1" "--app-id" "app-20230815110141-0008" "--worker-url" "spark://Worker@192.168.1.184:46429"
23/08/15 11:01:49 INFO ExternalShuffleBlockResolver: Registered executor ExternalShuffleBlockResolver.AppExecId[appId=app-20230815110141-0008,execId=0] with ExecutorShuffleInfo[localDirs=[/tmp/spark-2a49edeb-67c1-4413-998d-4c7837a32c07/executor-490ceebc-aa23-4e77-b16e-8ca5d346c819/blockmgr-9bd94e2d-7cae-4c0f-b30d-854023fb4bb0],subDirsPerLocalDir=64,shuffleManager=org.apache.spark.shuffle.sort.SortShuffleManager]
23/08/15 11:01:57 INFO Worker: Asked to launch executor app-20230815110157-0009/0 for Agregacion
23/08/15 11:01:57 INFO SecurityManager: Changing view acls to: dell
23/08/15 11:01:57 INFO SecurityManager: Changing modify acls to: dell
23/08/15 11:01:57 INFO SecurityManager: Changing view acls groups to: 
23/08/15 11:01:57 INFO SecurityManager: Changing modify acls groups to: 
23/08/15 11:01:57 INFO SecurityManager: SecurityManager: authentication disabled; ui acls disabled; users  with view permissions: Set(dell); groups with view permissions: Set(); users  with modify permissions: Set(dell); groups with modify permissions: Set()
23/08/15 11:01:57 INFO ExecutorRunner: Launch command: "/usr/lib/jvm/java-17-openjdk-amd64/bin/java" "-cp" "/home/dell/Documentos/TFM/spark/conf/:/home/dell/Documentos/TFM/spark/jars/*" "-Xmx1024M" "-Dspark.driver.port=45893" "-XX:+IgnoreUnrecognizedVMOptions" "--add-opens=java.base/java.lang=ALL-UNNAMED" "--add-opens=java.base/java.lang.invoke=ALL-UNNAMED" "--add-opens=java.base/java.lang.reflect=ALL-UNNAMED" "--add-opens=java.base/java.io=ALL-UNNAMED" "--add-opens=java.base/java.net=ALL-UNNAMED" "--add-opens=java.base/java.nio=ALL-UNNAMED" "--add-opens=java.base/java.util=ALL-UNNAMED" "--add-opens=java.base/java.util.concurrent=ALL-UNNAMED" "--add-opens=java.base/java.util.concurrent.atomic=ALL-UNNAMED" "--add-opens=java.base/sun.nio.ch=ALL-UNNAMED" "--add-opens=java.base/sun.nio.cs=ALL-UNNAMED" "--add-opens=java.base/sun.security.action=ALL-UNNAMED" "--add-opens=java.base/sun.util.calendar=ALL-UNNAMED" "--add-opens=java.security.jgss/sun.security.krb5=ALL-UNNAMED" "org.apache.spark.executor.CoarseGrainedExecutorBackend" "--driver-url" "spark://CoarseGrainedScheduler@dell-Vostro-3558tion.lan:45893" "--executor-id" "0" "--hostname" "192.168.1.184" "--cores" "1" "--app-id" "app-20230815110157-0009" "--worker-url" "spark://Worker@192.168.1.184:46429"
23/08/15 11:02:11 INFO ExternalShuffleBlockResolver: Registered executor ExternalShuffleBlockResolver.AppExecId[appId=app-20230815110157-0009,execId=0] with ExecutorShuffleInfo[localDirs=[/tmp/spark-2a49edeb-67c1-4413-998d-4c7837a32c07/executor-1d5ab2e6-b067-49df-9f3f-908956350c21/blockmgr-13b0a4c9-4fa7-4425-a515-dd6682144f08],subDirsPerLocalDir=64,shuffleManager=org.apache.spark.shuffle.sort.SortShuffleManager]
23/08/15 11:15:31 INFO Worker: Asked to kill executor app-20230815110157-0009/0
23/08/15 11:15:31 INFO ExecutorRunner: Runner thread for executor app-20230815110157-0009/0 interrupted
23/08/15 11:15:31 INFO ExecutorRunner: Killing process!
23/08/15 11:15:31 INFO Worker: Executor app-20230815110157-0009/0 finished with state KILLED exitStatus 0
23/08/15 11:15:31 INFO ExternalShuffleBlockResolver: Clean up non-shuffle and non-RDD files associated with the finished executor 0
23/08/15 11:15:31 INFO ExternalShuffleBlockResolver: Cleaning up non-shuffle and non-RDD files in executor ExternalShuffleBlockResolver.AppExecId[appId=app-20230815110157-0009,execId=0]'s 1 local dirs
23/08/15 11:15:31 INFO ExternalShuffleBlockResolver: Application app-20230815110157-0009 removed, cleanupLocalDirs = true
23/08/15 11:15:31 INFO Worker: Cleaning up local directories for application app-20230815110157-0009
23/08/15 11:15:31 INFO ExternalShuffleBlockResolver: Cleaning up executor ExternalShuffleBlockResolver.AppExecId[appId=app-20230815110157-0009,execId=0]'s 1 local dirs
23/08/15 11:15:31 ERROR ExternalShuffleBlockResolver: Failed to delete files not served by shuffle service in directory: /tmp/spark-2a49edeb-67c1-4413-998d-4c7837a32c07/executor-1d5ab2e6-b067-49df-9f3f-908956350c21/blockmgr-13b0a4c9-4fa7-4425-a515-dd6682144f08
java.io.IOException: Failed to list files for dir: /tmp/spark-2a49edeb-67c1-4413-998d-4c7837a32c07/executor-1d5ab2e6-b067-49df-9f3f-908956350c21/blockmgr-13b0a4c9-4fa7-4425-a515-dd6682144f08
	at org.apache.spark.network.util.JavaUtils.listFilesSafely(JavaUtils.java:179)
	at org.apache.spark.network.util.JavaUtils.deleteRecursivelyUsingJavaIO(JavaUtils.java:140)
	at org.apache.spark.network.util.JavaUtils.deleteRecursively(JavaUtils.java:118)
	at org.apache.spark.network.shuffle.ExternalShuffleBlockResolver.deleteNonShuffleServiceServedFiles(ExternalShuffleBlockResolver.java:287)
	at org.apache.spark.network.shuffle.ExternalShuffleBlockResolver.lambda$executorRemoved$2(ExternalShuffleBlockResolver.java:255)
	at java.base/java.util.concurrent.ThreadPoolExecutor.runWorker(ThreadPoolExecutor.java:1136)
	at java.base/java.util.concurrent.ThreadPoolExecutor$Worker.run(ThreadPoolExecutor.java:635)
	at io.netty.util.concurrent.FastThreadLocalRunnable.run(FastThreadLocalRunnable.java:30)
	at java.base/java.lang.Thread.run(Thread.java:833)
23/08/15 11:31:25 INFO Worker: Asked to kill executor app-20230815110141-0008/0
23/08/15 11:31:25 INFO ExecutorRunner: Runner thread for executor app-20230815110141-0008/0 interrupted
23/08/15 11:31:25 INFO ExecutorRunner: Killing process!
23/08/15 11:31:26 INFO Worker: Executor app-20230815110141-0008/0 finished with state KILLED exitStatus 143
23/08/15 11:31:26 INFO ExternalShuffleBlockResolver: Clean up non-shuffle and non-RDD files associated with the finished executor 0
23/08/15 11:31:26 INFO ExternalShuffleBlockResolver: Cleaning up non-shuffle and non-RDD files in executor ExternalShuffleBlockResolver.AppExecId[appId=app-20230815110141-0008,execId=0]'s 1 local dirs
23/08/15 11:31:26 INFO ExternalShuffleBlockResolver: Application app-20230815110141-0008 removed, cleanupLocalDirs = true
23/08/15 11:31:26 INFO Worker: Cleaning up local directories for application app-20230815110141-0008
23/08/15 11:31:26 INFO ExternalShuffleBlockResolver: Cleaning up executor ExternalShuffleBlockResolver.AppExecId[appId=app-20230815110141-0008,execId=0]'s 1 local dirs
23/08/15 11:31:26 ERROR ExternalShuffleBlockResolver: Failed to delete files not served by shuffle service in directory: /tmp/spark-2a49edeb-67c1-4413-998d-4c7837a32c07/executor-490ceebc-aa23-4e77-b16e-8ca5d346c819/blockmgr-9bd94e2d-7cae-4c0f-b30d-854023fb4bb0
java.io.IOException: Failed to list files for dir: /tmp/spark-2a49edeb-67c1-4413-998d-4c7837a32c07/executor-490ceebc-aa23-4e77-b16e-8ca5d346c819/blockmgr-9bd94e2d-7cae-4c0f-b30d-854023fb4bb0/2d
	at org.apache.spark.network.util.JavaUtils.listFilesSafely(JavaUtils.java:179)
	at org.apache.spark.network.util.JavaUtils.deleteRecursivelyUsingJavaIO(JavaUtils.java:140)
	at org.apache.spark.network.util.JavaUtils.deleteRecursively(JavaUtils.java:118)
	at org.apache.spark.network.util.JavaUtils.deleteRecursivelyUsingJavaIO(JavaUtils.java:128)
	at org.apache.spark.network.util.JavaUtils.deleteRecursively(JavaUtils.java:118)
	at org.apache.spark.network.shuffle.ExternalShuffleBlockResolver.deleteNonShuffleServiceServedFiles(ExternalShuffleBlockResolver.java:287)
	at org.apache.spark.network.shuffle.ExternalShuffleBlockResolver.lambda$executorRemoved$2(ExternalShuffleBlockResolver.java:255)
	at java.base/java.util.concurrent.ThreadPoolExecutor.runWorker(ThreadPoolExecutor.java:1136)
	at java.base/java.util.concurrent.ThreadPoolExecutor$Worker.run(ThreadPoolExecutor.java:635)
	at io.netty.util.concurrent.FastThreadLocalRunnable.run(FastThreadLocalRunnable.java:30)
	at java.base/java.lang.Thread.run(Thread.java:833)
23/08/15 13:34:31 INFO Worker: Master with url spark://0.0.0.0:7077 requested this worker to reconnect.
23/08/15 13:34:31 INFO Worker: Master with url spark://0.0.0.0:7077 requested this worker to reconnect.
23/08/15 13:34:31 INFO Worker: Not spawning another attempt to register with the master, since there is an attempt scheduled already.
23/08/15 13:34:31 INFO Worker: Master with url spark://0.0.0.0:7077 requested this worker to reconnect.
23/08/15 13:34:31 INFO Worker: Not spawning another attempt to register with the master, since there is an attempt scheduled already.
23/08/15 13:34:31 INFO Worker: Master with url spark://0.0.0.0:7077 requested this worker to reconnect.
23/08/15 13:34:31 INFO Worker: Not spawning another attempt to register with the master, since there is an attempt scheduled already.
23/08/15 13:34:31 INFO Worker: Master with url spark://0.0.0.0:7077 requested this worker to reconnect.
23/08/15 13:34:31 INFO Worker: Not spawning another attempt to register with the master, since there is an attempt scheduled already.
23/08/15 13:34:31 INFO Worker: Master with url spark://0.0.0.0:7077 requested this worker to reconnect.
23/08/15 13:34:31 INFO Worker: Not spawning another attempt to register with the master, since there is an attempt scheduled already.
23/08/15 13:34:31 INFO Worker: Connecting to master 127.0.0.1:7077...
23/08/15 13:34:31 INFO Worker: Successfully registered with master spark://0.0.0.0:7077
