Spark Command: /usr/lib/jvm/java-17-openjdk-amd64/bin/java -cp /home/dell/Documentos/TFM/spark/conf/:/home/dell/Documentos/TFM/spark/jars/* -Xmx1g org.apache.spark.deploy.master.Master --host dell-Vostro-3558tion --port 7077 --webui-port 8080 -h 0.0.0.0
========================================
Using Spark's default log4j profile: org/apache/spark/log4j2-defaults.properties
23/08/25 21:11:28 INFO Master: Started daemon with process name: 65873@dell-Vostro-3558tion
23/08/25 21:11:28 INFO SignalUtils: Registering signal handler for TERM
23/08/25 21:11:28 INFO SignalUtils: Registering signal handler for HUP
23/08/25 21:11:28 INFO SignalUtils: Registering signal handler for INT
23/08/25 21:11:28 WARN Utils: Your hostname, dell-Vostro-3558tion resolves to a loopback address: 127.0.1.1; using 172.18.0.1 instead (on interface br-0e63fc1d7bb3)
23/08/25 21:11:28 WARN Utils: Set SPARK_LOCAL_IP if you need to bind to another address
23/08/25 21:11:28 WARN NativeCodeLoader: Unable to load native-hadoop library for your platform... using builtin-java classes where applicable
23/08/25 21:11:28 INFO SecurityManager: Changing view acls to: dell
23/08/25 21:11:28 INFO SecurityManager: Changing modify acls to: dell
23/08/25 21:11:28 INFO SecurityManager: Changing view acls groups to: 
23/08/25 21:11:28 INFO SecurityManager: Changing modify acls groups to: 
23/08/25 21:11:28 INFO SecurityManager: SecurityManager: authentication disabled; ui acls disabled; users  with view permissions: Set(dell); groups with view permissions: Set(); users  with modify permissions: Set(dell); groups with modify permissions: Set()
23/08/25 21:11:29 INFO Utils: Successfully started service 'sparkMaster' on port 7077.
23/08/25 21:11:29 INFO Master: Starting Spark master at spark://0.0.0.0:7077
23/08/25 21:11:29 INFO Master: Running Spark version 3.3.1
23/08/25 21:11:29 INFO Utils: Successfully started service 'MasterUI' on port 8080.
23/08/25 21:11:29 INFO MasterWebUI: Bound MasterWebUI to 0.0.0.0, and started at http://172.18.0.1:8080
23/08/25 21:11:30 INFO Master: I have been elected leader! New state: ALIVE
23/08/25 21:12:14 INFO Master: Registering worker 172.18.0.1:44295 with 4 cores, 6.7 GiB RAM
23/08/25 21:14:30 INFO Master: Registering app Validacion
23/08/25 21:14:30 INFO Master: Registered app Validacion with ID app-20230825211430-0000
23/08/25 21:14:30 INFO Master: Launching executor app-20230825211430-0000/0 on worker worker-20230825211213-172.18.0.1-44295
23/08/25 21:30:33 INFO Master: Registering app Recalculo
23/08/25 21:30:33 INFO Master: Registered app Recalculo with ID app-20230825213033-0001
23/08/25 21:30:33 INFO Master: Launching executor app-20230825213033-0001/0 on worker worker-20230825211213-172.18.0.1-44295
23/08/25 21:37:25 INFO Master: Received unregister request from application app-20230825211430-0000
23/08/25 21:37:25 INFO Master: Removing app app-20230825211430-0000
23/08/25 21:37:25 INFO Master: Launching executor app-20230825213033-0001/1 on worker worker-20230825211213-172.18.0.1-44295
23/08/25 21:37:25 INFO Master: 127.0.0.1:60896 got disassociated, removing it.
23/08/25 21:37:25 INFO Master: 172.18.0.1:46749 got disassociated, removing it.
23/08/25 21:37:25 WARN Master: Got status update for unknown executor app-20230825211430-0000/0
23/08/25 21:38:47 INFO Master: Registering app Validacion
23/08/25 21:38:47 INFO Master: Registered app Validacion with ID app-20230825213847-0002
23/08/25 22:24:51 INFO Master: Received unregister request from application app-20230825213847-0002
23/08/25 22:24:51 INFO Master: Removing app app-20230825213847-0002
23/08/25 22:24:51 INFO Master: 127.0.0.1:48084 got disassociated, removing it.
23/08/25 22:24:51 INFO Master: dell-Vostro-3558tion.lan:45451 got disassociated, removing it.
23/08/25 22:26:39 INFO Master: Registering app Validacion
23/08/25 22:26:39 INFO Master: Registered app Validacion with ID app-20230825222639-0003
23/08/25 22:26:47 INFO Master: Removing app app-20230825213033-0001
23/08/25 22:26:47 INFO Master: Launching executor app-20230825222639-0003/0 on worker worker-20230825211213-172.18.0.1-44295
23/08/25 22:26:47 INFO Master: Received unregister request from application app-20230825213033-0001
23/08/25 22:26:48 INFO Master: 127.0.0.1:51286 got disassociated, removing it.
23/08/25 22:26:48 INFO Master: dell-Vostro-3558tion.lan:44467 got disassociated, removing it.
23/08/25 22:26:48 WARN Master: Got status update for unknown executor app-20230825213033-0001/1
23/08/25 22:26:48 WARN Master: Got status update for unknown executor app-20230825213033-0001/0
23/08/25 22:56:15 INFO Master: Received unregister request from application app-20230825222639-0003
23/08/25 22:56:15 INFO Master: Removing app app-20230825222639-0003
23/08/25 22:56:15 INFO Master: 127.0.0.1:58042 got disassociated, removing it.
23/08/25 22:56:15 INFO Master: dell-Vostro-3558tion.lan:44397 got disassociated, removing it.
23/08/25 22:56:15 WARN Master: Got status update for unknown executor app-20230825222639-0003/0
23/08/25 22:56:52 INFO Master: Registering app Recalculo
23/08/25 22:56:52 INFO Master: Registered app Recalculo with ID app-20230825225652-0004
23/08/25 22:56:52 INFO Master: Launching executor app-20230825225652-0004/0 on worker worker-20230825211213-172.18.0.1-44295
23/08/25 23:04:22 INFO Master: Received unregister request from application app-20230825225652-0004
23/08/25 23:04:22 INFO Master: Removing app app-20230825225652-0004
23/08/25 23:04:22 INFO Master: 127.0.0.1:37914 got disassociated, removing it.
23/08/25 23:04:22 INFO Master: dell-Vostro-3558tion.lan:37731 got disassociated, removing it.
23/08/25 23:04:22 WARN Master: Got status update for unknown executor app-20230825225652-0004/0
23/08/25 23:26:01 INFO Master: 127.0.0.1:52784 got disassociated, removing it.
23/08/26 00:24:13 INFO Master: Registering app Filtrado
23/08/26 00:24:13 INFO Master: Registered app Filtrado with ID app-20230826002413-0005
23/08/26 00:24:13 INFO Master: Application app-20230826002413-0005 requested to set total executors to 1.
23/08/26 00:24:13 INFO Master: Launching executor app-20230826002413-0005/0 on worker worker-20230825211213-172.18.0.1-44295
23/08/26 00:24:38 INFO Master: Received unregister request from application app-20230826002413-0005
23/08/26 00:24:38 INFO Master: Removing app app-20230826002413-0005
23/08/26 00:24:38 INFO Master: 127.0.0.1:57824 got disassociated, removing it.
23/08/26 00:24:38 INFO Master: dell-Vostro-3558tion.lan:36649 got disassociated, removing it.
23/08/26 00:24:38 WARN Master: Got status update for unknown executor app-20230826002413-0005/0
23/08/26 01:05:01 INFO Master: 127.0.0.1:33360 got disassociated, removing it.
23/08/26 01:05:01 INFO Master: 172.18.0.1:44295 got disassociated, removing it.
23/08/26 01:05:01 INFO Master: Removing worker worker-20230825211213-172.18.0.1-44295 on 172.18.0.1:44295
23/08/26 01:05:01 INFO Master: Telling app of lost worker: worker-20230825211213-172.18.0.1-44295
23/08/26 01:05:07 ERROR Master: RECEIVED SIGNAL TERM
