Spark Command: /usr/lib/jvm/java-17-openjdk-amd64/bin/java -cp /home/dell/Documentos/TFM/spark/conf/:/home/dell/Documentos/TFM/spark/jars/* -Xmx1g org.apache.spark.deploy.worker.Worker --webui-port 8081 spark://dell-Vostro-3558tion:7077
========================================
Using Spark's default log4j profile: org/apache/spark/log4j2-defaults.properties
23/08/25 21:09:00 INFO Worker: Started daemon with process name: 65365@dell-Vostro-3558tion
23/08/25 21:09:00 INFO SignalUtils: Registering signal handler for TERM
23/08/25 21:09:00 INFO SignalUtils: Registering signal handler for HUP
23/08/25 21:09:00 INFO SignalUtils: Registering signal handler for INT
23/08/25 21:09:00 WARN Utils: Your hostname, dell-Vostro-3558tion resolves to a loopback address: 127.0.1.1; using 172.18.0.1 instead (on interface br-0e63fc1d7bb3)
23/08/25 21:09:00 WARN Utils: Set SPARK_LOCAL_IP if you need to bind to another address
23/08/25 21:09:01 WARN NativeCodeLoader: Unable to load native-hadoop library for your platform... using builtin-java classes where applicable
23/08/25 21:09:01 INFO SecurityManager: Changing view acls to: dell
23/08/25 21:09:01 INFO SecurityManager: Changing modify acls to: dell
23/08/25 21:09:01 INFO SecurityManager: Changing view acls groups to: 
23/08/25 21:09:01 INFO SecurityManager: Changing modify acls groups to: 
23/08/25 21:09:01 INFO SecurityManager: SecurityManager: authentication disabled; ui acls disabled; users  with view permissions: Set(dell); groups with view permissions: Set(); users  with modify permissions: Set(dell); groups with modify permissions: Set()
23/08/25 21:09:01 INFO Utils: Successfully started service 'sparkWorker' on port 37885.
23/08/25 21:09:01 INFO Worker: Worker decommissioning not enabled.
23/08/25 21:09:01 WARN ExternalShuffleService: 'spark.local.dir' should be set first when we use db in ExternalShuffleService. Note that this only affects standalone mode.
23/08/25 21:09:01 INFO Worker: Starting Spark worker 172.18.0.1:37885 with 4 cores, 6.7 GiB RAM
23/08/25 21:09:02 INFO Worker: Running Spark version 3.3.1
23/08/25 21:09:02 INFO Worker: Spark home: /home/dell/Documentos/TFM/spark
23/08/25 21:09:02 INFO ExternalShuffleService: Starting shuffle service on port 7337 (auth enabled = false)
23/08/25 21:09:02 INFO ResourceUtils: ==============================================================
23/08/25 21:09:02 INFO ResourceUtils: No custom resources configured for spark.worker.
23/08/25 21:09:02 INFO ResourceUtils: ==============================================================
23/08/25 21:09:02 INFO Utils: Successfully started service 'WorkerUI' on port 8081.
23/08/25 21:09:02 INFO WorkerWebUI: Bound WorkerWebUI to 0.0.0.0, and started at http://172.18.0.1:8081
23/08/25 21:09:02 INFO Worker: Connecting to master dell-Vostro-3558tion:7077...
23/08/25 21:09:02 INFO TransportClientFactory: Successfully created connection to dell-Vostro-3558tion/127.0.1.1:7077 after 42 ms (0 ms spent in bootstraps)
23/08/25 21:09:02 INFO Worker: Successfully registered with master spark://dell-Vostro-3558tion:7077
23/08/25 21:11:13 INFO Worker: dell-Vostro-3558tion:7077 Disassociated !
23/08/25 21:11:13 ERROR Worker: Connection to master failed! Waiting for master to reconnect...
23/08/25 21:11:13 INFO Worker: dell-Vostro-3558tion:7077 Disassociated !
23/08/25 21:11:13 INFO Worker: Connecting to master dell-Vostro-3558tion:7077...
23/08/25 21:11:13 ERROR Worker: Connection to master failed! Waiting for master to reconnect...
23/08/25 21:11:13 INFO Worker: Not spawning another attempt to register with the master, since there is an attempt scheduled already.
23/08/25 21:11:13 INFO TransportClientFactory: Found inactive connection to dell-Vostro-3558tion/127.0.1.1:7077, creating a new one.
23/08/25 21:11:13 WARN Worker: Failed to connect to master dell-Vostro-3558tion:7077
org.apache.spark.SparkException: Exception thrown in awaitResult: 
	at org.apache.spark.util.ThreadUtils$.awaitResult(ThreadUtils.scala:301)
	at org.apache.spark.rpc.RpcTimeout.awaitResult(RpcTimeout.scala:75)
	at org.apache.spark.rpc.RpcEnv.setupEndpointRefByURI(RpcEnv.scala:102)
	at org.apache.spark.rpc.RpcEnv.setupEndpointRef(RpcEnv.scala:110)
	at org.apache.spark.deploy.worker.Worker$$anon$1.run(Worker.scala:313)
	at java.base/java.util.concurrent.Executors$RunnableAdapter.call(Executors.java:539)
	at java.base/java.util.concurrent.FutureTask.run(FutureTask.java:264)
	at java.base/java.util.concurrent.ThreadPoolExecutor.runWorker(ThreadPoolExecutor.java:1136)
	at java.base/java.util.concurrent.ThreadPoolExecutor$Worker.run(ThreadPoolExecutor.java:635)
	at java.base/java.lang.Thread.run(Thread.java:833)
Caused by: java.io.IOException: Failed to connect to dell-Vostro-3558tion/127.0.1.1:7077
	at org.apache.spark.network.client.TransportClientFactory.createClient(TransportClientFactory.java:288)
	at org.apache.spark.network.client.TransportClientFactory.createClient(TransportClientFactory.java:218)
	at org.apache.spark.network.client.TransportClientFactory.createClient(TransportClientFactory.java:230)
	at org.apache.spark.rpc.netty.NettyRpcEnv.createClient(NettyRpcEnv.scala:204)
	at org.apache.spark.rpc.netty.Outbox$$anon$1.call(Outbox.scala:202)
	at org.apache.spark.rpc.netty.Outbox$$anon$1.call(Outbox.scala:198)
	... 4 more
Caused by: io.netty.channel.AbstractChannel$AnnotatedConnectException: Conexión rehusada: dell-Vostro-3558tion/127.0.1.1:7077
Caused by: java.net.ConnectException: Conexión rehusada
	at java.base/sun.nio.ch.Net.pollConnect(Native Method)
	at java.base/sun.nio.ch.Net.pollConnectNow(Net.java:672)
	at java.base/sun.nio.ch.SocketChannelImpl.finishConnect(SocketChannelImpl.java:946)
	at io.netty.channel.socket.nio.NioSocketChannel.doFinishConnect(NioSocketChannel.java:330)
	at io.netty.channel.nio.AbstractNioChannel$AbstractNioUnsafe.finishConnect(AbstractNioChannel.java:334)
	at io.netty.channel.nio.NioEventLoop.processSelectedKey(NioEventLoop.java:710)
	at io.netty.channel.nio.NioEventLoop.processSelectedKeysOptimized(NioEventLoop.java:658)
	at io.netty.channel.nio.NioEventLoop.processSelectedKeys(NioEventLoop.java:584)
	at io.netty.channel.nio.NioEventLoop.run(NioEventLoop.java:496)
	at io.netty.util.concurrent.SingleThreadEventExecutor$4.run(SingleThreadEventExecutor.java:986)
	at io.netty.util.internal.ThreadExecutorMap$2.run(ThreadExecutorMap.java:74)
	at io.netty.util.concurrent.FastThreadLocalRunnable.run(FastThreadLocalRunnable.java:30)
	at java.base/java.lang.Thread.run(Thread.java:833)
23/08/25 21:11:18 INFO Worker: Retrying connection to master (attempt # 1)
23/08/25 21:11:18 INFO Worker: Connecting to master dell-Vostro-3558tion:7077...
23/08/25 21:11:18 INFO TransportClientFactory: Found inactive connection to dell-Vostro-3558tion/127.0.1.1:7077, creating a new one.
23/08/25 21:11:18 WARN Worker: Failed to connect to master dell-Vostro-3558tion:7077
org.apache.spark.SparkException: Exception thrown in awaitResult: 
	at org.apache.spark.util.ThreadUtils$.awaitResult(ThreadUtils.scala:301)
	at org.apache.spark.rpc.RpcTimeout.awaitResult(RpcTimeout.scala:75)
	at org.apache.spark.rpc.RpcEnv.setupEndpointRefByURI(RpcEnv.scala:102)
	at org.apache.spark.rpc.RpcEnv.setupEndpointRef(RpcEnv.scala:110)
	at org.apache.spark.deploy.worker.Worker$$anon$2.run(Worker.scala:370)
	at java.base/java.util.concurrent.Executors$RunnableAdapter.call(Executors.java:539)
	at java.base/java.util.concurrent.FutureTask.run(FutureTask.java:264)
	at java.base/java.util.concurrent.ThreadPoolExecutor.runWorker(ThreadPoolExecutor.java:1136)
	at java.base/java.util.concurrent.ThreadPoolExecutor$Worker.run(ThreadPoolExecutor.java:635)
	at java.base/java.lang.Thread.run(Thread.java:833)
Caused by: java.io.IOException: Failed to connect to dell-Vostro-3558tion/127.0.1.1:7077
	at org.apache.spark.network.client.TransportClientFactory.createClient(TransportClientFactory.java:288)
	at org.apache.spark.network.client.TransportClientFactory.createClient(TransportClientFactory.java:218)
	at org.apache.spark.network.client.TransportClientFactory.createClient(TransportClientFactory.java:230)
	at org.apache.spark.rpc.netty.NettyRpcEnv.createClient(NettyRpcEnv.scala:204)
	at org.apache.spark.rpc.netty.Outbox$$anon$1.call(Outbox.scala:202)
	at org.apache.spark.rpc.netty.Outbox$$anon$1.call(Outbox.scala:198)
	... 4 more
Caused by: io.netty.channel.AbstractChannel$AnnotatedConnectException: Conexión rehusada: dell-Vostro-3558tion/127.0.1.1:7077
Caused by: java.net.ConnectException: Conexión rehusada
	at java.base/sun.nio.ch.Net.pollConnect(Native Method)
	at java.base/sun.nio.ch.Net.pollConnectNow(Net.java:672)
	at java.base/sun.nio.ch.SocketChannelImpl.finishConnect(SocketChannelImpl.java:946)
	at io.netty.channel.socket.nio.NioSocketChannel.doFinishConnect(NioSocketChannel.java:330)
	at io.netty.channel.nio.AbstractNioChannel$AbstractNioUnsafe.finishConnect(AbstractNioChannel.java:334)
	at io.netty.channel.nio.NioEventLoop.processSelectedKey(NioEventLoop.java:710)
	at io.netty.channel.nio.NioEventLoop.processSelectedKeysOptimized(NioEventLoop.java:658)
	at io.netty.channel.nio.NioEventLoop.processSelectedKeys(NioEventLoop.java:584)
	at io.netty.channel.nio.NioEventLoop.run(NioEventLoop.java:496)
	at io.netty.util.concurrent.SingleThreadEventExecutor$4.run(SingleThreadEventExecutor.java:986)
	at io.netty.util.internal.ThreadExecutorMap$2.run(ThreadExecutorMap.java:74)
	at io.netty.util.concurrent.FastThreadLocalRunnable.run(FastThreadLocalRunnable.java:30)
	at java.base/java.lang.Thread.run(Thread.java:833)
23/08/25 21:11:19 ERROR Worker: RECEIVED SIGNAL TERM
