Spark Command: /usr/lib/jvm/java-17-openjdk-amd64/bin/java -cp /home/dell/Documentos/TFM/spark/conf/:/home/dell/Documentos/TFM/spark/jars/* -Xmx1g org.apache.spark.deploy.worker.Worker --webui-port 8081 spark://dell-Vostro-3558tion:7077
========================================
Using Spark's default log4j profile: org/apache/spark/log4j2-defaults.properties
23/08/25 21:12:12 INFO Worker: Started daemon with process name: 65975@dell-Vostro-3558tion
23/08/25 21:12:12 INFO SignalUtils: Registering signal handler for TERM
23/08/25 21:12:12 INFO SignalUtils: Registering signal handler for HUP
23/08/25 21:12:12 INFO SignalUtils: Registering signal handler for INT
23/08/25 21:12:12 WARN Utils: Your hostname, dell-Vostro-3558tion resolves to a loopback address: 127.0.1.1; using 172.18.0.1 instead (on interface br-0e63fc1d7bb3)
23/08/25 21:12:12 WARN Utils: Set SPARK_LOCAL_IP if you need to bind to another address
23/08/25 21:12:12 WARN NativeCodeLoader: Unable to load native-hadoop library for your platform... using builtin-java classes where applicable
23/08/25 21:12:12 INFO SecurityManager: Changing view acls to: dell
23/08/25 21:12:12 INFO SecurityManager: Changing modify acls to: dell
23/08/25 21:12:12 INFO SecurityManager: Changing view acls groups to: 
23/08/25 21:12:12 INFO SecurityManager: Changing modify acls groups to: 
23/08/25 21:12:12 INFO SecurityManager: SecurityManager: authentication disabled; ui acls disabled; users  with view permissions: Set(dell); groups with view permissions: Set(); users  with modify permissions: Set(dell); groups with modify permissions: Set()
23/08/25 21:12:13 INFO Utils: Successfully started service 'sparkWorker' on port 44295.
23/08/25 21:12:13 INFO Worker: Worker decommissioning not enabled.
23/08/25 21:12:13 WARN ExternalShuffleService: 'spark.local.dir' should be set first when we use db in ExternalShuffleService. Note that this only affects standalone mode.
23/08/25 21:12:13 INFO Worker: Starting Spark worker 172.18.0.1:44295 with 4 cores, 6.7 GiB RAM
23/08/25 21:12:13 INFO Worker: Running Spark version 3.3.1
23/08/25 21:12:13 INFO Worker: Spark home: /home/dell/Documentos/TFM/spark
23/08/25 21:12:13 INFO ExternalShuffleService: Starting shuffle service on port 7337 (auth enabled = false)
23/08/25 21:12:14 INFO ResourceUtils: ==============================================================
23/08/25 21:12:14 INFO ResourceUtils: No custom resources configured for spark.worker.
23/08/25 21:12:14 INFO ResourceUtils: ==============================================================
23/08/25 21:12:14 INFO Utils: Successfully started service 'WorkerUI' on port 8081.
23/08/25 21:12:14 INFO WorkerWebUI: Bound WorkerWebUI to 0.0.0.0, and started at http://172.18.0.1:8081
23/08/25 21:12:14 INFO Worker: Connecting to master dell-Vostro-3558tion:7077...
23/08/25 21:12:14 INFO TransportClientFactory: Successfully created connection to dell-Vostro-3558tion/127.0.1.1:7077 after 87 ms (0 ms spent in bootstraps)
23/08/25 21:12:15 INFO Worker: Successfully registered with master spark://0.0.0.0:7077
23/08/25 21:14:30 INFO Worker: Asked to launch executor app-20230825211430-0000/0 for Validacion
23/08/25 21:14:30 INFO SecurityManager: Changing view acls to: dell
23/08/25 21:14:30 INFO SecurityManager: Changing modify acls to: dell
23/08/25 21:14:30 INFO SecurityManager: Changing view acls groups to: 
23/08/25 21:14:30 INFO SecurityManager: Changing modify acls groups to: 
23/08/25 21:14:30 INFO SecurityManager: SecurityManager: authentication disabled; ui acls disabled; users  with view permissions: Set(dell); groups with view permissions: Set(); users  with modify permissions: Set(dell); groups with modify permissions: Set()
23/08/25 21:14:30 INFO ExecutorRunner: Launch command: "/usr/lib/jvm/java-17-openjdk-amd64/bin/java" "-cp" "/home/dell/Documentos/TFM/spark/conf/:/home/dell/Documentos/TFM/spark/jars/*" "-Xmx1024M" "-Dspark.driver.port=46749" "-XX:+IgnoreUnrecognizedVMOptions" "--add-opens=java.base/java.lang=ALL-UNNAMED" "--add-opens=java.base/java.lang.invoke=ALL-UNNAMED" "--add-opens=java.base/java.lang.reflect=ALL-UNNAMED" "--add-opens=java.base/java.io=ALL-UNNAMED" "--add-opens=java.base/java.net=ALL-UNNAMED" "--add-opens=java.base/java.nio=ALL-UNNAMED" "--add-opens=java.base/java.util=ALL-UNNAMED" "--add-opens=java.base/java.util.concurrent=ALL-UNNAMED" "--add-opens=java.base/java.util.concurrent.atomic=ALL-UNNAMED" "--add-opens=java.base/sun.nio.ch=ALL-UNNAMED" "--add-opens=java.base/sun.nio.cs=ALL-UNNAMED" "--add-opens=java.base/sun.security.action=ALL-UNNAMED" "--add-opens=java.base/sun.util.calendar=ALL-UNNAMED" "--add-opens=java.security.jgss/sun.security.krb5=ALL-UNNAMED" "org.apache.spark.executor.CoarseGrainedExecutorBackend" "--driver-url" "spark://CoarseGrainedScheduler@172.18.0.1:46749" "--executor-id" "0" "--hostname" "172.18.0.1" "--cores" "1" "--app-id" "app-20230825211430-0000" "--worker-url" "spark://Worker@172.18.0.1:44295"
23/08/25 21:14:38 INFO ExternalShuffleBlockResolver: Registered executor ExternalShuffleBlockResolver.AppExecId[appId=app-20230825211430-0000,execId=0] with ExecutorShuffleInfo[localDirs=[/tmp/spark-e72fa5cd-2e50-4439-86a9-f917619df19f/executor-ab56a508-8bd1-4e80-a298-f6c82b118922/blockmgr-97ecbe5e-d13d-46cc-8198-6a09a6dd4e2c],subDirsPerLocalDir=64,shuffleManager=org.apache.spark.shuffle.sort.SortShuffleManager]
23/08/25 21:30:33 INFO Worker: Asked to launch executor app-20230825213033-0001/0 for Recalculo
23/08/25 21:30:33 INFO SecurityManager: Changing view acls to: dell
23/08/25 21:30:33 INFO SecurityManager: Changing modify acls to: dell
23/08/25 21:30:33 INFO SecurityManager: Changing view acls groups to: 
23/08/25 21:30:33 INFO SecurityManager: Changing modify acls groups to: 
23/08/25 21:30:33 INFO SecurityManager: SecurityManager: authentication disabled; ui acls disabled; users  with view permissions: Set(dell); groups with view permissions: Set(); users  with modify permissions: Set(dell); groups with modify permissions: Set()
23/08/25 21:30:34 INFO ExecutorRunner: Launch command: "/usr/lib/jvm/java-17-openjdk-amd64/bin/java" "-cp" "/home/dell/Documentos/TFM/spark/conf/:/home/dell/Documentos/TFM/spark/jars/*" "-Xmx1024M" "-Dspark.driver.port=44467" "-XX:+IgnoreUnrecognizedVMOptions" "--add-opens=java.base/java.lang=ALL-UNNAMED" "--add-opens=java.base/java.lang.invoke=ALL-UNNAMED" "--add-opens=java.base/java.lang.reflect=ALL-UNNAMED" "--add-opens=java.base/java.io=ALL-UNNAMED" "--add-opens=java.base/java.net=ALL-UNNAMED" "--add-opens=java.base/java.nio=ALL-UNNAMED" "--add-opens=java.base/java.util=ALL-UNNAMED" "--add-opens=java.base/java.util.concurrent=ALL-UNNAMED" "--add-opens=java.base/java.util.concurrent.atomic=ALL-UNNAMED" "--add-opens=java.base/sun.nio.ch=ALL-UNNAMED" "--add-opens=java.base/sun.nio.cs=ALL-UNNAMED" "--add-opens=java.base/sun.security.action=ALL-UNNAMED" "--add-opens=java.base/sun.util.calendar=ALL-UNNAMED" "--add-opens=java.security.jgss/sun.security.krb5=ALL-UNNAMED" "org.apache.spark.executor.CoarseGrainedExecutorBackend" "--driver-url" "spark://CoarseGrainedScheduler@dell-Vostro-3558tion.lan:44467" "--executor-id" "0" "--hostname" "172.18.0.1" "--cores" "3" "--app-id" "app-20230825213033-0001" "--worker-url" "spark://Worker@172.18.0.1:44295"
23/08/25 21:30:42 INFO ExternalShuffleBlockResolver: Registered executor ExternalShuffleBlockResolver.AppExecId[appId=app-20230825213033-0001,execId=0] with ExecutorShuffleInfo[localDirs=[/tmp/spark-e72fa5cd-2e50-4439-86a9-f917619df19f/executor-264bae34-6fa0-4ee7-a592-71261924ddcb/blockmgr-bb6b8ffe-1e2a-4b67-af6f-529469a6b6df],subDirsPerLocalDir=64,shuffleManager=org.apache.spark.shuffle.sort.SortShuffleManager]
23/08/25 21:37:25 INFO Worker: Asked to kill executor app-20230825211430-0000/0
23/08/25 21:37:25 INFO Worker: Asked to launch executor app-20230825213033-0001/1 for Recalculo
23/08/25 21:37:25 INFO ExecutorRunner: Runner thread for executor app-20230825211430-0000/0 interrupted
23/08/25 21:37:25 INFO ExecutorRunner: Killing process!
23/08/25 21:37:25 INFO SecurityManager: Changing view acls to: dell
23/08/25 21:37:25 INFO SecurityManager: Changing modify acls to: dell
23/08/25 21:37:25 INFO SecurityManager: Changing view acls groups to: 
23/08/25 21:37:25 INFO SecurityManager: Changing modify acls groups to: 
23/08/25 21:37:25 INFO SecurityManager: SecurityManager: authentication disabled; ui acls disabled; users  with view permissions: Set(dell); groups with view permissions: Set(); users  with modify permissions: Set(dell); groups with modify permissions: Set()
23/08/25 21:37:25 INFO ExecutorRunner: Launch command: "/usr/lib/jvm/java-17-openjdk-amd64/bin/java" "-cp" "/home/dell/Documentos/TFM/spark/conf/:/home/dell/Documentos/TFM/spark/jars/*" "-Xmx1024M" "-Dspark.driver.port=44467" "-XX:+IgnoreUnrecognizedVMOptions" "--add-opens=java.base/java.lang=ALL-UNNAMED" "--add-opens=java.base/java.lang.invoke=ALL-UNNAMED" "--add-opens=java.base/java.lang.reflect=ALL-UNNAMED" "--add-opens=java.base/java.io=ALL-UNNAMED" "--add-opens=java.base/java.net=ALL-UNNAMED" "--add-opens=java.base/java.nio=ALL-UNNAMED" "--add-opens=java.base/java.util=ALL-UNNAMED" "--add-opens=java.base/java.util.concurrent=ALL-UNNAMED" "--add-opens=java.base/java.util.concurrent.atomic=ALL-UNNAMED" "--add-opens=java.base/sun.nio.ch=ALL-UNNAMED" "--add-opens=java.base/sun.nio.cs=ALL-UNNAMED" "--add-opens=java.base/sun.security.action=ALL-UNNAMED" "--add-opens=java.base/sun.util.calendar=ALL-UNNAMED" "--add-opens=java.security.jgss/sun.security.krb5=ALL-UNNAMED" "org.apache.spark.executor.CoarseGrainedExecutorBackend" "--driver-url" "spark://CoarseGrainedScheduler@dell-Vostro-3558tion.lan:44467" "--executor-id" "1" "--hostname" "172.18.0.1" "--cores" "1" "--app-id" "app-20230825213033-0001" "--worker-url" "spark://Worker@172.18.0.1:44295"
23/08/25 21:37:25 INFO Worker: Executor app-20230825211430-0000/0 finished with state KILLED exitStatus 0
23/08/25 21:37:25 INFO ExternalShuffleBlockResolver: Clean up non-shuffle and non-RDD files associated with the finished executor 0
23/08/25 21:37:25 INFO ExternalShuffleBlockResolver: Cleaning up non-shuffle and non-RDD files in executor ExternalShuffleBlockResolver.AppExecId[appId=app-20230825211430-0000,execId=0]'s 1 local dirs
23/08/25 21:37:25 INFO ExternalShuffleBlockResolver: Application app-20230825211430-0000 removed, cleanupLocalDirs = true
23/08/25 21:37:25 INFO ExternalShuffleBlockResolver: Cleaning up executor ExternalShuffleBlockResolver.AppExecId[appId=app-20230825211430-0000,execId=0]'s 1 local dirs
23/08/25 21:37:25 INFO Worker: Cleaning up local directories for application app-20230825211430-0000
23/08/25 21:37:30 INFO ExternalShuffleBlockResolver: Registered executor ExternalShuffleBlockResolver.AppExecId[appId=app-20230825213033-0001,execId=1] with ExecutorShuffleInfo[localDirs=[/tmp/spark-e72fa5cd-2e50-4439-86a9-f917619df19f/executor-264bae34-6fa0-4ee7-a592-71261924ddcb/blockmgr-267a7146-2c65-4657-9f6d-5e6adf931124],subDirsPerLocalDir=64,shuffleManager=org.apache.spark.shuffle.sort.SortShuffleManager]
23/08/25 22:24:51 INFO ExternalShuffleBlockResolver: Application app-20230825213847-0002 removed, cleanupLocalDirs = true
23/08/25 22:26:47 INFO Worker: Asked to kill executor app-20230825213033-0001/1
23/08/25 22:26:47 INFO Worker: Asked to kill executor app-20230825213033-0001/0
23/08/25 22:26:47 INFO ExecutorRunner: Runner thread for executor app-20230825213033-0001/1 interrupted
23/08/25 22:26:47 INFO ExecutorRunner: Killing process!
23/08/25 22:26:47 INFO ExecutorRunner: Runner thread for executor app-20230825213033-0001/0 interrupted
23/08/25 22:26:47 INFO ExecutorRunner: Killing process!
23/08/25 22:26:47 INFO Worker: Asked to launch executor app-20230825222639-0003/0 for Validacion
23/08/25 22:26:47 INFO SecurityManager: Changing view acls to: dell
23/08/25 22:26:47 INFO SecurityManager: Changing modify acls to: dell
23/08/25 22:26:47 INFO SecurityManager: Changing view acls groups to: 
23/08/25 22:26:47 INFO SecurityManager: Changing modify acls groups to: 
23/08/25 22:26:47 INFO SecurityManager: SecurityManager: authentication disabled; ui acls disabled; users  with view permissions: Set(dell); groups with view permissions: Set(); users  with modify permissions: Set(dell); groups with modify permissions: Set()
23/08/25 22:26:47 INFO ExecutorRunner: Launch command: "/usr/lib/jvm/java-17-openjdk-amd64/bin/java" "-cp" "/home/dell/Documentos/TFM/spark/conf/:/home/dell/Documentos/TFM/spark/jars/*" "-Xmx1024M" "-Dspark.driver.port=44397" "-XX:+IgnoreUnrecognizedVMOptions" "--add-opens=java.base/java.lang=ALL-UNNAMED" "--add-opens=java.base/java.lang.invoke=ALL-UNNAMED" "--add-opens=java.base/java.lang.reflect=ALL-UNNAMED" "--add-opens=java.base/java.io=ALL-UNNAMED" "--add-opens=java.base/java.net=ALL-UNNAMED" "--add-opens=java.base/java.nio=ALL-UNNAMED" "--add-opens=java.base/java.util=ALL-UNNAMED" "--add-opens=java.base/java.util.concurrent=ALL-UNNAMED" "--add-opens=java.base/java.util.concurrent.atomic=ALL-UNNAMED" "--add-opens=java.base/sun.nio.ch=ALL-UNNAMED" "--add-opens=java.base/sun.nio.cs=ALL-UNNAMED" "--add-opens=java.base/sun.security.action=ALL-UNNAMED" "--add-opens=java.base/sun.util.calendar=ALL-UNNAMED" "--add-opens=java.security.jgss/sun.security.krb5=ALL-UNNAMED" "org.apache.spark.executor.CoarseGrainedExecutorBackend" "--driver-url" "spark://CoarseGrainedScheduler@dell-Vostro-3558tion.lan:44397" "--executor-id" "0" "--hostname" "172.18.0.1" "--cores" "1" "--app-id" "app-20230825222639-0003" "--worker-url" "spark://Worker@172.18.0.1:44295"
23/08/25 22:26:48 INFO Worker: Executor app-20230825213033-0001/1 finished with state KILLED exitStatus 143
23/08/25 22:26:48 INFO ExternalShuffleBlockResolver: Clean up non-shuffle and non-RDD files associated with the finished executor 1
23/08/25 22:26:48 INFO ExternalShuffleBlockResolver: Cleaning up non-shuffle and non-RDD files in executor ExternalShuffleBlockResolver.AppExecId[appId=app-20230825213033-0001,execId=1]'s 1 local dirs
23/08/25 22:26:48 INFO Worker: Executor app-20230825213033-0001/0 finished with state KILLED exitStatus 143
23/08/25 22:26:48 INFO ExternalShuffleBlockResolver: Clean up non-shuffle and non-RDD files associated with the finished executor 0
23/08/25 22:26:48 INFO ExternalShuffleBlockResolver: Cleaning up non-shuffle and non-RDD files in executor ExternalShuffleBlockResolver.AppExecId[appId=app-20230825213033-0001,execId=0]'s 1 local dirs
23/08/25 22:26:48 INFO ExternalShuffleBlockResolver: Application app-20230825213033-0001 removed, cleanupLocalDirs = true
23/08/25 22:26:48 INFO ExternalShuffleBlockResolver: Cleaning up executor ExternalShuffleBlockResolver.AppExecId[appId=app-20230825213033-0001,execId=1]'s 1 local dirs
23/08/25 22:26:48 INFO ExternalShuffleBlockResolver: Cleaning up executor ExternalShuffleBlockResolver.AppExecId[appId=app-20230825213033-0001,execId=0]'s 1 local dirs
23/08/25 22:26:48 INFO Worker: Cleaning up local directories for application app-20230825213033-0001
23/08/25 22:26:58 INFO ExternalShuffleBlockResolver: Registered executor ExternalShuffleBlockResolver.AppExecId[appId=app-20230825222639-0003,execId=0] with ExecutorShuffleInfo[localDirs=[/tmp/spark-e72fa5cd-2e50-4439-86a9-f917619df19f/executor-31f3f590-99a2-4e78-b4c8-3c95ba6705e6/blockmgr-cdc358ed-b4e8-4b70-95d6-c3bc5a6f1646],subDirsPerLocalDir=64,shuffleManager=org.apache.spark.shuffle.sort.SortShuffleManager]
23/08/25 22:56:15 INFO Worker: Asked to kill executor app-20230825222639-0003/0
23/08/25 22:56:15 INFO ExecutorRunner: Runner thread for executor app-20230825222639-0003/0 interrupted
23/08/25 22:56:15 INFO ExecutorRunner: Killing process!
23/08/25 22:56:15 INFO Worker: Executor app-20230825222639-0003/0 finished with state KILLED exitStatus 0
23/08/25 22:56:15 INFO ExternalShuffleBlockResolver: Clean up non-shuffle and non-RDD files associated with the finished executor 0
23/08/25 22:56:15 INFO ExternalShuffleBlockResolver: Cleaning up non-shuffle and non-RDD files in executor ExternalShuffleBlockResolver.AppExecId[appId=app-20230825222639-0003,execId=0]'s 1 local dirs
23/08/25 22:56:15 INFO ExternalShuffleBlockResolver: Application app-20230825222639-0003 removed, cleanupLocalDirs = true
23/08/25 22:56:15 INFO Worker: Cleaning up local directories for application app-20230825222639-0003
23/08/25 22:56:15 INFO ExternalShuffleBlockResolver: Cleaning up executor ExternalShuffleBlockResolver.AppExecId[appId=app-20230825222639-0003,execId=0]'s 1 local dirs
23/08/25 22:56:52 INFO Worker: Asked to launch executor app-20230825225652-0004/0 for Recalculo
23/08/25 22:56:52 INFO SecurityManager: Changing view acls to: dell
23/08/25 22:56:52 INFO SecurityManager: Changing modify acls to: dell
23/08/25 22:56:52 INFO SecurityManager: Changing view acls groups to: 
23/08/25 22:56:52 INFO SecurityManager: Changing modify acls groups to: 
23/08/25 22:56:52 INFO SecurityManager: SecurityManager: authentication disabled; ui acls disabled; users  with view permissions: Set(dell); groups with view permissions: Set(); users  with modify permissions: Set(dell); groups with modify permissions: Set()
23/08/25 22:56:52 INFO ExecutorRunner: Launch command: "/usr/lib/jvm/java-17-openjdk-amd64/bin/java" "-cp" "/home/dell/Documentos/TFM/spark/conf/:/home/dell/Documentos/TFM/spark/jars/*" "-Xmx1024M" "-Dspark.driver.port=37731" "-XX:+IgnoreUnrecognizedVMOptions" "--add-opens=java.base/java.lang=ALL-UNNAMED" "--add-opens=java.base/java.lang.invoke=ALL-UNNAMED" "--add-opens=java.base/java.lang.reflect=ALL-UNNAMED" "--add-opens=java.base/java.io=ALL-UNNAMED" "--add-opens=java.base/java.net=ALL-UNNAMED" "--add-opens=java.base/java.nio=ALL-UNNAMED" "--add-opens=java.base/java.util=ALL-UNNAMED" "--add-opens=java.base/java.util.concurrent=ALL-UNNAMED" "--add-opens=java.base/java.util.concurrent.atomic=ALL-UNNAMED" "--add-opens=java.base/sun.nio.ch=ALL-UNNAMED" "--add-opens=java.base/sun.nio.cs=ALL-UNNAMED" "--add-opens=java.base/sun.security.action=ALL-UNNAMED" "--add-opens=java.base/sun.util.calendar=ALL-UNNAMED" "--add-opens=java.security.jgss/sun.security.krb5=ALL-UNNAMED" "org.apache.spark.executor.CoarseGrainedExecutorBackend" "--driver-url" "spark://CoarseGrainedScheduler@dell-Vostro-3558tion.lan:37731" "--executor-id" "0" "--hostname" "172.18.0.1" "--cores" "4" "--app-id" "app-20230825225652-0004" "--worker-url" "spark://Worker@172.18.0.1:44295"
23/08/25 22:57:00 INFO ExternalShuffleBlockResolver: Registered executor ExternalShuffleBlockResolver.AppExecId[appId=app-20230825225652-0004,execId=0] with ExecutorShuffleInfo[localDirs=[/tmp/spark-e72fa5cd-2e50-4439-86a9-f917619df19f/executor-1aeb1295-e81e-4663-ba4b-14dddf2ee4e4/blockmgr-3149bc30-c633-4870-bcdb-32c4a10078b5],subDirsPerLocalDir=64,shuffleManager=org.apache.spark.shuffle.sort.SortShuffleManager]
23/08/25 23:04:22 INFO Worker: Asked to kill executor app-20230825225652-0004/0
23/08/25 23:04:22 INFO ExecutorRunner: Runner thread for executor app-20230825225652-0004/0 interrupted
23/08/25 23:04:22 INFO ExecutorRunner: Killing process!
23/08/25 23:04:22 INFO Worker: Executor app-20230825225652-0004/0 finished with state KILLED exitStatus 143
23/08/25 23:04:22 INFO ExternalShuffleBlockResolver: Clean up non-shuffle and non-RDD files associated with the finished executor 0
23/08/25 23:04:22 INFO ExternalShuffleBlockResolver: Cleaning up non-shuffle and non-RDD files in executor ExternalShuffleBlockResolver.AppExecId[appId=app-20230825225652-0004,execId=0]'s 1 local dirs
23/08/25 23:04:22 INFO Worker: Cleaning up local directories for application app-20230825225652-0004
23/08/25 23:04:22 INFO ExternalShuffleBlockResolver: Application app-20230825225652-0004 removed, cleanupLocalDirs = true
23/08/25 23:04:22 INFO ExternalShuffleBlockResolver: Cleaning up executor ExternalShuffleBlockResolver.AppExecId[appId=app-20230825225652-0004,execId=0]'s 1 local dirs
23/08/25 23:04:22 ERROR ExternalShuffleBlockResolver: Failed to delete files not served by shuffle service in directory: /tmp/spark-e72fa5cd-2e50-4439-86a9-f917619df19f/executor-1aeb1295-e81e-4663-ba4b-14dddf2ee4e4/blockmgr-3149bc30-c633-4870-bcdb-32c4a10078b5
java.io.IOException: Failed to list files for dir: /tmp/spark-e72fa5cd-2e50-4439-86a9-f917619df19f/executor-1aeb1295-e81e-4663-ba4b-14dddf2ee4e4/blockmgr-3149bc30-c633-4870-bcdb-32c4a10078b5/24
	at org.apache.spark.network.util.JavaUtils.listFilesSafely(JavaUtils.java:179)
	at org.apache.spark.network.util.JavaUtils.deleteRecursivelyUsingJavaIO(JavaUtils.java:126)
	at org.apache.spark.network.util.JavaUtils.deleteRecursively(JavaUtils.java:118)
	at org.apache.spark.network.util.JavaUtils.deleteRecursivelyUsingJavaIO(JavaUtils.java:128)
	at org.apache.spark.network.util.JavaUtils.deleteRecursively(JavaUtils.java:118)
	at org.apache.spark.network.shuffle.ExternalShuffleBlockResolver.deleteNonShuffleServiceServedFiles(ExternalShuffleBlockResolver.java:287)
	at org.apache.spark.network.shuffle.ExternalShuffleBlockResolver.lambda$executorRemoved$2(ExternalShuffleBlockResolver.java:255)
	at java.base/java.util.concurrent.ThreadPoolExecutor.runWorker(ThreadPoolExecutor.java:1136)
	at java.base/java.util.concurrent.ThreadPoolExecutor$Worker.run(ThreadPoolExecutor.java:635)
	at io.netty.util.concurrent.FastThreadLocalRunnable.run(FastThreadLocalRunnable.java:30)
	at java.base/java.lang.Thread.run(Thread.java:833)
23/08/26 00:24:13 INFO Worker: Asked to launch executor app-20230826002413-0005/0 for Filtrado
23/08/26 00:24:14 INFO SecurityManager: Changing view acls to: dell
23/08/26 00:24:14 INFO SecurityManager: Changing modify acls to: dell
23/08/26 00:24:14 INFO SecurityManager: Changing view acls groups to: 
23/08/26 00:24:14 INFO SecurityManager: Changing modify acls groups to: 
23/08/26 00:24:14 INFO SecurityManager: SecurityManager: authentication disabled; ui acls disabled; users  with view permissions: Set(dell); groups with view permissions: Set(); users  with modify permissions: Set(dell); groups with modify permissions: Set()
23/08/26 00:24:14 INFO ExecutorRunner: Launch command: "/usr/lib/jvm/java-17-openjdk-amd64/bin/java" "-cp" "/home/dell/Documentos/TFM/spark/conf/:/home/dell/Documentos/TFM/spark/jars/*" "-Xmx1024M" "-Dspark.driver.port=36649" "-XX:+IgnoreUnrecognizedVMOptions" "--add-opens=java.base/java.lang=ALL-UNNAMED" "--add-opens=java.base/java.lang.invoke=ALL-UNNAMED" "--add-opens=java.base/java.lang.reflect=ALL-UNNAMED" "--add-opens=java.base/java.io=ALL-UNNAMED" "--add-opens=java.base/java.net=ALL-UNNAMED" "--add-opens=java.base/java.nio=ALL-UNNAMED" "--add-opens=java.base/java.util=ALL-UNNAMED" "--add-opens=java.base/java.util.concurrent=ALL-UNNAMED" "--add-opens=java.base/java.util.concurrent.atomic=ALL-UNNAMED" "--add-opens=java.base/sun.nio.ch=ALL-UNNAMED" "--add-opens=java.base/sun.nio.cs=ALL-UNNAMED" "--add-opens=java.base/sun.security.action=ALL-UNNAMED" "--add-opens=java.base/sun.util.calendar=ALL-UNNAMED" "--add-opens=java.security.jgss/sun.security.krb5=ALL-UNNAMED" "org.apache.spark.executor.CoarseGrainedExecutorBackend" "--driver-url" "spark://CoarseGrainedScheduler@dell-Vostro-3558tion.lan:36649" "--executor-id" "0" "--hostname" "172.18.0.1" "--cores" "1" "--app-id" "app-20230826002413-0005" "--worker-url" "spark://Worker@172.18.0.1:44295"
23/08/26 00:24:28 INFO ExternalShuffleBlockResolver: Registered executor ExternalShuffleBlockResolver.AppExecId[appId=app-20230826002413-0005,execId=0] with ExecutorShuffleInfo[localDirs=[/tmp/spark-e72fa5cd-2e50-4439-86a9-f917619df19f/executor-9a32c499-50b6-420f-8b6f-3f40032499dd/blockmgr-58470ce3-d1da-4329-bd1c-5c9d88215ec5],subDirsPerLocalDir=64,shuffleManager=org.apache.spark.shuffle.sort.SortShuffleManager]
23/08/26 00:24:38 INFO Worker: Asked to kill executor app-20230826002413-0005/0
23/08/26 00:24:38 INFO ExecutorRunner: Runner thread for executor app-20230826002413-0005/0 interrupted
23/08/26 00:24:38 INFO ExecutorRunner: Killing process!
23/08/26 00:24:38 INFO Worker: Executor app-20230826002413-0005/0 finished with state KILLED exitStatus 0
23/08/26 00:24:38 INFO ExternalShuffleBlockResolver: Clean up non-shuffle and non-RDD files associated with the finished executor 0
23/08/26 00:24:38 INFO ExternalShuffleBlockResolver: Cleaning up non-shuffle and non-RDD files in executor ExternalShuffleBlockResolver.AppExecId[appId=app-20230826002413-0005,execId=0]'s 1 local dirs
23/08/26 00:24:38 INFO ExternalShuffleBlockResolver: Application app-20230826002413-0005 removed, cleanupLocalDirs = true
23/08/26 00:24:38 INFO ExternalShuffleBlockResolver: Cleaning up executor ExternalShuffleBlockResolver.AppExecId[appId=app-20230826002413-0005,execId=0]'s 1 local dirs
23/08/26 00:24:38 INFO Worker: Cleaning up local directories for application app-20230826002413-0005
23/08/26 01:05:00 ERROR Worker: RECEIVED SIGNAL TERM
23/08/26 01:05:00 INFO ShutdownHookManager: Shutdown hook called
23/08/26 01:05:00 INFO ShutdownHookManager: Deleting directory /tmp/spark-e72fa5cd-2e50-4439-86a9-f917619df19f
