Spark Command: /usr/lib/jvm/java-17-openjdk-amd64/bin/java -cp /home/dell/Documentos/TFM/spark/conf/:/home/dell/Documentos/TFM/spark/jars/* -Xmx1g org.apache.spark.deploy.worker.Worker --webui-port 8081 spark://127.0.0.1:7077
========================================
Using Spark's default log4j profile: org/apache/spark/log4j2-defaults.properties
23/08/14 21:26:26 INFO Worker: Started daemon with process name: 224862@dell-Vostro-3558tion
23/08/14 21:26:26 INFO SignalUtils: Registering signal handler for TERM
23/08/14 21:26:26 INFO SignalUtils: Registering signal handler for HUP
23/08/14 21:26:26 INFO SignalUtils: Registering signal handler for INT
23/08/14 21:26:26 WARN Utils: Your hostname, dell-Vostro-3558tion resolves to a loopback address: 127.0.1.1; using 192.168.1.184 instead (on interface wlp6s0)
23/08/14 21:26:26 WARN Utils: Set SPARK_LOCAL_IP if you need to bind to another address
23/08/14 21:26:27 WARN NativeCodeLoader: Unable to load native-hadoop library for your platform... using builtin-java classes where applicable
23/08/14 21:26:27 INFO SecurityManager: Changing view acls to: dell
23/08/14 21:26:27 INFO SecurityManager: Changing modify acls to: dell
23/08/14 21:26:27 INFO SecurityManager: Changing view acls groups to: 
23/08/14 21:26:27 INFO SecurityManager: Changing modify acls groups to: 
23/08/14 21:26:27 INFO SecurityManager: SecurityManager: authentication disabled; ui acls disabled; users  with view permissions: Set(dell); groups with view permissions: Set(); users  with modify permissions: Set(dell); groups with modify permissions: Set()
23/08/14 21:26:28 INFO Utils: Successfully started service 'sparkWorker' on port 34187.
23/08/14 21:26:28 INFO Worker: Worker decommissioning not enabled.
23/08/14 21:26:28 WARN ExternalShuffleService: 'spark.local.dir' should be set first when we use db in ExternalShuffleService. Note that this only affects standalone mode.
23/08/14 21:26:28 INFO Worker: Starting Spark worker 192.168.1.184:34187 with 4 cores, 6.7 GiB RAM
23/08/14 21:26:28 INFO Worker: Running Spark version 3.3.1
23/08/14 21:26:28 INFO Worker: Spark home: /home/dell/Documentos/TFM/spark
23/08/14 21:26:28 INFO ExternalShuffleService: Starting shuffle service on port 7337 (auth enabled = false)
23/08/14 21:26:28 INFO ResourceUtils: ==============================================================
23/08/14 21:26:28 INFO ResourceUtils: No custom resources configured for spark.worker.
23/08/14 21:26:28 INFO ResourceUtils: ==============================================================
23/08/14 21:26:28 INFO Utils: Successfully started service 'WorkerUI' on port 8081.
23/08/14 21:26:29 INFO WorkerWebUI: Bound WorkerWebUI to 0.0.0.0, and started at http://dell-Vostro-3558tion.lan:8081
23/08/14 21:26:29 INFO Worker: Connecting to master 127.0.0.1:7077...
23/08/14 21:26:29 INFO TransportClientFactory: Successfully created connection to /127.0.0.1:7077 after 91 ms (0 ms spent in bootstraps)
23/08/14 21:26:29 INFO Worker: Successfully registered with master spark://0.0.0.0:7077
23/08/14 21:26:52 INFO Worker: Asked to launch executor app-20230814212651-0000/0 for Filtrado
23/08/14 21:26:52 INFO SecurityManager: Changing view acls to: dell
23/08/14 21:26:52 INFO SecurityManager: Changing modify acls to: dell
23/08/14 21:26:52 INFO SecurityManager: Changing view acls groups to: 
23/08/14 21:26:52 INFO SecurityManager: Changing modify acls groups to: 
23/08/14 21:26:52 INFO SecurityManager: SecurityManager: authentication disabled; ui acls disabled; users  with view permissions: Set(dell); groups with view permissions: Set(); users  with modify permissions: Set(dell); groups with modify permissions: Set()
23/08/14 21:26:52 INFO ExecutorRunner: Launch command: "/usr/lib/jvm/java-17-openjdk-amd64/bin/java" "-cp" "/home/dell/Documentos/TFM/spark/conf/:/home/dell/Documentos/TFM/spark/jars/*" "-Xmx1024M" "-Dspark.driver.port=37079" "-XX:+IgnoreUnrecognizedVMOptions" "--add-opens=java.base/java.lang=ALL-UNNAMED" "--add-opens=java.base/java.lang.invoke=ALL-UNNAMED" "--add-opens=java.base/java.lang.reflect=ALL-UNNAMED" "--add-opens=java.base/java.io=ALL-UNNAMED" "--add-opens=java.base/java.net=ALL-UNNAMED" "--add-opens=java.base/java.nio=ALL-UNNAMED" "--add-opens=java.base/java.util=ALL-UNNAMED" "--add-opens=java.base/java.util.concurrent=ALL-UNNAMED" "--add-opens=java.base/java.util.concurrent.atomic=ALL-UNNAMED" "--add-opens=java.base/sun.nio.ch=ALL-UNNAMED" "--add-opens=java.base/sun.nio.cs=ALL-UNNAMED" "--add-opens=java.base/sun.security.action=ALL-UNNAMED" "--add-opens=java.base/sun.util.calendar=ALL-UNNAMED" "--add-opens=java.security.jgss/sun.security.krb5=ALL-UNNAMED" "org.apache.spark.executor.CoarseGrainedExecutorBackend" "--driver-url" "spark://CoarseGrainedScheduler@dell-Vostro-3558tion.lan:37079" "--executor-id" "0" "--hostname" "192.168.1.184" "--cores" "1" "--app-id" "app-20230814212651-0000" "--worker-url" "spark://Worker@192.168.1.184:34187"
23/08/14 21:27:02 INFO ExternalShuffleBlockResolver: Registered executor ExternalShuffleBlockResolver.AppExecId[appId=app-20230814212651-0000,execId=0] with ExecutorShuffleInfo[localDirs=[/tmp/spark-9e167080-2388-45f1-8cd0-e53788abad8d/executor-4590712a-caff-408b-ad64-3f3f3a03dbca/blockmgr-d553ea8d-0ae5-4048-9e4a-73fd71401094],subDirsPerLocalDir=64,shuffleManager=org.apache.spark.shuffle.sort.SortShuffleManager]
23/08/14 21:28:26 INFO Worker: Asked to kill executor app-20230814212651-0000/0
23/08/14 21:28:26 INFO ExecutorRunner: Runner thread for executor app-20230814212651-0000/0 interrupted
23/08/14 21:28:26 INFO ExecutorRunner: Killing process!
23/08/14 21:28:27 INFO Worker: Executor app-20230814212651-0000/0 finished with state KILLED exitStatus 0
23/08/14 21:28:27 INFO ExternalShuffleBlockResolver: Clean up non-shuffle and non-RDD files associated with the finished executor 0
23/08/14 21:28:27 INFO ExternalShuffleBlockResolver: Cleaning up non-shuffle and non-RDD files in executor ExternalShuffleBlockResolver.AppExecId[appId=app-20230814212651-0000,execId=0]'s 1 local dirs
23/08/14 21:28:27 INFO ExternalShuffleBlockResolver: Application app-20230814212651-0000 removed, cleanupLocalDirs = true
23/08/14 21:28:27 INFO ExternalShuffleBlockResolver: Cleaning up executor ExternalShuffleBlockResolver.AppExecId[appId=app-20230814212651-0000,execId=0]'s 1 local dirs
23/08/14 21:28:27 INFO Worker: Cleaning up local directories for application app-20230814212651-0000
23/08/14 21:30:28 INFO Worker: Asked to launch executor app-20230814213028-0001/0 for Filtrado
23/08/14 21:30:28 INFO SecurityManager: Changing view acls to: dell
23/08/14 21:30:28 INFO SecurityManager: Changing modify acls to: dell
23/08/14 21:30:28 INFO SecurityManager: Changing view acls groups to: 
23/08/14 21:30:28 INFO SecurityManager: Changing modify acls groups to: 
23/08/14 21:30:28 INFO SecurityManager: SecurityManager: authentication disabled; ui acls disabled; users  with view permissions: Set(dell); groups with view permissions: Set(); users  with modify permissions: Set(dell); groups with modify permissions: Set()
23/08/14 21:30:28 INFO ExecutorRunner: Launch command: "/usr/lib/jvm/java-17-openjdk-amd64/bin/java" "-cp" "/home/dell/Documentos/TFM/spark/conf/:/home/dell/Documentos/TFM/spark/jars/*" "-Xmx1024M" "-Dspark.driver.port=35473" "-XX:+IgnoreUnrecognizedVMOptions" "--add-opens=java.base/java.lang=ALL-UNNAMED" "--add-opens=java.base/java.lang.invoke=ALL-UNNAMED" "--add-opens=java.base/java.lang.reflect=ALL-UNNAMED" "--add-opens=java.base/java.io=ALL-UNNAMED" "--add-opens=java.base/java.net=ALL-UNNAMED" "--add-opens=java.base/java.nio=ALL-UNNAMED" "--add-opens=java.base/java.util=ALL-UNNAMED" "--add-opens=java.base/java.util.concurrent=ALL-UNNAMED" "--add-opens=java.base/java.util.concurrent.atomic=ALL-UNNAMED" "--add-opens=java.base/sun.nio.ch=ALL-UNNAMED" "--add-opens=java.base/sun.nio.cs=ALL-UNNAMED" "--add-opens=java.base/sun.security.action=ALL-UNNAMED" "--add-opens=java.base/sun.util.calendar=ALL-UNNAMED" "--add-opens=java.security.jgss/sun.security.krb5=ALL-UNNAMED" "org.apache.spark.executor.CoarseGrainedExecutorBackend" "--driver-url" "spark://CoarseGrainedScheduler@dell-Vostro-3558tion.lan:35473" "--executor-id" "0" "--hostname" "192.168.1.184" "--cores" "1" "--app-id" "app-20230814213028-0001" "--worker-url" "spark://Worker@192.168.1.184:34187"
23/08/14 21:30:37 INFO ExternalShuffleBlockResolver: Registered executor ExternalShuffleBlockResolver.AppExecId[appId=app-20230814213028-0001,execId=0] with ExecutorShuffleInfo[localDirs=[/tmp/spark-9e167080-2388-45f1-8cd0-e53788abad8d/executor-df5650bf-33c6-4833-89e2-223d91f73596/blockmgr-9a1b3ca7-a2cd-4cae-a249-e9927cee5afc],subDirsPerLocalDir=64,shuffleManager=org.apache.spark.shuffle.sort.SortShuffleManager]
23/08/14 21:30:58 INFO Worker: Asked to kill executor app-20230814213028-0001/0
23/08/14 21:30:58 INFO ExecutorRunner: Runner thread for executor app-20230814213028-0001/0 interrupted
23/08/14 21:30:58 INFO ExecutorRunner: Killing process!
23/08/14 21:30:58 INFO Worker: Executor app-20230814213028-0001/0 finished with state KILLED exitStatus 143
23/08/14 21:30:58 INFO ExternalShuffleBlockResolver: Clean up non-shuffle and non-RDD files associated with the finished executor 0
23/08/14 21:30:58 INFO ExternalShuffleBlockResolver: Cleaning up non-shuffle and non-RDD files in executor ExternalShuffleBlockResolver.AppExecId[appId=app-20230814213028-0001,execId=0]'s 1 local dirs
23/08/14 21:30:58 INFO Worker: Cleaning up local directories for application app-20230814213028-0001
23/08/14 21:30:58 INFO ExternalShuffleBlockResolver: Application app-20230814213028-0001 removed, cleanupLocalDirs = true
23/08/14 21:30:58 INFO ExternalShuffleBlockResolver: Cleaning up executor ExternalShuffleBlockResolver.AppExecId[appId=app-20230814213028-0001,execId=0]'s 1 local dirs
23/08/14 21:31:04 ERROR Worker: RECEIVED SIGNAL TERM
23/08/14 21:31:04 INFO ShutdownHookManager: Shutdown hook called
23/08/14 21:31:04 INFO ShutdownHookManager: Deleting directory /tmp/spark-9e167080-2388-45f1-8cd0-e53788abad8d
