Spark Command: /usr/lib/jvm/java-17-openjdk-amd64/bin/java -cp /home/dell/Documentos/TFM/spark/conf/:/home/dell/Documentos/TFM/spark/jars/* -Xmx1g org.apache.spark.deploy.master.Master --host dell-Vostro-3558tion --port 7077 --webui-port 8080
========================================
Using Spark's default log4j profile: org/apache/spark/log4j2-defaults.properties
23/08/25 21:08:12 INFO Master: Started daemon with process name: 65066@dell-Vostro-3558tion
23/08/25 21:08:12 INFO SignalUtils: Registering signal handler for TERM
23/08/25 21:08:12 INFO SignalUtils: Registering signal handler for HUP
23/08/25 21:08:12 INFO SignalUtils: Registering signal handler for INT
23/08/25 21:08:12 WARN Utils: Your hostname, dell-Vostro-3558tion resolves to a loopback address: 127.0.1.1; using 172.18.0.1 instead (on interface br-0e63fc1d7bb3)
23/08/25 21:08:12 WARN Utils: Set SPARK_LOCAL_IP if you need to bind to another address
23/08/25 21:08:13 WARN NativeCodeLoader: Unable to load native-hadoop library for your platform... using builtin-java classes where applicable
23/08/25 21:08:13 INFO SecurityManager: Changing view acls to: dell
23/08/25 21:08:13 INFO SecurityManager: Changing modify acls to: dell
23/08/25 21:08:13 INFO SecurityManager: Changing view acls groups to: 
23/08/25 21:08:13 INFO SecurityManager: Changing modify acls groups to: 
23/08/25 21:08:13 INFO SecurityManager: SecurityManager: authentication disabled; ui acls disabled; users  with view permissions: Set(dell); groups with view permissions: Set(); users  with modify permissions: Set(dell); groups with modify permissions: Set()
23/08/25 21:08:13 INFO Utils: Successfully started service 'sparkMaster' on port 7077.
23/08/25 21:08:13 INFO Master: Starting Spark master at spark://dell-Vostro-3558tion:7077
23/08/25 21:08:14 INFO Master: Running Spark version 3.3.1
23/08/25 21:08:14 INFO Utils: Successfully started service 'MasterUI' on port 8080.
23/08/25 21:08:14 INFO MasterWebUI: Bound MasterWebUI to 0.0.0.0, and started at http://172.18.0.1:8080
23/08/25 21:08:14 INFO Master: I have been elected leader! New state: ALIVE
23/08/25 21:09:02 INFO Master: Registering worker 172.18.0.1:37885 with 4 cores, 6.7 GiB RAM
23/08/25 21:11:12 ERROR Master: RECEIVED SIGNAL TERM
