Spark Command: /usr/lib/jvm/java-17-openjdk-amd64/bin/java -cp /home/dell/Documentos/TFM/spark/conf/:/home/dell/Documentos/TFM/spark/jars/* -Xmx1g org.apache.spark.deploy.worker.Worker --webui-port 8081 spark::localhost
========================================
Using Spark's default log4j profile: org/apache/spark/log4j2-defaults.properties
23/08/25 21:08:36 INFO Worker: Started daemon with process name: 65214@dell-Vostro-3558tion
23/08/25 21:08:36 INFO SignalUtils: Registering signal handler for TERM
23/08/25 21:08:36 INFO SignalUtils: Registering signal handler for HUP
23/08/25 21:08:36 INFO SignalUtils: Registering signal handler for INT
23/08/25 21:08:36 WARN Utils: Your hostname, dell-Vostro-3558tion resolves to a loopback address: 127.0.1.1; using 172.18.0.1 instead (on interface br-0e63fc1d7bb3)
23/08/25 21:08:36 WARN Utils: Set SPARK_LOCAL_IP if you need to bind to another address
23/08/25 21:08:37 WARN NativeCodeLoader: Unable to load native-hadoop library for your platform... using builtin-java classes where applicable
23/08/25 21:08:37 INFO SecurityManager: Changing view acls to: dell
23/08/25 21:08:37 INFO SecurityManager: Changing modify acls to: dell
23/08/25 21:08:37 INFO SecurityManager: Changing view acls groups to: 
23/08/25 21:08:37 INFO SecurityManager: Changing modify acls groups to: 
23/08/25 21:08:37 INFO SecurityManager: SecurityManager: authentication disabled; ui acls disabled; users  with view permissions: Set(dell); groups with view permissions: Set(); users  with modify permissions: Set(dell); groups with modify permissions: Set()
23/08/25 21:08:37 INFO Utils: Successfully started service 'sparkWorker' on port 44853.
23/08/25 21:08:37 ERROR SparkUncaughtExceptionHandler: Uncaught exception in thread Thread[main,5,main]
org.apache.spark.SparkException: Invalid master URL: spark://spark::localhost
	at org.apache.spark.util.Utils$.extractHostPortFromSparkUrl(Utils.scala:2546)
	at org.apache.spark.rpc.RpcAddress$.fromSparkURL(RpcAddress.scala:47)
	at org.apache.spark.deploy.worker.Worker$.$anonfun$startRpcEnvAndEndpoint$3(Worker.scala:965)
	at scala.collection.TraversableLike.$anonfun$map$1(TraversableLike.scala:286)
	at scala.collection.IndexedSeqOptimized.foreach(IndexedSeqOptimized.scala:36)
	at scala.collection.IndexedSeqOptimized.foreach$(IndexedSeqOptimized.scala:33)
	at scala.collection.mutable.ArrayOps$ofRef.foreach(ArrayOps.scala:198)
	at scala.collection.TraversableLike.map(TraversableLike.scala:286)
	at scala.collection.TraversableLike.map$(TraversableLike.scala:279)
	at scala.collection.mutable.ArrayOps$ofRef.map(ArrayOps.scala:198)
	at org.apache.spark.deploy.worker.Worker$.startRpcEnvAndEndpoint(Worker.scala:965)
	at org.apache.spark.deploy.worker.Worker$.main(Worker.scala:934)
	at org.apache.spark.deploy.worker.Worker.main(Worker.scala)
23/08/25 21:08:37 INFO ShutdownHookManager: Shutdown hook called
