Spark Command: /usr/lib/jvm/java-17-openjdk-amd64/bin/java -cp /home/dell/Documentos/TFM/spark/conf/:/home/dell/Documentos/TFM/spark/jars/* -Xmx1g org.apache.spark.deploy.master.Master --host dell-Vostro-3558tion --port 7077 --webui-port 8080 -h 0.0.0.0
========================================
Using Spark's default log4j profile: org/apache/spark/log4j2-defaults.properties
23/08/14 21:31:17 INFO Master: Started daemon with process name: 226091@dell-Vostro-3558tion
23/08/14 21:31:17 INFO SignalUtils: Registering signal handler for TERM
23/08/14 21:31:17 INFO SignalUtils: Registering signal handler for HUP
23/08/14 21:31:17 INFO SignalUtils: Registering signal handler for INT
23/08/14 21:31:17 WARN Utils: Your hostname, dell-Vostro-3558tion resolves to a loopback address: 127.0.1.1; using 192.168.1.184 instead (on interface wlp6s0)
23/08/14 21:31:17 WARN Utils: Set SPARK_LOCAL_IP if you need to bind to another address
23/08/14 21:31:18 WARN NativeCodeLoader: Unable to load native-hadoop library for your platform... using builtin-java classes where applicable
23/08/14 21:31:18 INFO SecurityManager: Changing view acls to: dell
23/08/14 21:31:18 INFO SecurityManager: Changing modify acls to: dell
23/08/14 21:31:18 INFO SecurityManager: Changing view acls groups to: 
23/08/14 21:31:18 INFO SecurityManager: Changing modify acls groups to: 
23/08/14 21:31:18 INFO SecurityManager: SecurityManager: authentication disabled; ui acls disabled; users  with view permissions: Set(dell); groups with view permissions: Set(); users  with modify permissions: Set(dell); groups with modify permissions: Set()
23/08/14 21:31:19 INFO Utils: Successfully started service 'sparkMaster' on port 7077.
23/08/14 21:31:19 INFO Master: Starting Spark master at spark://0.0.0.0:7077
23/08/14 21:31:19 INFO Master: Running Spark version 3.3.1
23/08/14 21:31:19 INFO Utils: Successfully started service 'MasterUI' on port 8080.
23/08/14 21:31:19 INFO MasterWebUI: Bound MasterWebUI to 0.0.0.0, and started at http://dell-Vostro-3558tion.lan:8080
23/08/14 21:31:19 INFO Master: I have been elected leader! New state: ALIVE
23/08/14 21:31:26 INFO Master: Registering worker 192.168.1.184:46429 with 4 cores, 6.7 GiB RAM
23/08/14 21:31:32 INFO Master: Registering app Filtrado
23/08/14 21:31:32 INFO Master: Registered app Filtrado with ID app-20230814213132-0000
23/08/14 21:31:32 INFO Master: Application app-20230814213132-0000 requested to set total executors to 1.
23/08/14 21:31:32 INFO Master: Launching executor app-20230814213132-0000/0 on worker worker-20230814213125-192.168.1.184-46429
23/08/14 21:32:00 INFO Master: Received unregister request from application app-20230814213132-0000
23/08/14 21:32:00 INFO Master: Removing app app-20230814213132-0000
23/08/14 21:32:00 INFO Master: 127.0.0.1:43320 got disassociated, removing it.
23/08/14 21:32:00 INFO Master: dell-Vostro-3558tion.lan:35389 got disassociated, removing it.
23/08/14 21:32:00 WARN Master: Got status update for unknown executor app-20230814213132-0000/0
23/08/14 21:51:11 INFO Master: Registering app Filtrado
23/08/14 21:51:11 INFO Master: Registered app Filtrado with ID app-20230814215111-0001
23/08/14 21:51:12 INFO Master: Application app-20230814215111-0001 requested to set total executors to 1.
23/08/14 21:51:12 INFO Master: Launching executor app-20230814215111-0001/0 on worker worker-20230814213125-192.168.1.184-46429
23/08/14 21:51:19 INFO Master: Received unregister request from application app-20230814215111-0001
23/08/14 21:51:19 INFO Master: Removing app app-20230814215111-0001
23/08/14 21:51:19 INFO Master: 127.0.0.1:52796 got disassociated, removing it.
23/08/14 21:51:19 INFO Master: dell-Vostro-3558tion.lan:41471 got disassociated, removing it.
23/08/14 21:51:19 WARN Master: Got status update for unknown executor app-20230814215111-0001/0
23/08/14 21:52:21 INFO Master: Registering app Validacion
23/08/14 21:52:21 INFO Master: Registered app Validacion with ID app-20230814215221-0002
23/08/14 21:52:21 INFO Master: Application app-20230814215221-0002 requested to set total executors to 1.
23/08/14 21:52:21 INFO Master: Launching executor app-20230814215221-0002/0 on worker worker-20230814213125-192.168.1.184-46429
23/08/14 21:57:12 INFO Master: Received unregister request from application app-20230814215221-0002
23/08/14 21:57:13 INFO Master: Removing app app-20230814215221-0002
23/08/14 21:57:13 INFO Master: 127.0.0.1:36888 got disassociated, removing it.
23/08/14 21:57:13 INFO Master: dell-Vostro-3558tion.lan:45913 got disassociated, removing it.
23/08/14 21:57:13 WARN Master: Got status update for unknown executor app-20230814215221-0002/0
23/08/14 22:06:02 INFO Master: Registering app Validacion
23/08/14 22:06:02 INFO Master: Registered app Validacion with ID app-20230814220602-0003
23/08/14 22:06:03 INFO Master: Application app-20230814220602-0003 requested to set total executors to 1.
23/08/14 22:06:03 INFO Master: Launching executor app-20230814220602-0003/0 on worker worker-20230814213125-192.168.1.184-46429
23/08/14 22:06:23 INFO Master: Registering app Filtrado
23/08/14 22:06:23 INFO Master: Registered app Filtrado with ID app-20230814220623-0004
23/08/14 22:06:23 INFO Master: Application app-20230814220623-0004 requested to set total executors to 1.
23/08/14 22:06:23 INFO Master: Launching executor app-20230814220623-0004/0 on worker worker-20230814213125-192.168.1.184-46429
23/08/14 22:08:18 INFO Master: Received unregister request from application app-20230814220602-0003
23/08/14 22:08:18 INFO Master: Removing app app-20230814220602-0003
23/08/14 22:08:18 INFO Master: 127.0.0.1:35298 got disassociated, removing it.
23/08/14 22:08:18 INFO Master: dell-Vostro-3558tion.lan:44257 got disassociated, removing it.
23/08/14 22:08:18 WARN Master: Got status update for unknown executor app-20230814220602-0003/0
23/08/14 22:08:35 INFO Master: Registering app Recalculo
23/08/14 22:08:35 INFO Master: Registered app Recalculo with ID app-20230814220835-0005
23/08/14 22:08:35 INFO Master: Launching executor app-20230814220835-0005/0 on worker worker-20230814213125-192.168.1.184-46429
23/08/15 10:11:56 INFO Master: Application app-20230814220835-0005 requests to kill executors: 0
23/08/15 10:11:56 INFO Master: Launching executor app-20230814220835-0005/1 on worker worker-20230814213125-192.168.1.184-46429
23/08/15 10:11:56 WARN Master: Got status update for unknown executor app-20230814220835-0005/0
23/08/15 10:13:32 INFO Master: Received unregister request from application app-20230814220623-0004
23/08/15 10:13:32 INFO Master: Removing app app-20230814220623-0004
23/08/15 10:13:33 WARN Master: Got status update for unknown executor app-20230814220623-0004/0
23/08/15 10:13:33 INFO Master: 127.0.0.1:58652 got disassociated, removing it.
23/08/15 10:13:33 INFO Master: dell-Vostro-3558tion.lan:44553 got disassociated, removing it.
23/08/15 10:16:00 INFO Master: 127.0.0.1:57018 got disassociated, removing it.
23/08/15 10:16:00 INFO Master: dell-Vostro-3558tion.lan:32813 got disassociated, removing it.
23/08/15 10:16:00 INFO Master: Removing app app-20230814220835-0005
23/08/15 10:16:00 WARN Master: Got status update for unknown executor app-20230814220835-0005/1
23/08/15 10:17:08 INFO Master: Registering app Filtrado
23/08/15 10:17:08 INFO Master: Registered app Filtrado with ID app-20230815101708-0006
23/08/15 10:17:08 INFO Master: Application app-20230815101708-0006 requested to set total executors to 1.
23/08/15 10:17:08 INFO Master: Launching executor app-20230815101708-0006/0 on worker worker-20230814213125-192.168.1.184-46429
23/08/15 10:26:51 INFO Master: Registering app Recalculo
23/08/15 10:26:51 INFO Master: Registered app Recalculo with ID app-20230815102651-0007
23/08/15 10:26:51 INFO Master: Launching executor app-20230815102651-0007/0 on worker worker-20230814213125-192.168.1.184-46429
23/08/15 10:28:58 INFO Master: Application app-20230815101708-0006 requested to set total executors to 2.
23/08/15 10:28:59 INFO Master: Application app-20230815101708-0006 requested to set total executors to 3.
23/08/15 10:29:08 INFO Master: Application app-20230815101708-0006 requested to set total executors to 2.
23/08/15 10:29:08 INFO Master: Application app-20230815101708-0006 requested to set total executors to 3.
23/08/15 10:29:10 INFO Master: Application app-20230815101708-0006 requested to set total executors to 2.
23/08/15 10:29:10 INFO Master: Application app-20230815101708-0006 requested to set total executors to 1.
23/08/15 10:29:12 INFO Master: Application app-20230815101708-0006 requested to set total executors to 2.
23/08/15 10:29:12 INFO Master: Application app-20230815101708-0006 requested to set total executors to 1.
23/08/15 10:57:00 INFO Master: Received unregister request from application app-20230815101708-0006
23/08/15 10:57:00 INFO Master: Removing app app-20230815101708-0006
23/08/15 10:57:00 INFO Master: 127.0.0.1:37792 got disassociated, removing it.
23/08/15 10:57:00 INFO Master: dell-Vostro-3558tion.lan:42051 got disassociated, removing it.
23/08/15 10:57:00 WARN Master: Got status update for unknown executor app-20230815101708-0006/0
23/08/15 10:57:14 INFO Master: Received unregister request from application app-20230815102651-0007
23/08/15 10:57:14 INFO Master: Removing app app-20230815102651-0007
23/08/15 10:57:14 INFO Master: 127.0.0.1:36764 got disassociated, removing it.
23/08/15 10:57:14 INFO Master: dell-Vostro-3558tion.lan:41087 got disassociated, removing it.
23/08/15 10:57:14 WARN Master: Got status update for unknown executor app-20230815102651-0007/0
23/08/15 11:01:41 INFO Master: Registering app Validacion
23/08/15 11:01:41 INFO Master: Registered app Validacion with ID app-20230815110141-0008
23/08/15 11:01:41 INFO Master: Application app-20230815110141-0008 requested to set total executors to 1.
23/08/15 11:01:41 INFO Master: Launching executor app-20230815110141-0008/0 on worker worker-20230814213125-192.168.1.184-46429
23/08/15 11:01:57 INFO Master: Registering app Agregacion
23/08/15 11:01:57 INFO Master: Registered app Agregacion with ID app-20230815110157-0009
23/08/15 11:01:57 INFO Master: Launching executor app-20230815110157-0009/0 on worker worker-20230814213125-192.168.1.184-46429
23/08/15 11:02:16 INFO Master: Application app-20230815110141-0008 requested to set total executors to 2.
23/08/15 11:02:17 INFO Master: Application app-20230815110141-0008 requested to set total executors to 3.
23/08/15 11:02:28 INFO Master: Application app-20230815110141-0008 requested to set total executors to 2.
23/08/15 11:02:29 INFO Master: Application app-20230815110141-0008 requested to set total executors to 1.
23/08/15 11:07:11 INFO Master: Application app-20230815110141-0008 requested to set total executors to 2.
23/08/15 11:07:12 INFO Master: Application app-20230815110141-0008 requested to set total executors to 3.
23/08/15 11:07:17 INFO Master: Application app-20230815110141-0008 requested to set total executors to 2.
23/08/15 11:07:17 INFO Master: Application app-20230815110141-0008 requested to set total executors to 1.
23/08/15 11:07:18 INFO Master: Application app-20230815110141-0008 requested to set total executors to 2.
23/08/15 11:07:19 INFO Master: Application app-20230815110141-0008 requested to set total executors to 3.
23/08/15 11:07:23 INFO Master: Application app-20230815110141-0008 requested to set total executors to 1.
23/08/15 11:07:25 INFO Master: Application app-20230815110141-0008 requested to set total executors to 2.
23/08/15 11:07:26 INFO Master: Application app-20230815110141-0008 requested to set total executors to 3.
23/08/15 11:07:30 INFO Master: Application app-20230815110141-0008 requested to set total executors to 2.
23/08/15 11:07:30 INFO Master: Application app-20230815110141-0008 requested to set total executors to 1.
23/08/15 11:07:33 INFO Master: Application app-20230815110141-0008 requested to set total executors to 2.
23/08/15 11:07:34 INFO Master: Application app-20230815110141-0008 requested to set total executors to 3.
23/08/15 11:07:37 INFO Master: Application app-20230815110141-0008 requested to set total executors to 1.
23/08/15 11:07:38 INFO Master: Application app-20230815110141-0008 requested to set total executors to 2.
23/08/15 11:07:39 INFO Master: Application app-20230815110141-0008 requested to set total executors to 3.
23/08/15 11:07:43 INFO Master: Application app-20230815110141-0008 requested to set total executors to 2.
23/08/15 11:07:43 INFO Master: Application app-20230815110141-0008 requested to set total executors to 1.
23/08/15 11:07:47 INFO Master: Application app-20230815110141-0008 requested to set total executors to 2.
23/08/15 11:07:48 INFO Master: Application app-20230815110141-0008 requested to set total executors to 3.
23/08/15 11:07:50 INFO Master: Application app-20230815110141-0008 requested to set total executors to 2.
23/08/15 11:07:50 INFO Master: Application app-20230815110141-0008 requested to set total executors to 1.
23/08/15 11:07:53 INFO Master: Application app-20230815110141-0008 requested to set total executors to 2.
23/08/15 11:07:54 INFO Master: Application app-20230815110141-0008 requested to set total executors to 3.
23/08/15 11:07:55 INFO Master: Application app-20230815110141-0008 requested to set total executors to 2.
23/08/15 11:07:55 INFO Master: Application app-20230815110141-0008 requested to set total executors to 1.
23/08/15 11:07:58 INFO Master: Application app-20230815110141-0008 requested to set total executors to 2.
23/08/15 11:07:59 INFO Master: Application app-20230815110141-0008 requested to set total executors to 3.
23/08/15 11:08:01 INFO Master: Application app-20230815110141-0008 requested to set total executors to 2.
23/08/15 11:08:01 INFO Master: Application app-20230815110141-0008 requested to set total executors to 1.
23/08/15 11:08:03 INFO Master: Application app-20230815110141-0008 requested to set total executors to 2.
23/08/15 11:08:03 INFO Master: Application app-20230815110141-0008 requested to set total executors to 1.
23/08/15 11:08:04 INFO Master: Application app-20230815110141-0008 requested to set total executors to 2.
23/08/15 11:08:05 INFO Master: Application app-20230815110141-0008 requested to set total executors to 3.
23/08/15 11:08:07 INFO Master: Application app-20230815110141-0008 requested to set total executors to 2.
23/08/15 11:08:08 INFO Master: Application app-20230815110141-0008 requested to set total executors to 1.
23/08/15 11:08:11 INFO Master: Application app-20230815110141-0008 requested to set total executors to 2.
23/08/15 11:08:12 INFO Master: Application app-20230815110141-0008 requested to set total executors to 3.
23/08/15 11:08:14 INFO Master: Application app-20230815110141-0008 requested to set total executors to 2.
23/08/15 11:08:14 INFO Master: Application app-20230815110141-0008 requested to set total executors to 1.
23/08/15 11:08:17 INFO Master: Application app-20230815110141-0008 requested to set total executors to 2.
23/08/15 11:08:18 INFO Master: Application app-20230815110141-0008 requested to set total executors to 3.
23/08/15 11:08:20 INFO Master: Application app-20230815110141-0008 requested to set total executors to 1.
23/08/15 11:08:23 INFO Master: Application app-20230815110141-0008 requested to set total executors to 2.
23/08/15 11:08:24 INFO Master: Application app-20230815110141-0008 requested to set total executors to 3.
23/08/15 11:08:25 INFO Master: Application app-20230815110141-0008 requested to set total executors to 2.
23/08/15 11:08:26 INFO Master: Application app-20230815110141-0008 requested to set total executors to 1.
23/08/15 11:08:29 INFO Master: Application app-20230815110141-0008 requested to set total executors to 2.
23/08/15 11:08:30 INFO Master: Application app-20230815110141-0008 requested to set total executors to 3.
23/08/15 11:08:32 INFO Master: Application app-20230815110141-0008 requested to set total executors to 2.
23/08/15 11:08:32 INFO Master: Application app-20230815110141-0008 requested to set total executors to 1.
23/08/15 11:08:35 INFO Master: Application app-20230815110141-0008 requested to set total executors to 2.
23/08/15 11:08:36 INFO Master: Application app-20230815110141-0008 requested to set total executors to 3.
23/08/15 11:08:38 INFO Master: Application app-20230815110141-0008 requested to set total executors to 1.
23/08/15 11:08:41 INFO Master: Application app-20230815110141-0008 requested to set total executors to 2.
23/08/15 11:08:42 INFO Master: Application app-20230815110141-0008 requested to set total executors to 3.
23/08/15 11:08:44 INFO Master: Application app-20230815110141-0008 requested to set total executors to 1.
23/08/15 11:08:46 INFO Master: Application app-20230815110141-0008 requested to set total executors to 2.
23/08/15 11:08:48 INFO Master: Application app-20230815110141-0008 requested to set total executors to 3.
23/08/15 11:08:49 INFO Master: Application app-20230815110141-0008 requested to set total executors to 2.
23/08/15 11:08:49 INFO Master: Application app-20230815110141-0008 requested to set total executors to 1.
23/08/15 11:08:52 INFO Master: Application app-20230815110141-0008 requested to set total executors to 2.
23/08/15 11:08:53 INFO Master: Application app-20230815110141-0008 requested to set total executors to 3.
23/08/15 11:08:54 INFO Master: Application app-20230815110141-0008 requested to set total executors to 1.
23/08/15 11:08:57 INFO Master: Application app-20230815110141-0008 requested to set total executors to 2.
23/08/15 11:08:58 INFO Master: Application app-20230815110141-0008 requested to set total executors to 3.
23/08/15 11:08:59 INFO Master: Application app-20230815110141-0008 requested to set total executors to 1.
23/08/15 11:09:02 INFO Master: Application app-20230815110141-0008 requested to set total executors to 2.
23/08/15 11:09:03 INFO Master: Application app-20230815110141-0008 requested to set total executors to 3.
23/08/15 11:09:05 INFO Master: Application app-20230815110141-0008 requested to set total executors to 1.
23/08/15 11:09:07 INFO Master: Application app-20230815110141-0008 requested to set total executors to 2.
23/08/15 11:09:08 INFO Master: Application app-20230815110141-0008 requested to set total executors to 3.
23/08/15 11:09:09 INFO Master: Application app-20230815110141-0008 requested to set total executors to 2.
23/08/15 11:09:10 INFO Master: Application app-20230815110141-0008 requested to set total executors to 1.
23/08/15 11:09:12 INFO Master: Application app-20230815110141-0008 requested to set total executors to 2.
23/08/15 11:09:13 INFO Master: Application app-20230815110141-0008 requested to set total executors to 3.
23/08/15 11:09:15 INFO Master: Application app-20230815110141-0008 requested to set total executors to 2.
23/08/15 11:09:15 INFO Master: Application app-20230815110141-0008 requested to set total executors to 1.
23/08/15 11:09:17 INFO Master: Application app-20230815110141-0008 requested to set total executors to 2.
23/08/15 11:09:18 INFO Master: Application app-20230815110141-0008 requested to set total executors to 3.
23/08/15 11:09:20 INFO Master: Application app-20230815110141-0008 requested to set total executors to 2.
23/08/15 11:09:20 INFO Master: Application app-20230815110141-0008 requested to set total executors to 1.
23/08/15 11:09:22 INFO Master: Application app-20230815110141-0008 requested to set total executors to 2.
23/08/15 11:09:23 INFO Master: Application app-20230815110141-0008 requested to set total executors to 3.
23/08/15 11:09:25 INFO Master: Application app-20230815110141-0008 requested to set total executors to 2.
23/08/15 11:09:25 INFO Master: Application app-20230815110141-0008 requested to set total executors to 1.
23/08/15 11:09:27 INFO Master: Application app-20230815110141-0008 requested to set total executors to 2.
23/08/15 11:09:28 INFO Master: Application app-20230815110141-0008 requested to set total executors to 3.
23/08/15 11:09:30 INFO Master: Application app-20230815110141-0008 requested to set total executors to 1.
23/08/15 11:09:32 INFO Master: Application app-20230815110141-0008 requested to set total executors to 2.
23/08/15 11:09:33 INFO Master: Application app-20230815110141-0008 requested to set total executors to 3.
23/08/15 11:09:35 INFO Master: Application app-20230815110141-0008 requested to set total executors to 1.
23/08/15 11:09:37 INFO Master: Application app-20230815110141-0008 requested to set total executors to 2.
23/08/15 11:09:38 INFO Master: Application app-20230815110141-0008 requested to set total executors to 3.
23/08/15 11:09:39 INFO Master: Application app-20230815110141-0008 requested to set total executors to 1.
23/08/15 11:09:42 INFO Master: Application app-20230815110141-0008 requested to set total executors to 2.
23/08/15 11:09:43 INFO Master: Application app-20230815110141-0008 requested to set total executors to 3.
23/08/15 11:09:44 INFO Master: Application app-20230815110141-0008 requested to set total executors to 1.
23/08/15 11:09:46 INFO Master: Application app-20230815110141-0008 requested to set total executors to 2.
23/08/15 11:09:47 INFO Master: Application app-20230815110141-0008 requested to set total executors to 3.
23/08/15 11:09:49 INFO Master: Application app-20230815110141-0008 requested to set total executors to 2.
23/08/15 11:09:49 INFO Master: Application app-20230815110141-0008 requested to set total executors to 1.
23/08/15 11:09:50 INFO Master: Application app-20230815110141-0008 requested to set total executors to 2.
23/08/15 11:09:51 INFO Master: Application app-20230815110141-0008 requested to set total executors to 3.
23/08/15 11:09:53 INFO Master: Application app-20230815110141-0008 requested to set total executors to 1.
23/08/15 11:09:56 INFO Master: Application app-20230815110141-0008 requested to set total executors to 2.
23/08/15 11:09:57 INFO Master: Application app-20230815110141-0008 requested to set total executors to 3.
23/08/15 11:09:58 INFO Master: Application app-20230815110141-0008 requested to set total executors to 1.
23/08/15 11:10:00 INFO Master: Application app-20230815110141-0008 requested to set total executors to 2.
23/08/15 11:10:01 INFO Master: Application app-20230815110141-0008 requested to set total executors to 3.
23/08/15 11:10:02 INFO Master: Application app-20230815110141-0008 requested to set total executors to 1.
23/08/15 11:10:05 INFO Master: Application app-20230815110141-0008 requested to set total executors to 2.
23/08/15 11:10:06 INFO Master: Application app-20230815110141-0008 requested to set total executors to 3.
23/08/15 11:10:07 INFO Master: Application app-20230815110141-0008 requested to set total executors to 1.
23/08/15 11:10:10 INFO Master: Application app-20230815110141-0008 requested to set total executors to 2.
23/08/15 11:10:11 INFO Master: Application app-20230815110141-0008 requested to set total executors to 3.
23/08/15 11:10:11 INFO Master: Application app-20230815110141-0008 requested to set total executors to 2.
23/08/15 11:10:11 INFO Master: Application app-20230815110141-0008 requested to set total executors to 1.
23/08/15 11:10:14 INFO Master: Application app-20230815110141-0008 requested to set total executors to 2.
23/08/15 11:10:15 INFO Master: Application app-20230815110141-0008 requested to set total executors to 3.
23/08/15 11:10:16 INFO Master: Application app-20230815110141-0008 requested to set total executors to 1.
23/08/15 11:10:19 INFO Master: Application app-20230815110141-0008 requested to set total executors to 2.
23/08/15 11:10:20 INFO Master: Application app-20230815110141-0008 requested to set total executors to 3.
23/08/15 11:10:21 INFO Master: Application app-20230815110141-0008 requested to set total executors to 1.
23/08/15 11:10:24 INFO Master: Application app-20230815110141-0008 requested to set total executors to 2.
23/08/15 11:10:25 INFO Master: Application app-20230815110141-0008 requested to set total executors to 3.
23/08/15 11:10:27 INFO Master: Application app-20230815110141-0008 requested to set total executors to 1.
23/08/15 11:10:28 INFO Master: Application app-20230815110141-0008 requested to set total executors to 2.
23/08/15 11:10:28 INFO Master: Application app-20230815110141-0008 requested to set total executors to 1.
23/08/15 11:10:29 INFO Master: Application app-20230815110141-0008 requested to set total executors to 2.
23/08/15 11:10:30 INFO Master: Application app-20230815110141-0008 requested to set total executors to 3.
23/08/15 11:10:31 INFO Master: Application app-20230815110141-0008 requested to set total executors to 2.
23/08/15 11:10:31 INFO Master: Application app-20230815110141-0008 requested to set total executors to 1.
23/08/15 11:10:33 INFO Master: Application app-20230815110141-0008 requested to set total executors to 2.
23/08/15 11:10:34 INFO Master: Application app-20230815110141-0008 requested to set total executors to 3.
23/08/15 11:10:35 INFO Master: Application app-20230815110141-0008 requested to set total executors to 1.
23/08/15 11:10:37 INFO Master: Application app-20230815110141-0008 requested to set total executors to 2.
23/08/15 11:10:38 INFO Master: Application app-20230815110141-0008 requested to set total executors to 3.
23/08/15 11:10:39 INFO Master: Application app-20230815110141-0008 requested to set total executors to 2.
23/08/15 11:10:40 INFO Master: Application app-20230815110141-0008 requested to set total executors to 1.
23/08/15 11:10:42 INFO Master: Application app-20230815110141-0008 requested to set total executors to 2.
23/08/15 11:10:43 INFO Master: Application app-20230815110141-0008 requested to set total executors to 3.
23/08/15 11:10:44 INFO Master: Application app-20230815110141-0008 requested to set total executors to 1.
23/08/15 11:10:47 INFO Master: Application app-20230815110141-0008 requested to set total executors to 2.
23/08/15 11:10:48 INFO Master: Application app-20230815110141-0008 requested to set total executors to 3.
23/08/15 11:10:50 INFO Master: Application app-20230815110141-0008 requested to set total executors to 1.
23/08/15 11:10:52 INFO Master: Application app-20230815110141-0008 requested to set total executors to 2.
23/08/15 11:10:53 INFO Master: Application app-20230815110141-0008 requested to set total executors to 3.
23/08/15 11:10:54 INFO Master: Application app-20230815110141-0008 requested to set total executors to 1.
23/08/15 11:10:57 INFO Master: Application app-20230815110141-0008 requested to set total executors to 2.
23/08/15 11:10:58 INFO Master: Application app-20230815110141-0008 requested to set total executors to 3.
23/08/15 11:10:59 INFO Master: Application app-20230815110141-0008 requested to set total executors to 1.
23/08/15 11:11:01 INFO Master: Application app-20230815110141-0008 requested to set total executors to 2.
23/08/15 11:11:02 INFO Master: Application app-20230815110141-0008 requested to set total executors to 3.
23/08/15 11:11:02 INFO Master: Application app-20230815110141-0008 requested to set total executors to 2.
23/08/15 11:11:03 INFO Master: Application app-20230815110141-0008 requested to set total executors to 1.
23/08/15 11:11:05 INFO Master: Application app-20230815110141-0008 requested to set total executors to 2.
23/08/15 11:11:06 INFO Master: Application app-20230815110141-0008 requested to set total executors to 3.
23/08/15 11:11:07 INFO Master: Application app-20230815110141-0008 requested to set total executors to 1.
23/08/15 11:11:11 INFO Master: Application app-20230815110141-0008 requested to set total executors to 2.
23/08/15 11:11:12 INFO Master: Application app-20230815110141-0008 requested to set total executors to 3.
23/08/15 11:11:13 INFO Master: Application app-20230815110141-0008 requested to set total executors to 1.
23/08/15 11:11:15 INFO Master: Application app-20230815110141-0008 requested to set total executors to 2.
23/08/15 11:11:16 INFO Master: Application app-20230815110141-0008 requested to set total executors to 3.
23/08/15 11:11:16 INFO Master: Application app-20230815110141-0008 requested to set total executors to 2.
23/08/15 11:11:17 INFO Master: Application app-20230815110141-0008 requested to set total executors to 1.
23/08/15 11:11:19 INFO Master: Application app-20230815110141-0008 requested to set total executors to 2.
23/08/15 11:11:20 INFO Master: Application app-20230815110141-0008 requested to set total executors to 3.
23/08/15 11:11:21 INFO Master: Application app-20230815110141-0008 requested to set total executors to 1.
23/08/15 11:11:24 INFO Master: Application app-20230815110141-0008 requested to set total executors to 2.
23/08/15 11:11:25 INFO Master: Application app-20230815110141-0008 requested to set total executors to 3.
23/08/15 11:11:26 INFO Master: Application app-20230815110141-0008 requested to set total executors to 2.
23/08/15 11:11:26 INFO Master: Application app-20230815110141-0008 requested to set total executors to 1.
23/08/15 11:11:29 INFO Master: Application app-20230815110141-0008 requested to set total executors to 2.
23/08/15 11:11:30 INFO Master: Application app-20230815110141-0008 requested to set total executors to 3.
23/08/15 11:11:31 INFO Master: Application app-20230815110141-0008 requested to set total executors to 2.
23/08/15 11:11:32 INFO Master: Application app-20230815110141-0008 requested to set total executors to 1.
23/08/15 11:11:35 INFO Master: Application app-20230815110141-0008 requested to set total executors to 2.
23/08/15 11:11:36 INFO Master: Application app-20230815110141-0008 requested to set total executors to 3.
23/08/15 11:11:38 INFO Master: Application app-20230815110141-0008 requested to set total executors to 2.
23/08/15 11:11:38 INFO Master: Application app-20230815110141-0008 requested to set total executors to 1.
23/08/15 11:11:40 INFO Master: Application app-20230815110141-0008 requested to set total executors to 2.
23/08/15 11:11:41 INFO Master: Application app-20230815110141-0008 requested to set total executors to 3.
23/08/15 11:11:43 INFO Master: Application app-20230815110141-0008 requested to set total executors to 1.
23/08/15 11:11:46 INFO Master: Application app-20230815110141-0008 requested to set total executors to 2.
23/08/15 11:11:47 INFO Master: Application app-20230815110141-0008 requested to set total executors to 3.
23/08/15 11:11:48 INFO Master: Application app-20230815110141-0008 requested to set total executors to 1.
23/08/15 11:11:51 INFO Master: Application app-20230815110141-0008 requested to set total executors to 2.
23/08/15 11:11:52 INFO Master: Application app-20230815110141-0008 requested to set total executors to 3.
23/08/15 11:11:53 INFO Master: Application app-20230815110141-0008 requested to set total executors to 1.
23/08/15 11:11:56 INFO Master: Application app-20230815110141-0008 requested to set total executors to 2.
23/08/15 11:11:57 INFO Master: Application app-20230815110141-0008 requested to set total executors to 3.
23/08/15 11:11:58 INFO Master: Application app-20230815110141-0008 requested to set total executors to 1.
23/08/15 11:12:01 INFO Master: Application app-20230815110141-0008 requested to set total executors to 2.
23/08/15 11:12:02 INFO Master: Application app-20230815110141-0008 requested to set total executors to 3.
23/08/15 11:12:03 INFO Master: Application app-20230815110141-0008 requested to set total executors to 1.
23/08/15 11:12:05 INFO Master: Application app-20230815110141-0008 requested to set total executors to 2.
23/08/15 11:12:06 INFO Master: Application app-20230815110141-0008 requested to set total executors to 3.
23/08/15 11:12:08 INFO Master: Application app-20230815110141-0008 requested to set total executors to 1.
23/08/15 11:12:11 INFO Master: Application app-20230815110141-0008 requested to set total executors to 2.
23/08/15 11:12:12 INFO Master: Application app-20230815110141-0008 requested to set total executors to 3.
23/08/15 11:12:13 INFO Master: Application app-20230815110141-0008 requested to set total executors to 1.
23/08/15 11:12:14 INFO Master: Application app-20230815110141-0008 requested to set total executors to 2.
23/08/15 11:12:15 INFO Master: Application app-20230815110141-0008 requested to set total executors to 1.
23/08/15 11:12:16 INFO Master: Application app-20230815110141-0008 requested to set total executors to 2.
23/08/15 11:12:17 INFO Master: Application app-20230815110141-0008 requested to set total executors to 3.
23/08/15 11:12:18 INFO Master: Application app-20230815110141-0008 requested to set total executors to 2.
23/08/15 11:12:18 INFO Master: Application app-20230815110141-0008 requested to set total executors to 1.
23/08/15 11:12:21 INFO Master: Application app-20230815110141-0008 requested to set total executors to 2.
23/08/15 11:12:22 INFO Master: Application app-20230815110141-0008 requested to set total executors to 3.
23/08/15 11:12:23 INFO Master: Application app-20230815110141-0008 requested to set total executors to 2.
23/08/15 11:12:23 INFO Master: Application app-20230815110141-0008 requested to set total executors to 1.
23/08/15 11:12:26 INFO Master: Application app-20230815110141-0008 requested to set total executors to 2.
23/08/15 11:12:27 INFO Master: Application app-20230815110141-0008 requested to set total executors to 3.
23/08/15 11:12:29 INFO Master: Application app-20230815110141-0008 requested to set total executors to 1.
23/08/15 11:12:32 INFO Master: Application app-20230815110141-0008 requested to set total executors to 2.
23/08/15 11:12:33 INFO Master: Application app-20230815110141-0008 requested to set total executors to 3.
23/08/15 11:12:35 INFO Master: Application app-20230815110141-0008 requested to set total executors to 2.
23/08/15 11:12:35 INFO Master: Application app-20230815110141-0008 requested to set total executors to 1.
23/08/15 11:12:38 INFO Master: Application app-20230815110141-0008 requested to set total executors to 2.
23/08/15 11:12:39 INFO Master: Application app-20230815110141-0008 requested to set total executors to 3.
23/08/15 11:12:40 INFO Master: Application app-20230815110141-0008 requested to set total executors to 2.
23/08/15 11:12:40 INFO Master: Application app-20230815110141-0008 requested to set total executors to 1.
23/08/15 11:12:43 INFO Master: Application app-20230815110141-0008 requested to set total executors to 2.
23/08/15 11:12:44 INFO Master: Application app-20230815110141-0008 requested to set total executors to 3.
23/08/15 11:12:45 INFO Master: Application app-20230815110141-0008 requested to set total executors to 1.
23/08/15 11:12:48 INFO Master: Application app-20230815110141-0008 requested to set total executors to 2.
23/08/15 11:12:49 INFO Master: Application app-20230815110141-0008 requested to set total executors to 3.
23/08/15 11:12:51 INFO Master: Application app-20230815110141-0008 requested to set total executors to 2.
23/08/15 11:12:51 INFO Master: Application app-20230815110141-0008 requested to set total executors to 1.
23/08/15 11:12:54 INFO Master: Application app-20230815110141-0008 requested to set total executors to 2.
23/08/15 11:12:55 INFO Master: Application app-20230815110141-0008 requested to set total executors to 3.
23/08/15 11:12:58 INFO Master: Application app-20230815110141-0008 requested to set total executors to 2.
23/08/15 11:12:58 INFO Master: Application app-20230815110141-0008 requested to set total executors to 1.
23/08/15 11:15:30 INFO Master: Received unregister request from application app-20230815110157-0009
23/08/15 11:15:30 INFO Master: Removing app app-20230815110157-0009
23/08/15 11:15:31 INFO Master: 127.0.0.1:43308 got disassociated, removing it.
23/08/15 11:15:31 INFO Master: dell-Vostro-3558tion.lan:45893 got disassociated, removing it.
23/08/15 11:15:31 WARN Master: Got status update for unknown executor app-20230815110157-0009/0
23/08/15 11:16:57 INFO Master: Application app-20230815110141-0008 requested to set total executors to 2.
23/08/15 11:16:58 INFO Master: Application app-20230815110141-0008 requested to set total executors to 3.
23/08/15 11:17:00 INFO Master: Application app-20230815110141-0008 requested to set total executors to 2.
23/08/15 11:17:00 INFO Master: Application app-20230815110141-0008 requested to set total executors to 1.
23/08/15 11:17:01 INFO Master: Application app-20230815110141-0008 requested to set total executors to 2.
23/08/15 11:17:02 INFO Master: Application app-20230815110141-0008 requested to set total executors to 3.
23/08/15 11:17:03 INFO Master: Application app-20230815110141-0008 requested to set total executors to 1.
23/08/15 11:17:05 INFO Master: Application app-20230815110141-0008 requested to set total executors to 2.
23/08/15 11:17:06 INFO Master: Application app-20230815110141-0008 requested to set total executors to 3.
23/08/15 11:17:07 INFO Master: Application app-20230815110141-0008 requested to set total executors to 1.
23/08/15 11:17:08 INFO Master: Application app-20230815110141-0008 requested to set total executors to 2.
23/08/15 11:17:09 INFO Master: Application app-20230815110141-0008 requested to set total executors to 3.
23/08/15 11:17:10 INFO Master: Application app-20230815110141-0008 requested to set total executors to 1.
23/08/15 11:17:11 INFO Master: Application app-20230815110141-0008 requested to set total executors to 2.
23/08/15 11:17:12 INFO Master: Application app-20230815110141-0008 requested to set total executors to 3.
23/08/15 11:17:13 INFO Master: Application app-20230815110141-0008 requested to set total executors to 1.
23/08/15 11:17:14 INFO Master: Application app-20230815110141-0008 requested to set total executors to 2.
23/08/15 11:17:15 INFO Master: Application app-20230815110141-0008 requested to set total executors to 3.
23/08/15 11:17:17 INFO Master: Application app-20230815110141-0008 requested to set total executors to 2.
23/08/15 11:17:18 INFO Master: Application app-20230815110141-0008 requested to set total executors to 3.
23/08/15 11:17:20 INFO Master: Application app-20230815110141-0008 requested to set total executors to 1.
23/08/15 11:17:21 INFO Master: Application app-20230815110141-0008 requested to set total executors to 2.
23/08/15 11:17:22 INFO Master: Application app-20230815110141-0008 requested to set total executors to 3.
23/08/15 11:17:22 INFO Master: Application app-20230815110141-0008 requested to set total executors to 2.
23/08/15 11:17:23 INFO Master: Application app-20230815110141-0008 requested to set total executors to 3.
23/08/15 11:17:27 INFO Master: Application app-20230815110141-0008 requested to set total executors to 1.
23/08/15 11:17:28 INFO Master: Application app-20230815110141-0008 requested to set total executors to 2.
23/08/15 11:17:29 INFO Master: Application app-20230815110141-0008 requested to set total executors to 3.
23/08/15 11:17:31 INFO Master: Application app-20230815110141-0008 requested to set total executors to 1.
23/08/15 11:17:32 INFO Master: Application app-20230815110141-0008 requested to set total executors to 2.
23/08/15 11:17:33 INFO Master: Application app-20230815110141-0008 requested to set total executors to 3.
23/08/15 11:17:33 INFO Master: Application app-20230815110141-0008 requested to set total executors to 1.
23/08/15 11:17:35 INFO Master: Application app-20230815110141-0008 requested to set total executors to 2.
23/08/15 11:17:36 INFO Master: Application app-20230815110141-0008 requested to set total executors to 3.
23/08/15 11:17:37 INFO Master: Application app-20230815110141-0008 requested to set total executors to 2.
23/08/15 11:17:38 INFO Master: Application app-20230815110141-0008 requested to set total executors to 3.
23/08/15 11:17:40 INFO Master: Application app-20230815110141-0008 requested to set total executors to 1.
23/08/15 11:17:42 INFO Master: Application app-20230815110141-0008 requested to set total executors to 2.
23/08/15 11:17:43 INFO Master: Application app-20230815110141-0008 requested to set total executors to 3.
23/08/15 11:17:44 INFO Master: Application app-20230815110141-0008 requested to set total executors to 1.
23/08/15 11:17:45 INFO Master: Application app-20230815110141-0008 requested to set total executors to 2.
23/08/15 11:17:46 INFO Master: Application app-20230815110141-0008 requested to set total executors to 3.
23/08/15 11:17:48 INFO Master: Application app-20230815110141-0008 requested to set total executors to 2.
23/08/15 11:17:49 INFO Master: Application app-20230815110141-0008 requested to set total executors to 3.
23/08/15 11:17:51 INFO Master: Application app-20230815110141-0008 requested to set total executors to 2.
23/08/15 11:17:51 INFO Master: Application app-20230815110141-0008 requested to set total executors to 1.
23/08/15 11:17:52 INFO Master: Application app-20230815110141-0008 requested to set total executors to 2.
23/08/15 11:17:53 INFO Master: Application app-20230815110141-0008 requested to set total executors to 3.
23/08/15 11:17:56 INFO Master: Application app-20230815110141-0008 requested to set total executors to 1.
23/08/15 11:17:57 INFO Master: Application app-20230815110141-0008 requested to set total executors to 2.
23/08/15 11:17:58 INFO Master: Application app-20230815110141-0008 requested to set total executors to 3.
23/08/15 11:17:59 INFO Master: Application app-20230815110141-0008 requested to set total executors to 1.
23/08/15 11:18:01 INFO Master: Application app-20230815110141-0008 requested to set total executors to 2.
23/08/15 11:18:02 INFO Master: Application app-20230815110141-0008 requested to set total executors to 3.
23/08/15 11:18:03 INFO Master: Application app-20230815110141-0008 requested to set total executors to 2.
23/08/15 11:18:03 INFO Master: Application app-20230815110141-0008 requested to set total executors to 1.
23/08/15 11:18:05 INFO Master: Application app-20230815110141-0008 requested to set total executors to 2.
23/08/15 11:18:06 INFO Master: Application app-20230815110141-0008 requested to set total executors to 3.
23/08/15 11:18:06 INFO Master: Application app-20230815110141-0008 requested to set total executors to 1.
23/08/15 11:18:08 INFO Master: Application app-20230815110141-0008 requested to set total executors to 2.
23/08/15 11:18:09 INFO Master: Application app-20230815110141-0008 requested to set total executors to 3.
23/08/15 11:18:09 INFO Master: Application app-20230815110141-0008 requested to set total executors to 1.
23/08/15 11:18:11 INFO Master: Application app-20230815110141-0008 requested to set total executors to 2.
23/08/15 11:18:12 INFO Master: Application app-20230815110141-0008 requested to set total executors to 3.
23/08/15 11:18:12 INFO Master: Application app-20230815110141-0008 requested to set total executors to 1.
23/08/15 11:18:14 INFO Master: Application app-20230815110141-0008 requested to set total executors to 2.
23/08/15 11:18:15 INFO Master: Application app-20230815110141-0008 requested to set total executors to 3.
23/08/15 11:18:15 INFO Master: Application app-20230815110141-0008 requested to set total executors to 1.
23/08/15 11:18:17 INFO Master: Application app-20230815110141-0008 requested to set total executors to 2.
23/08/15 11:18:18 INFO Master: Application app-20230815110141-0008 requested to set total executors to 3.
23/08/15 11:18:18 INFO Master: Application app-20230815110141-0008 requested to set total executors to 1.
23/08/15 11:18:20 INFO Master: Application app-20230815110141-0008 requested to set total executors to 2.
23/08/15 11:18:21 INFO Master: Application app-20230815110141-0008 requested to set total executors to 3.
23/08/15 11:18:21 INFO Master: Application app-20230815110141-0008 requested to set total executors to 1.
23/08/15 11:18:23 INFO Master: Application app-20230815110141-0008 requested to set total executors to 2.
23/08/15 11:18:24 INFO Master: Application app-20230815110141-0008 requested to set total executors to 3.
23/08/15 11:18:26 INFO Master: Application app-20230815110141-0008 requested to set total executors to 2.
23/08/15 11:18:27 INFO Master: Application app-20230815110141-0008 requested to set total executors to 3.
23/08/15 11:18:29 INFO Master: Application app-20230815110141-0008 requested to set total executors to 1.
23/08/15 11:18:30 INFO Master: Application app-20230815110141-0008 requested to set total executors to 2.
23/08/15 11:18:31 INFO Master: Application app-20230815110141-0008 requested to set total executors to 3.
23/08/15 11:18:32 INFO Master: Application app-20230815110141-0008 requested to set total executors to 1.
23/08/15 11:18:33 INFO Master: Application app-20230815110141-0008 requested to set total executors to 2.
23/08/15 11:18:34 INFO Master: Application app-20230815110141-0008 requested to set total executors to 3.
23/08/15 11:18:35 INFO Master: Application app-20230815110141-0008 requested to set total executors to 1.
23/08/15 11:18:36 INFO Master: Application app-20230815110141-0008 requested to set total executors to 2.
23/08/15 11:18:37 INFO Master: Application app-20230815110141-0008 requested to set total executors to 3.
23/08/15 11:18:39 INFO Master: Application app-20230815110141-0008 requested to set total executors to 1.
23/08/15 11:18:40 INFO Master: Application app-20230815110141-0008 requested to set total executors to 2.
23/08/15 11:18:41 INFO Master: Application app-20230815110141-0008 requested to set total executors to 3.
23/08/15 11:18:42 INFO Master: Application app-20230815110141-0008 requested to set total executors to 1.
23/08/15 11:18:43 INFO Master: Application app-20230815110141-0008 requested to set total executors to 2.
23/08/15 11:18:44 INFO Master: Application app-20230815110141-0008 requested to set total executors to 3.
23/08/15 11:18:48 INFO Master: Application app-20230815110141-0008 requested to set total executors to 1.
23/08/15 11:18:49 INFO Master: Application app-20230815110141-0008 requested to set total executors to 2.
23/08/15 11:18:50 INFO Master: Application app-20230815110141-0008 requested to set total executors to 3.
23/08/15 11:18:51 INFO Master: Application app-20230815110141-0008 requested to set total executors to 1.
23/08/15 11:18:52 INFO Master: Application app-20230815110141-0008 requested to set total executors to 2.
23/08/15 11:18:53 INFO Master: Application app-20230815110141-0008 requested to set total executors to 3.
23/08/15 11:18:54 INFO Master: Application app-20230815110141-0008 requested to set total executors to 1.
23/08/15 11:18:55 INFO Master: Application app-20230815110141-0008 requested to set total executors to 2.
23/08/15 11:18:56 INFO Master: Application app-20230815110141-0008 requested to set total executors to 3.
23/08/15 11:18:57 INFO Master: Application app-20230815110141-0008 requested to set total executors to 1.
23/08/15 11:18:59 INFO Master: Application app-20230815110141-0008 requested to set total executors to 2.
23/08/15 11:19:00 INFO Master: Application app-20230815110141-0008 requested to set total executors to 3.
23/08/15 11:19:00 INFO Master: Application app-20230815110141-0008 requested to set total executors to 1.
23/08/15 11:19:01 INFO Master: Application app-20230815110141-0008 requested to set total executors to 2.
23/08/15 11:19:02 INFO Master: Application app-20230815110141-0008 requested to set total executors to 3.
23/08/15 11:19:03 INFO Master: Application app-20230815110141-0008 requested to set total executors to 1.
23/08/15 11:19:04 INFO Master: Application app-20230815110141-0008 requested to set total executors to 2.
23/08/15 11:19:06 INFO Master: Application app-20230815110141-0008 requested to set total executors to 3.
23/08/15 11:19:06 INFO Master: Application app-20230815110141-0008 requested to set total executors to 1.
23/08/15 11:19:08 INFO Master: Application app-20230815110141-0008 requested to set total executors to 2.
23/08/15 11:19:09 INFO Master: Application app-20230815110141-0008 requested to set total executors to 3.
23/08/15 11:19:10 INFO Master: Application app-20230815110141-0008 requested to set total executors to 1.
23/08/15 11:19:11 INFO Master: Application app-20230815110141-0008 requested to set total executors to 2.
23/08/15 11:19:12 INFO Master: Application app-20230815110141-0008 requested to set total executors to 3.
23/08/15 11:19:13 INFO Master: Application app-20230815110141-0008 requested to set total executors to 2.
23/08/15 11:19:13 INFO Master: Application app-20230815110141-0008 requested to set total executors to 1.
23/08/15 11:19:14 INFO Master: Application app-20230815110141-0008 requested to set total executors to 2.
23/08/15 11:19:15 INFO Master: Application app-20230815110141-0008 requested to set total executors to 3.
23/08/15 11:19:16 INFO Master: Application app-20230815110141-0008 requested to set total executors to 1.
23/08/15 11:19:17 INFO Master: Application app-20230815110141-0008 requested to set total executors to 2.
23/08/15 11:19:18 INFO Master: Application app-20230815110141-0008 requested to set total executors to 3.
23/08/15 11:19:19 INFO Master: Application app-20230815110141-0008 requested to set total executors to 1.
23/08/15 11:19:20 INFO Master: Application app-20230815110141-0008 requested to set total executors to 2.
23/08/15 11:19:21 INFO Master: Application app-20230815110141-0008 requested to set total executors to 3.
23/08/15 11:19:22 INFO Master: Application app-20230815110141-0008 requested to set total executors to 1.
23/08/15 11:19:23 INFO Master: Application app-20230815110141-0008 requested to set total executors to 2.
23/08/15 11:19:24 INFO Master: Application app-20230815110141-0008 requested to set total executors to 3.
23/08/15 11:19:25 INFO Master: Application app-20230815110141-0008 requested to set total executors to 1.
23/08/15 11:19:27 INFO Master: Application app-20230815110141-0008 requested to set total executors to 2.
23/08/15 11:19:28 INFO Master: Application app-20230815110141-0008 requested to set total executors to 3.
23/08/15 11:19:29 INFO Master: Application app-20230815110141-0008 requested to set total executors to 1.
23/08/15 11:19:30 INFO Master: Application app-20230815110141-0008 requested to set total executors to 2.
23/08/15 11:19:31 INFO Master: Application app-20230815110141-0008 requested to set total executors to 3.
23/08/15 11:19:32 INFO Master: Application app-20230815110141-0008 requested to set total executors to 1.
23/08/15 11:19:34 INFO Master: Application app-20230815110141-0008 requested to set total executors to 2.
23/08/15 11:19:35 INFO Master: Application app-20230815110141-0008 requested to set total executors to 3.
23/08/15 11:19:35 INFO Master: Application app-20230815110141-0008 requested to set total executors to 1.
23/08/15 11:19:37 INFO Master: Application app-20230815110141-0008 requested to set total executors to 2.
23/08/15 11:19:38 INFO Master: Application app-20230815110141-0008 requested to set total executors to 3.
23/08/15 11:19:38 INFO Master: Application app-20230815110141-0008 requested to set total executors to 1.
23/08/15 11:19:39 INFO Master: Application app-20230815110141-0008 requested to set total executors to 2.
23/08/15 11:19:40 INFO Master: Application app-20230815110141-0008 requested to set total executors to 3.
23/08/15 11:19:41 INFO Master: Application app-20230815110141-0008 requested to set total executors to 1.
23/08/15 11:19:43 INFO Master: Application app-20230815110141-0008 requested to set total executors to 2.
23/08/15 11:19:44 INFO Master: Application app-20230815110141-0008 requested to set total executors to 3.
23/08/15 11:19:44 INFO Master: Application app-20230815110141-0008 requested to set total executors to 1.
23/08/15 11:19:46 INFO Master: Application app-20230815110141-0008 requested to set total executors to 2.
23/08/15 11:19:47 INFO Master: Application app-20230815110141-0008 requested to set total executors to 3.
23/08/15 11:19:47 INFO Master: Application app-20230815110141-0008 requested to set total executors to 1.
23/08/15 11:19:49 INFO Master: Application app-20230815110141-0008 requested to set total executors to 2.
23/08/15 11:19:50 INFO Master: Application app-20230815110141-0008 requested to set total executors to 3.
23/08/15 11:19:50 INFO Master: Application app-20230815110141-0008 requested to set total executors to 1.
23/08/15 11:19:52 INFO Master: Application app-20230815110141-0008 requested to set total executors to 2.
23/08/15 11:19:53 INFO Master: Application app-20230815110141-0008 requested to set total executors to 3.
23/08/15 11:19:54 INFO Master: Application app-20230815110141-0008 requested to set total executors to 1.
23/08/15 11:19:55 INFO Master: Application app-20230815110141-0008 requested to set total executors to 2.
23/08/15 11:19:56 INFO Master: Application app-20230815110141-0008 requested to set total executors to 3.
23/08/15 11:19:57 INFO Master: Application app-20230815110141-0008 requested to set total executors to 1.
23/08/15 11:19:58 INFO Master: Application app-20230815110141-0008 requested to set total executors to 2.
23/08/15 11:19:59 INFO Master: Application app-20230815110141-0008 requested to set total executors to 3.
23/08/15 11:20:00 INFO Master: Application app-20230815110141-0008 requested to set total executors to 1.
23/08/15 11:20:01 INFO Master: Application app-20230815110141-0008 requested to set total executors to 2.
23/08/15 11:20:02 INFO Master: Application app-20230815110141-0008 requested to set total executors to 3.
23/08/15 11:20:03 INFO Master: Application app-20230815110141-0008 requested to set total executors to 1.
23/08/15 11:20:04 INFO Master: Application app-20230815110141-0008 requested to set total executors to 2.
23/08/15 11:20:05 INFO Master: Application app-20230815110141-0008 requested to set total executors to 3.
23/08/15 11:20:06 INFO Master: Application app-20230815110141-0008 requested to set total executors to 1.
23/08/15 11:20:07 INFO Master: Application app-20230815110141-0008 requested to set total executors to 2.
23/08/15 11:20:08 INFO Master: Application app-20230815110141-0008 requested to set total executors to 3.
23/08/15 11:20:09 INFO Master: Application app-20230815110141-0008 requested to set total executors to 1.
23/08/15 11:20:10 INFO Master: Application app-20230815110141-0008 requested to set total executors to 2.
23/08/15 11:20:11 INFO Master: Application app-20230815110141-0008 requested to set total executors to 3.
23/08/15 11:20:12 INFO Master: Application app-20230815110141-0008 requested to set total executors to 1.
23/08/15 11:20:14 INFO Master: Application app-20230815110141-0008 requested to set total executors to 2.
23/08/15 11:20:15 INFO Master: Application app-20230815110141-0008 requested to set total executors to 3.
23/08/15 11:20:15 INFO Master: Application app-20230815110141-0008 requested to set total executors to 2.
23/08/15 11:20:15 INFO Master: Application app-20230815110141-0008 requested to set total executors to 1.
23/08/15 11:20:17 INFO Master: Application app-20230815110141-0008 requested to set total executors to 2.
23/08/15 11:20:18 INFO Master: Application app-20230815110141-0008 requested to set total executors to 3.
23/08/15 11:20:18 INFO Master: Application app-20230815110141-0008 requested to set total executors to 1.
23/08/15 11:20:20 INFO Master: Application app-20230815110141-0008 requested to set total executors to 2.
23/08/15 11:20:21 INFO Master: Application app-20230815110141-0008 requested to set total executors to 3.
23/08/15 11:20:21 INFO Master: Application app-20230815110141-0008 requested to set total executors to 1.
23/08/15 11:20:23 INFO Master: Application app-20230815110141-0008 requested to set total executors to 2.
23/08/15 11:20:24 INFO Master: Application app-20230815110141-0008 requested to set total executors to 3.
23/08/15 11:20:24 INFO Master: Application app-20230815110141-0008 requested to set total executors to 2.
23/08/15 11:20:25 INFO Master: Application app-20230815110141-0008 requested to set total executors to 3.
23/08/15 11:20:28 INFO Master: Application app-20230815110141-0008 requested to set total executors to 1.
23/08/15 11:20:30 INFO Master: Application app-20230815110141-0008 requested to set total executors to 2.
23/08/15 11:20:31 INFO Master: Application app-20230815110141-0008 requested to set total executors to 3.
23/08/15 11:20:31 INFO Master: Application app-20230815110141-0008 requested to set total executors to 1.
23/08/15 11:20:33 INFO Master: Application app-20230815110141-0008 requested to set total executors to 2.
23/08/15 11:20:34 INFO Master: Application app-20230815110141-0008 requested to set total executors to 3.
23/08/15 11:20:35 INFO Master: Application app-20230815110141-0008 requested to set total executors to 2.
23/08/15 11:20:36 INFO Master: Application app-20230815110141-0008 requested to set total executors to 3.
23/08/15 11:20:42 INFO Master: Application app-20230815110141-0008 requested to set total executors to 1.
23/08/15 11:20:43 INFO Master: Application app-20230815110141-0008 requested to set total executors to 2.
23/08/15 11:20:44 INFO Master: Application app-20230815110141-0008 requested to set total executors to 3.
23/08/15 11:20:48 INFO Master: Application app-20230815110141-0008 requested to set total executors to 1.
23/08/15 11:20:50 INFO Master: Application app-20230815110141-0008 requested to set total executors to 2.
23/08/15 11:20:51 INFO Master: Application app-20230815110141-0008 requested to set total executors to 3.
23/08/15 11:20:56 INFO Master: Application app-20230815110141-0008 requested to set total executors to 1.
23/08/15 11:20:57 INFO Master: Application app-20230815110141-0008 requested to set total executors to 2.
23/08/15 11:20:58 INFO Master: Application app-20230815110141-0008 requested to set total executors to 3.
23/08/15 11:20:59 INFO Master: Application app-20230815110141-0008 requested to set total executors to 2.
23/08/15 11:21:01 INFO Master: Application app-20230815110141-0008 requested to set total executors to 3.
23/08/15 11:21:02 INFO Master: Application app-20230815110141-0008 requested to set total executors to 1.
23/08/15 11:21:03 INFO Master: Application app-20230815110141-0008 requested to set total executors to 2.
23/08/15 11:21:04 INFO Master: Application app-20230815110141-0008 requested to set total executors to 3.
23/08/15 11:21:05 INFO Master: Application app-20230815110141-0008 requested to set total executors to 1.
23/08/15 11:21:06 INFO Master: Application app-20230815110141-0008 requested to set total executors to 2.
23/08/15 11:21:07 INFO Master: Application app-20230815110141-0008 requested to set total executors to 3.
23/08/15 11:21:08 INFO Master: Application app-20230815110141-0008 requested to set total executors to 2.
23/08/15 11:21:08 INFO Master: Application app-20230815110141-0008 requested to set total executors to 1.
23/08/15 11:21:09 INFO Master: Application app-20230815110141-0008 requested to set total executors to 2.
23/08/15 11:21:10 INFO Master: Application app-20230815110141-0008 requested to set total executors to 3.
23/08/15 11:21:11 INFO Master: Application app-20230815110141-0008 requested to set total executors to 1.
23/08/15 11:21:12 INFO Master: Application app-20230815110141-0008 requested to set total executors to 2.
23/08/15 11:21:13 INFO Master: Application app-20230815110141-0008 requested to set total executors to 3.
23/08/15 11:21:14 INFO Master: Application app-20230815110141-0008 requested to set total executors to 1.
23/08/15 11:21:16 INFO Master: Application app-20230815110141-0008 requested to set total executors to 2.
23/08/15 11:21:17 INFO Master: Application app-20230815110141-0008 requested to set total executors to 3.
23/08/15 11:21:17 INFO Master: Application app-20230815110141-0008 requested to set total executors to 1.
23/08/15 11:21:19 INFO Master: Application app-20230815110141-0008 requested to set total executors to 2.
23/08/15 11:21:20 INFO Master: Application app-20230815110141-0008 requested to set total executors to 3.
23/08/15 11:21:20 INFO Master: Application app-20230815110141-0008 requested to set total executors to 1.
23/08/15 11:21:22 INFO Master: Application app-20230815110141-0008 requested to set total executors to 2.
23/08/15 11:21:23 INFO Master: Application app-20230815110141-0008 requested to set total executors to 3.
23/08/15 11:21:23 INFO Master: Application app-20230815110141-0008 requested to set total executors to 2.
23/08/15 11:21:23 INFO Master: Application app-20230815110141-0008 requested to set total executors to 1.
23/08/15 11:21:25 INFO Master: Application app-20230815110141-0008 requested to set total executors to 2.
23/08/15 11:21:26 INFO Master: Application app-20230815110141-0008 requested to set total executors to 3.
23/08/15 11:21:26 INFO Master: Application app-20230815110141-0008 requested to set total executors to 1.
23/08/15 11:21:28 INFO Master: Application app-20230815110141-0008 requested to set total executors to 2.
23/08/15 11:21:29 INFO Master: Application app-20230815110141-0008 requested to set total executors to 3.
23/08/15 11:21:30 INFO Master: Application app-20230815110141-0008 requested to set total executors to 1.
23/08/15 11:21:31 INFO Master: Application app-20230815110141-0008 requested to set total executors to 2.
23/08/15 11:21:32 INFO Master: Application app-20230815110141-0008 requested to set total executors to 3.
23/08/15 11:21:33 INFO Master: Application app-20230815110141-0008 requested to set total executors to 1.
23/08/15 11:21:34 INFO Master: Application app-20230815110141-0008 requested to set total executors to 2.
23/08/15 11:21:35 INFO Master: Application app-20230815110141-0008 requested to set total executors to 3.
23/08/15 11:21:36 INFO Master: Application app-20230815110141-0008 requested to set total executors to 2.
23/08/15 11:21:36 INFO Master: Application app-20230815110141-0008 requested to set total executors to 1.
23/08/15 11:21:37 INFO Master: Application app-20230815110141-0008 requested to set total executors to 2.
23/08/15 11:21:38 INFO Master: Application app-20230815110141-0008 requested to set total executors to 3.
23/08/15 11:21:39 INFO Master: Application app-20230815110141-0008 requested to set total executors to 1.
23/08/15 11:21:40 INFO Master: Application app-20230815110141-0008 requested to set total executors to 2.
23/08/15 11:21:41 INFO Master: Application app-20230815110141-0008 requested to set total executors to 3.
23/08/15 11:21:42 INFO Master: Application app-20230815110141-0008 requested to set total executors to 1.
23/08/15 11:21:43 INFO Master: Application app-20230815110141-0008 requested to set total executors to 2.
23/08/15 11:21:44 INFO Master: Application app-20230815110141-0008 requested to set total executors to 3.
23/08/15 11:21:45 INFO Master: Application app-20230815110141-0008 requested to set total executors to 1.
23/08/15 11:21:46 INFO Master: Application app-20230815110141-0008 requested to set total executors to 2.
23/08/15 11:21:47 INFO Master: Application app-20230815110141-0008 requested to set total executors to 3.
23/08/15 11:21:48 INFO Master: Application app-20230815110141-0008 requested to set total executors to 1.
23/08/15 11:21:50 INFO Master: Application app-20230815110141-0008 requested to set total executors to 2.
23/08/15 11:21:51 INFO Master: Application app-20230815110141-0008 requested to set total executors to 3.
23/08/15 11:21:51 INFO Master: Application app-20230815110141-0008 requested to set total executors to 2.
23/08/15 11:21:51 INFO Master: Application app-20230815110141-0008 requested to set total executors to 1.
23/08/15 11:21:52 INFO Master: Application app-20230815110141-0008 requested to set total executors to 2.
23/08/15 11:21:53 INFO Master: Application app-20230815110141-0008 requested to set total executors to 3.
23/08/15 11:21:58 INFO Master: Application app-20230815110141-0008 requested to set total executors to 1.
23/08/15 11:21:59 INFO Master: Application app-20230815110141-0008 requested to set total executors to 2.
23/08/15 11:22:00 INFO Master: Application app-20230815110141-0008 requested to set total executors to 3.
23/08/15 11:22:02 INFO Master: Application app-20230815110141-0008 requested to set total executors to 2.
23/08/15 11:22:03 INFO Master: Application app-20230815110141-0008 requested to set total executors to 3.
23/08/15 11:22:04 INFO Master: Application app-20230815110141-0008 requested to set total executors to 1.
23/08/15 11:22:06 INFO Master: Application app-20230815110141-0008 requested to set total executors to 2.
23/08/15 11:22:07 INFO Master: Application app-20230815110141-0008 requested to set total executors to 3.
23/08/15 11:22:07 INFO Master: Application app-20230815110141-0008 requested to set total executors to 2.
23/08/15 11:22:08 INFO Master: Application app-20230815110141-0008 requested to set total executors to 1.
23/08/15 11:22:09 INFO Master: Application app-20230815110141-0008 requested to set total executors to 2.
23/08/15 11:22:10 INFO Master: Application app-20230815110141-0008 requested to set total executors to 3.
23/08/15 11:22:10 INFO Master: Application app-20230815110141-0008 requested to set total executors to 1.
23/08/15 11:22:12 INFO Master: Application app-20230815110141-0008 requested to set total executors to 2.
23/08/15 11:22:13 INFO Master: Application app-20230815110141-0008 requested to set total executors to 3.
23/08/15 11:22:13 INFO Master: Application app-20230815110141-0008 requested to set total executors to 1.
23/08/15 11:22:15 INFO Master: Application app-20230815110141-0008 requested to set total executors to 2.
23/08/15 11:22:16 INFO Master: Application app-20230815110141-0008 requested to set total executors to 3.
23/08/15 11:22:16 INFO Master: Application app-20230815110141-0008 requested to set total executors to 1.
23/08/15 11:22:17 INFO Master: Application app-20230815110141-0008 requested to set total executors to 2.
23/08/15 11:22:18 INFO Master: Application app-20230815110141-0008 requested to set total executors to 3.
23/08/15 11:22:20 INFO Master: Application app-20230815110141-0008 requested to set total executors to 1.
23/08/15 11:22:21 INFO Master: Application app-20230815110141-0008 requested to set total executors to 2.
23/08/15 11:22:22 INFO Master: Application app-20230815110141-0008 requested to set total executors to 3.
23/08/15 11:22:23 INFO Master: Application app-20230815110141-0008 requested to set total executors to 1.
23/08/15 11:22:24 INFO Master: Application app-20230815110141-0008 requested to set total executors to 2.
23/08/15 11:22:25 INFO Master: Application app-20230815110141-0008 requested to set total executors to 3.
23/08/15 11:22:26 INFO Master: Application app-20230815110141-0008 requested to set total executors to 1.
23/08/15 11:22:27 INFO Master: Application app-20230815110141-0008 requested to set total executors to 2.
23/08/15 11:22:28 INFO Master: Application app-20230815110141-0008 requested to set total executors to 3.
23/08/15 11:22:29 INFO Master: Application app-20230815110141-0008 requested to set total executors to 1.
23/08/15 11:22:30 INFO Master: Application app-20230815110141-0008 requested to set total executors to 2.
23/08/15 11:22:31 INFO Master: Application app-20230815110141-0008 requested to set total executors to 3.
23/08/15 11:22:32 INFO Master: Application app-20230815110141-0008 requested to set total executors to 1.
23/08/15 11:22:34 INFO Master: Application app-20230815110141-0008 requested to set total executors to 2.
23/08/15 11:22:35 INFO Master: Application app-20230815110141-0008 requested to set total executors to 3.
23/08/15 11:22:35 INFO Master: Application app-20230815110141-0008 requested to set total executors to 1.
23/08/15 11:22:36 INFO Master: Application app-20230815110141-0008 requested to set total executors to 2.
23/08/15 11:22:37 INFO Master: Application app-20230815110141-0008 requested to set total executors to 3.
23/08/15 11:22:38 INFO Master: Application app-20230815110141-0008 requested to set total executors to 1.
23/08/15 11:22:39 INFO Master: Application app-20230815110141-0008 requested to set total executors to 2.
23/08/15 11:22:40 INFO Master: Application app-20230815110141-0008 requested to set total executors to 3.
23/08/15 11:22:45 INFO Master: Application app-20230815110141-0008 requested to set total executors to 1.
23/08/15 11:22:47 INFO Master: Application app-20230815110141-0008 requested to set total executors to 2.
23/08/15 11:22:48 INFO Master: Application app-20230815110141-0008 requested to set total executors to 3.
23/08/15 11:22:48 INFO Master: Application app-20230815110141-0008 requested to set total executors to 2.
23/08/15 11:22:49 INFO Master: Application app-20230815110141-0008 requested to set total executors to 3.
23/08/15 11:22:52 INFO Master: Application app-20230815110141-0008 requested to set total executors to 1.
23/08/15 11:22:54 INFO Master: Application app-20230815110141-0008 requested to set total executors to 2.
23/08/15 11:22:55 INFO Master: Application app-20230815110141-0008 requested to set total executors to 3.
23/08/15 11:22:55 INFO Master: Application app-20230815110141-0008 requested to set total executors to 1.
23/08/15 11:22:57 INFO Master: Application app-20230815110141-0008 requested to set total executors to 2.
23/08/15 11:22:58 INFO Master: Application app-20230815110141-0008 requested to set total executors to 3.
23/08/15 11:22:59 INFO Master: Application app-20230815110141-0008 requested to set total executors to 1.
23/08/15 11:23:00 INFO Master: Application app-20230815110141-0008 requested to set total executors to 2.
23/08/15 11:23:01 INFO Master: Application app-20230815110141-0008 requested to set total executors to 3.
23/08/15 11:23:02 INFO Master: Application app-20230815110141-0008 requested to set total executors to 1.
23/08/15 11:23:04 INFO Master: Application app-20230815110141-0008 requested to set total executors to 2.
23/08/15 11:23:05 INFO Master: Application app-20230815110141-0008 requested to set total executors to 3.
23/08/15 11:23:06 INFO Master: Application app-20230815110141-0008 requested to set total executors to 1.
23/08/15 11:23:07 INFO Master: Application app-20230815110141-0008 requested to set total executors to 2.
23/08/15 11:23:08 INFO Master: Application app-20230815110141-0008 requested to set total executors to 3.
23/08/15 11:23:09 INFO Master: Application app-20230815110141-0008 requested to set total executors to 1.
23/08/15 11:23:11 INFO Master: Application app-20230815110141-0008 requested to set total executors to 2.
23/08/15 11:23:12 INFO Master: Application app-20230815110141-0008 requested to set total executors to 3.
23/08/15 11:23:12 INFO Master: Application app-20230815110141-0008 requested to set total executors to 2.
23/08/15 11:23:13 INFO Master: Application app-20230815110141-0008 requested to set total executors to 1.
23/08/15 11:23:14 INFO Master: Application app-20230815110141-0008 requested to set total executors to 2.
23/08/15 11:23:15 INFO Master: Application app-20230815110141-0008 requested to set total executors to 3.
23/08/15 11:23:16 INFO Master: Application app-20230815110141-0008 requested to set total executors to 1.
23/08/15 11:23:18 INFO Master: Application app-20230815110141-0008 requested to set total executors to 2.
23/08/15 11:23:19 INFO Master: Application app-20230815110141-0008 requested to set total executors to 3.
23/08/15 11:23:20 INFO Master: Application app-20230815110141-0008 requested to set total executors to 1.
23/08/15 11:23:22 INFO Master: Application app-20230815110141-0008 requested to set total executors to 2.
23/08/15 11:23:23 INFO Master: Application app-20230815110141-0008 requested to set total executors to 3.
23/08/15 11:23:23 INFO Master: Application app-20230815110141-0008 requested to set total executors to 1.
23/08/15 11:23:24 INFO Master: Application app-20230815110141-0008 requested to set total executors to 2.
23/08/15 11:23:25 INFO Master: Application app-20230815110141-0008 requested to set total executors to 3.
23/08/15 11:23:26 INFO Master: Application app-20230815110141-0008 requested to set total executors to 2.
23/08/15 11:23:26 INFO Master: Application app-20230815110141-0008 requested to set total executors to 1.
23/08/15 11:23:27 INFO Master: Application app-20230815110141-0008 requested to set total executors to 2.
23/08/15 11:23:28 INFO Master: Application app-20230815110141-0008 requested to set total executors to 3.
23/08/15 11:23:29 INFO Master: Application app-20230815110141-0008 requested to set total executors to 1.
23/08/15 11:23:31 INFO Master: Application app-20230815110141-0008 requested to set total executors to 2.
23/08/15 11:23:32 INFO Master: Application app-20230815110141-0008 requested to set total executors to 3.
23/08/15 11:23:32 INFO Master: Application app-20230815110141-0008 requested to set total executors to 1.
23/08/15 11:23:34 INFO Master: Application app-20230815110141-0008 requested to set total executors to 2.
23/08/15 11:23:35 INFO Master: Application app-20230815110141-0008 requested to set total executors to 3.
23/08/15 11:23:35 INFO Master: Application app-20230815110141-0008 requested to set total executors to 1.
23/08/15 11:23:37 INFO Master: Application app-20230815110141-0008 requested to set total executors to 2.
23/08/15 11:23:38 INFO Master: Application app-20230815110141-0008 requested to set total executors to 3.
23/08/15 11:23:38 INFO Master: Application app-20230815110141-0008 requested to set total executors to 2.
23/08/15 11:23:39 INFO Master: Application app-20230815110141-0008 requested to set total executors to 1.
23/08/15 11:23:40 INFO Master: Application app-20230815110141-0008 requested to set total executors to 2.
23/08/15 11:23:41 INFO Master: Application app-20230815110141-0008 requested to set total executors to 3.
23/08/15 11:23:42 INFO Master: Application app-20230815110141-0008 requested to set total executors to 1.
23/08/15 11:23:43 INFO Master: Application app-20230815110141-0008 requested to set total executors to 2.
23/08/15 11:23:44 INFO Master: Application app-20230815110141-0008 requested to set total executors to 3.
23/08/15 11:23:45 INFO Master: Application app-20230815110141-0008 requested to set total executors to 1.
23/08/15 11:23:46 INFO Master: Application app-20230815110141-0008 requested to set total executors to 2.
23/08/15 11:23:47 INFO Master: Application app-20230815110141-0008 requested to set total executors to 3.
23/08/15 11:23:48 INFO Master: Application app-20230815110141-0008 requested to set total executors to 1.
23/08/15 11:23:49 INFO Master: Application app-20230815110141-0008 requested to set total executors to 2.
23/08/15 11:23:50 INFO Master: Application app-20230815110141-0008 requested to set total executors to 3.
23/08/15 11:23:51 INFO Master: Application app-20230815110141-0008 requested to set total executors to 1.
23/08/15 11:23:53 INFO Master: Application app-20230815110141-0008 requested to set total executors to 2.
23/08/15 11:23:54 INFO Master: Application app-20230815110141-0008 requested to set total executors to 3.
23/08/15 11:23:54 INFO Master: Application app-20230815110141-0008 requested to set total executors to 1.
23/08/15 11:23:56 INFO Master: Application app-20230815110141-0008 requested to set total executors to 2.
23/08/15 11:23:57 INFO Master: Application app-20230815110141-0008 requested to set total executors to 3.
23/08/15 11:23:57 INFO Master: Application app-20230815110141-0008 requested to set total executors to 1.
23/08/15 11:23:58 INFO Master: Application app-20230815110141-0008 requested to set total executors to 2.
23/08/15 11:23:59 INFO Master: Application app-20230815110141-0008 requested to set total executors to 3.
23/08/15 11:24:00 INFO Master: Application app-20230815110141-0008 requested to set total executors to 1.
23/08/15 11:24:01 INFO Master: Application app-20230815110141-0008 requested to set total executors to 2.
23/08/15 11:24:02 INFO Master: Application app-20230815110141-0008 requested to set total executors to 3.
23/08/15 11:24:03 INFO Master: Application app-20230815110141-0008 requested to set total executors to 1.
23/08/15 11:24:04 INFO Master: Application app-20230815110141-0008 requested to set total executors to 2.
23/08/15 11:24:05 INFO Master: Application app-20230815110141-0008 requested to set total executors to 3.
23/08/15 11:24:06 INFO Master: Application app-20230815110141-0008 requested to set total executors to 1.
23/08/15 11:24:08 INFO Master: Application app-20230815110141-0008 requested to set total executors to 2.
23/08/15 11:24:09 INFO Master: Application app-20230815110141-0008 requested to set total executors to 3.
23/08/15 11:24:09 INFO Master: Application app-20230815110141-0008 requested to set total executors to 1.
23/08/15 11:24:11 INFO Master: Application app-20230815110141-0008 requested to set total executors to 2.
23/08/15 11:24:12 INFO Master: Application app-20230815110141-0008 requested to set total executors to 3.
23/08/15 11:24:12 INFO Master: Application app-20230815110141-0008 requested to set total executors to 2.
23/08/15 11:24:12 INFO Master: Application app-20230815110141-0008 requested to set total executors to 1.
23/08/15 11:24:14 INFO Master: Application app-20230815110141-0008 requested to set total executors to 2.
23/08/15 11:24:15 INFO Master: Application app-20230815110141-0008 requested to set total executors to 3.
23/08/15 11:24:15 INFO Master: Application app-20230815110141-0008 requested to set total executors to 1.
23/08/15 11:24:17 INFO Master: Application app-20230815110141-0008 requested to set total executors to 2.
23/08/15 11:24:18 INFO Master: Application app-20230815110141-0008 requested to set total executors to 3.
23/08/15 11:24:19 INFO Master: Application app-20230815110141-0008 requested to set total executors to 1.
23/08/15 11:24:20 INFO Master: Application app-20230815110141-0008 requested to set total executors to 2.
23/08/15 11:24:21 INFO Master: Application app-20230815110141-0008 requested to set total executors to 3.
23/08/15 11:24:22 INFO Master: Application app-20230815110141-0008 requested to set total executors to 2.
23/08/15 11:24:22 INFO Master: Application app-20230815110141-0008 requested to set total executors to 1.
23/08/15 11:24:23 INFO Master: Application app-20230815110141-0008 requested to set total executors to 2.
23/08/15 11:24:24 INFO Master: Application app-20230815110141-0008 requested to set total executors to 3.
23/08/15 11:24:25 INFO Master: Application app-20230815110141-0008 requested to set total executors to 1.
23/08/15 11:24:26 INFO Master: Application app-20230815110141-0008 requested to set total executors to 2.
23/08/15 11:24:27 INFO Master: Application app-20230815110141-0008 requested to set total executors to 3.
23/08/15 11:24:28 INFO Master: Application app-20230815110141-0008 requested to set total executors to 2.
23/08/15 11:24:28 INFO Master: Application app-20230815110141-0008 requested to set total executors to 1.
23/08/15 11:24:29 INFO Master: Application app-20230815110141-0008 requested to set total executors to 2.
23/08/15 11:24:30 INFO Master: Application app-20230815110141-0008 requested to set total executors to 3.
23/08/15 11:24:30 INFO Master: Application app-20230815110141-0008 requested to set total executors to 1.
23/08/15 11:24:31 INFO Master: Application app-20230815110141-0008 requested to set total executors to 2.
23/08/15 11:24:32 INFO Master: Application app-20230815110141-0008 requested to set total executors to 3.
23/08/15 11:24:34 INFO Master: Application app-20230815110141-0008 requested to set total executors to 2.
23/08/15 11:24:34 INFO Master: Application app-20230815110141-0008 requested to set total executors to 1.
23/08/15 11:24:36 INFO Master: Application app-20230815110141-0008 requested to set total executors to 2.
23/08/15 11:24:37 INFO Master: Application app-20230815110141-0008 requested to set total executors to 3.
23/08/15 11:24:38 INFO Master: Application app-20230815110141-0008 requested to set total executors to 1.
23/08/15 11:24:39 INFO Master: Application app-20230815110141-0008 requested to set total executors to 2.
23/08/15 11:24:40 INFO Master: Application app-20230815110141-0008 requested to set total executors to 3.
23/08/15 11:24:41 INFO Master: Application app-20230815110141-0008 requested to set total executors to 1.
23/08/15 11:24:43 INFO Master: Application app-20230815110141-0008 requested to set total executors to 2.
23/08/15 11:24:44 INFO Master: Application app-20230815110141-0008 requested to set total executors to 3.
23/08/15 11:24:44 INFO Master: Application app-20230815110141-0008 requested to set total executors to 1.
23/08/15 11:24:45 INFO Master: Application app-20230815110141-0008 requested to set total executors to 2.
23/08/15 11:24:46 INFO Master: Application app-20230815110141-0008 requested to set total executors to 3.
23/08/15 11:24:47 INFO Master: Application app-20230815110141-0008 requested to set total executors to 1.
23/08/15 11:24:49 INFO Master: Application app-20230815110141-0008 requested to set total executors to 2.
23/08/15 11:24:50 INFO Master: Application app-20230815110141-0008 requested to set total executors to 3.
23/08/15 11:24:50 INFO Master: Application app-20230815110141-0008 requested to set total executors to 1.
23/08/15 11:24:52 INFO Master: Application app-20230815110141-0008 requested to set total executors to 2.
23/08/15 11:24:53 INFO Master: Application app-20230815110141-0008 requested to set total executors to 3.
23/08/15 11:24:53 INFO Master: Application app-20230815110141-0008 requested to set total executors to 1.
23/08/15 11:24:54 INFO Master: Application app-20230815110141-0008 requested to set total executors to 2.
23/08/15 11:24:55 INFO Master: Application app-20230815110141-0008 requested to set total executors to 3.
23/08/15 11:24:56 INFO Master: Application app-20230815110141-0008 requested to set total executors to 2.
23/08/15 11:24:56 INFO Master: Application app-20230815110141-0008 requested to set total executors to 1.
23/08/15 11:24:58 INFO Master: Application app-20230815110141-0008 requested to set total executors to 2.
23/08/15 11:24:59 INFO Master: Application app-20230815110141-0008 requested to set total executors to 3.
23/08/15 11:24:59 INFO Master: Application app-20230815110141-0008 requested to set total executors to 1.
23/08/15 11:25:01 INFO Master: Application app-20230815110141-0008 requested to set total executors to 2.
23/08/15 11:25:02 INFO Master: Application app-20230815110141-0008 requested to set total executors to 3.
23/08/15 11:25:03 INFO Master: Application app-20230815110141-0008 requested to set total executors to 1.
23/08/15 11:25:04 INFO Master: Application app-20230815110141-0008 requested to set total executors to 2.
23/08/15 11:25:05 INFO Master: Application app-20230815110141-0008 requested to set total executors to 3.
23/08/15 11:25:06 INFO Master: Application app-20230815110141-0008 requested to set total executors to 1.
23/08/15 11:25:07 INFO Master: Application app-20230815110141-0008 requested to set total executors to 2.
23/08/15 11:25:08 INFO Master: Application app-20230815110141-0008 requested to set total executors to 3.
23/08/15 11:25:08 INFO Master: Application app-20230815110141-0008 requested to set total executors to 1.
23/08/15 11:25:09 INFO Master: Application app-20230815110141-0008 requested to set total executors to 2.
23/08/15 11:25:10 INFO Master: Application app-20230815110141-0008 requested to set total executors to 3.
23/08/15 11:25:12 INFO Master: Application app-20230815110141-0008 requested to set total executors to 1.
23/08/15 11:25:13 INFO Master: Application app-20230815110141-0008 requested to set total executors to 2.
23/08/15 11:25:14 INFO Master: Application app-20230815110141-0008 requested to set total executors to 3.
23/08/15 11:25:15 INFO Master: Application app-20230815110141-0008 requested to set total executors to 2.
23/08/15 11:25:16 INFO Master: Application app-20230815110141-0008 requested to set total executors to 3.
23/08/15 11:25:18 INFO Master: Application app-20230815110141-0008 requested to set total executors to 1.
23/08/15 11:25:20 INFO Master: Application app-20230815110141-0008 requested to set total executors to 2.
23/08/15 11:25:21 INFO Master: Application app-20230815110141-0008 requested to set total executors to 3.
23/08/15 11:25:22 INFO Master: Application app-20230815110141-0008 requested to set total executors to 1.
23/08/15 11:25:23 INFO Master: Application app-20230815110141-0008 requested to set total executors to 2.
23/08/15 11:25:24 INFO Master: Application app-20230815110141-0008 requested to set total executors to 3.
23/08/15 11:25:25 INFO Master: Application app-20230815110141-0008 requested to set total executors to 1.
23/08/15 11:25:26 INFO Master: Application app-20230815110141-0008 requested to set total executors to 2.
23/08/15 11:25:27 INFO Master: Application app-20230815110141-0008 requested to set total executors to 3.
23/08/15 11:25:28 INFO Master: Application app-20230815110141-0008 requested to set total executors to 1.
23/08/15 11:25:30 INFO Master: Application app-20230815110141-0008 requested to set total executors to 2.
23/08/15 11:25:31 INFO Master: Application app-20230815110141-0008 requested to set total executors to 3.
23/08/15 11:25:31 INFO Master: Application app-20230815110141-0008 requested to set total executors to 1.
23/08/15 11:25:33 INFO Master: Application app-20230815110141-0008 requested to set total executors to 2.
23/08/15 11:25:34 INFO Master: Application app-20230815110141-0008 requested to set total executors to 3.
23/08/15 11:25:34 INFO Master: Application app-20230815110141-0008 requested to set total executors to 1.
23/08/15 11:25:35 INFO Master: Application app-20230815110141-0008 requested to set total executors to 2.
23/08/15 11:25:36 INFO Master: Application app-20230815110141-0008 requested to set total executors to 3.
23/08/15 11:25:37 INFO Master: Application app-20230815110141-0008 requested to set total executors to 1.
23/08/15 11:25:39 INFO Master: Application app-20230815110141-0008 requested to set total executors to 2.
23/08/15 11:25:40 INFO Master: Application app-20230815110141-0008 requested to set total executors to 3.
23/08/15 11:25:40 INFO Master: Application app-20230815110141-0008 requested to set total executors to 1.
23/08/15 11:25:42 INFO Master: Application app-20230815110141-0008 requested to set total executors to 2.
23/08/15 11:25:43 INFO Master: Application app-20230815110141-0008 requested to set total executors to 3.
23/08/15 11:25:43 INFO Master: Application app-20230815110141-0008 requested to set total executors to 1.
23/08/15 11:25:45 INFO Master: Application app-20230815110141-0008 requested to set total executors to 2.
23/08/15 11:25:46 INFO Master: Application app-20230815110141-0008 requested to set total executors to 3.
23/08/15 11:25:46 INFO Master: Application app-20230815110141-0008 requested to set total executors to 1.
23/08/15 11:25:48 INFO Master: Application app-20230815110141-0008 requested to set total executors to 2.
23/08/15 11:25:49 INFO Master: Application app-20230815110141-0008 requested to set total executors to 3.
23/08/15 11:25:49 INFO Master: Application app-20230815110141-0008 requested to set total executors to 1.
23/08/15 11:25:51 INFO Master: Application app-20230815110141-0008 requested to set total executors to 2.
23/08/15 11:25:52 INFO Master: Application app-20230815110141-0008 requested to set total executors to 3.
23/08/15 11:25:53 INFO Master: Application app-20230815110141-0008 requested to set total executors to 1.
23/08/15 11:25:54 INFO Master: Application app-20230815110141-0008 requested to set total executors to 2.
23/08/15 11:25:55 INFO Master: Application app-20230815110141-0008 requested to set total executors to 3.
23/08/15 11:25:56 INFO Master: Application app-20230815110141-0008 requested to set total executors to 2.
23/08/15 11:25:56 INFO Master: Application app-20230815110141-0008 requested to set total executors to 1.
23/08/15 11:25:57 INFO Master: Application app-20230815110141-0008 requested to set total executors to 2.
23/08/15 11:25:58 INFO Master: Application app-20230815110141-0008 requested to set total executors to 3.
23/08/15 11:25:58 INFO Master: Application app-20230815110141-0008 requested to set total executors to 1.
23/08/15 11:25:59 INFO Master: Application app-20230815110141-0008 requested to set total executors to 2.
23/08/15 11:26:00 INFO Master: Application app-20230815110141-0008 requested to set total executors to 3.
23/08/15 11:26:01 INFO Master: Application app-20230815110141-0008 requested to set total executors to 1.
23/08/15 11:26:02 INFO Master: Application app-20230815110141-0008 requested to set total executors to 2.
23/08/15 11:26:03 INFO Master: Application app-20230815110141-0008 requested to set total executors to 3.
23/08/15 11:26:04 INFO Master: Application app-20230815110141-0008 requested to set total executors to 1.
23/08/15 11:26:06 INFO Master: Application app-20230815110141-0008 requested to set total executors to 2.
23/08/15 11:26:07 INFO Master: Application app-20230815110141-0008 requested to set total executors to 3.
23/08/15 11:26:08 INFO Master: Application app-20230815110141-0008 requested to set total executors to 1.
23/08/15 11:26:09 INFO Master: Application app-20230815110141-0008 requested to set total executors to 2.
23/08/15 11:26:10 INFO Master: Application app-20230815110141-0008 requested to set total executors to 3.
23/08/15 11:26:11 INFO Master: Application app-20230815110141-0008 requested to set total executors to 1.
23/08/15 11:26:12 INFO Master: Application app-20230815110141-0008 requested to set total executors to 2.
23/08/15 11:26:13 INFO Master: Application app-20230815110141-0008 requested to set total executors to 3.
23/08/15 11:26:14 INFO Master: Application app-20230815110141-0008 requested to set total executors to 1.
23/08/15 11:26:15 INFO Master: Application app-20230815110141-0008 requested to set total executors to 2.
23/08/15 11:26:16 INFO Master: Application app-20230815110141-0008 requested to set total executors to 3.
23/08/15 11:26:17 INFO Master: Application app-20230815110141-0008 requested to set total executors to 1.
23/08/15 11:26:18 INFO Master: Application app-20230815110141-0008 requested to set total executors to 2.
23/08/15 11:26:19 INFO Master: Application app-20230815110141-0008 requested to set total executors to 3.
23/08/15 11:26:20 INFO Master: Application app-20230815110141-0008 requested to set total executors to 1.
23/08/15 11:26:22 INFO Master: Application app-20230815110141-0008 requested to set total executors to 2.
23/08/15 11:26:23 INFO Master: Application app-20230815110141-0008 requested to set total executors to 3.
23/08/15 11:26:23 INFO Master: Application app-20230815110141-0008 requested to set total executors to 1.
23/08/15 11:26:24 INFO Master: Application app-20230815110141-0008 requested to set total executors to 2.
23/08/15 11:26:25 INFO Master: Application app-20230815110141-0008 requested to set total executors to 3.
23/08/15 11:26:26 INFO Master: Application app-20230815110141-0008 requested to set total executors to 1.
23/08/15 11:26:28 INFO Master: Application app-20230815110141-0008 requested to set total executors to 2.
23/08/15 11:26:29 INFO Master: Application app-20230815110141-0008 requested to set total executors to 3.
23/08/15 11:26:29 INFO Master: Application app-20230815110141-0008 requested to set total executors to 2.
23/08/15 11:26:29 INFO Master: Application app-20230815110141-0008 requested to set total executors to 1.
23/08/15 11:26:30 INFO Master: Application app-20230815110141-0008 requested to set total executors to 2.
23/08/15 11:26:31 INFO Master: Application app-20230815110141-0008 requested to set total executors to 3.
23/08/15 11:26:32 INFO Master: Application app-20230815110141-0008 requested to set total executors to 1.
23/08/15 11:26:34 INFO Master: Application app-20230815110141-0008 requested to set total executors to 2.
23/08/15 11:26:35 INFO Master: Application app-20230815110141-0008 requested to set total executors to 3.
23/08/15 11:26:35 INFO Master: Application app-20230815110141-0008 requested to set total executors to 1.
23/08/15 11:26:36 INFO Master: Application app-20230815110141-0008 requested to set total executors to 2.
23/08/15 11:26:37 INFO Master: Application app-20230815110141-0008 requested to set total executors to 3.
23/08/15 11:26:38 INFO Master: Application app-20230815110141-0008 requested to set total executors to 1.
23/08/15 11:26:40 INFO Master: Application app-20230815110141-0008 requested to set total executors to 2.
23/08/15 11:26:41 INFO Master: Application app-20230815110141-0008 requested to set total executors to 3.
23/08/15 11:26:41 INFO Master: Application app-20230815110141-0008 requested to set total executors to 1.
23/08/15 11:26:42 INFO Master: Application app-20230815110141-0008 requested to set total executors to 2.
23/08/15 11:26:43 INFO Master: Application app-20230815110141-0008 requested to set total executors to 3.
23/08/15 11:26:45 INFO Master: Application app-20230815110141-0008 requested to set total executors to 2.
23/08/15 11:26:45 INFO Master: Application app-20230815110141-0008 requested to set total executors to 1.
23/08/15 11:26:46 INFO Master: Application app-20230815110141-0008 requested to set total executors to 2.
23/08/15 11:26:47 INFO Master: Application app-20230815110141-0008 requested to set total executors to 3.
23/08/15 11:26:47 INFO Master: Application app-20230815110141-0008 requested to set total executors to 2.
23/08/15 11:26:47 INFO Master: Application app-20230815110141-0008 requested to set total executors to 1.
23/08/15 11:26:48 INFO Master: Application app-20230815110141-0008 requested to set total executors to 2.
23/08/15 11:26:49 INFO Master: Application app-20230815110141-0008 requested to set total executors to 3.
23/08/15 11:26:50 INFO Master: Application app-20230815110141-0008 requested to set total executors to 1.
23/08/15 11:26:52 INFO Master: Application app-20230815110141-0008 requested to set total executors to 2.
23/08/15 11:26:53 INFO Master: Application app-20230815110141-0008 requested to set total executors to 3.
23/08/15 11:26:54 INFO Master: Application app-20230815110141-0008 requested to set total executors to 1.
23/08/15 11:26:55 INFO Master: Application app-20230815110141-0008 requested to set total executors to 2.
23/08/15 11:26:56 INFO Master: Application app-20230815110141-0008 requested to set total executors to 3.
23/08/15 11:26:56 INFO Master: Application app-20230815110141-0008 requested to set total executors to 1.
23/08/15 11:26:58 INFO Master: Application app-20230815110141-0008 requested to set total executors to 2.
23/08/15 11:26:59 INFO Master: Application app-20230815110141-0008 requested to set total executors to 3.
23/08/15 11:27:00 INFO Master: Application app-20230815110141-0008 requested to set total executors to 1.
23/08/15 11:27:01 INFO Master: Application app-20230815110141-0008 requested to set total executors to 2.
23/08/15 11:27:02 INFO Master: Application app-20230815110141-0008 requested to set total executors to 3.
23/08/15 11:27:02 INFO Master: Application app-20230815110141-0008 requested to set total executors to 1.
23/08/15 11:27:04 INFO Master: Application app-20230815110141-0008 requested to set total executors to 2.
23/08/15 11:27:05 INFO Master: Application app-20230815110141-0008 requested to set total executors to 3.
23/08/15 11:27:07 INFO Master: Application app-20230815110141-0008 requested to set total executors to 1.
23/08/15 11:27:08 INFO Master: Application app-20230815110141-0008 requested to set total executors to 2.
23/08/15 11:27:09 INFO Master: Application app-20230815110141-0008 requested to set total executors to 3.
23/08/15 11:27:10 INFO Master: Application app-20230815110141-0008 requested to set total executors to 1.
23/08/15 11:27:12 INFO Master: Application app-20230815110141-0008 requested to set total executors to 2.
23/08/15 11:27:12 INFO Master: Application app-20230815110141-0008 requested to set total executors to 1.
23/08/15 11:31:25 INFO Master: Received unregister request from application app-20230815110141-0008
23/08/15 11:31:25 INFO Master: Removing app app-20230815110141-0008
23/08/15 11:31:25 INFO Master: 127.0.0.1:56148 got disassociated, removing it.
23/08/15 11:31:25 INFO Master: dell-Vostro-3558tion.lan:34259 got disassociated, removing it.
23/08/15 11:31:26 WARN Master: Got status update for unknown executor app-20230815110141-0008/0
23/08/15 13:33:59 WARN Master: Removing worker-20230814213125-192.168.1.184-46429 because we got no heartbeat in 60 seconds
23/08/15 13:34:30 INFO Master: Removing worker worker-20230814213125-192.168.1.184-46429 on 192.168.1.184:46429
23/08/15 13:34:30 INFO Master: Telling app of lost worker: worker-20230814213125-192.168.1.184-46429
23/08/15 13:34:30 WARN Master: Got heartbeat from unregistered worker worker-20230814213125-192.168.1.184-46429. Asking it to re-register.
23/08/15 13:34:31 WARN Master: Got heartbeat from unregistered worker worker-20230814213125-192.168.1.184-46429. Asking it to re-register.
23/08/15 13:34:31 WARN Master: Got heartbeat from unregistered worker worker-20230814213125-192.168.1.184-46429. Asking it to re-register.
23/08/15 13:34:31 WARN Master: Got heartbeat from unregistered worker worker-20230814213125-192.168.1.184-46429. Asking it to re-register.
23/08/15 13:34:31 WARN Master: Got heartbeat from unregistered worker worker-20230814213125-192.168.1.184-46429. Asking it to re-register.
23/08/15 13:34:31 WARN Master: Got heartbeat from unregistered worker worker-20230814213125-192.168.1.184-46429. Asking it to re-register.
23/08/15 13:34:31 INFO Master: Registering worker 192.168.1.184:46429 with 4 cores, 6.7 GiB RAM
