Spark Command: /usr/lib/jvm/java-17-openjdk-amd64/bin/java -cp /home/dell/Documentos/TFM/spark/conf/:/home/dell/Documentos/TFM/spark/jars/* -Xmx1g org.apache.spark.deploy.master.Master --host dell-Vostro-3558tion --port 7077 --webui-port 8080 -h 0.0.0.0
========================================
Using Spark's default log4j profile: org/apache/spark/log4j2-defaults.properties
23/08/14 21:26:22 INFO Master: Started daemon with process name: 224794@dell-Vostro-3558tion
23/08/14 21:26:22 INFO SignalUtils: Registering signal handler for TERM
23/08/14 21:26:22 INFO SignalUtils: Registering signal handler for HUP
23/08/14 21:26:22 INFO SignalUtils: Registering signal handler for INT
23/08/14 21:26:22 WARN Utils: Your hostname, dell-Vostro-3558tion resolves to a loopback address: 127.0.1.1; using 192.168.1.184 instead (on interface wlp6s0)
23/08/14 21:26:22 WARN Utils: Set SPARK_LOCAL_IP if you need to bind to another address
23/08/14 21:26:23 WARN NativeCodeLoader: Unable to load native-hadoop library for your platform... using builtin-java classes where applicable
23/08/14 21:26:23 INFO SecurityManager: Changing view acls to: dell
23/08/14 21:26:23 INFO SecurityManager: Changing modify acls to: dell
23/08/14 21:26:23 INFO SecurityManager: Changing view acls groups to: 
23/08/14 21:26:24 INFO SecurityManager: Changing modify acls groups to: 
23/08/14 21:26:24 INFO SecurityManager: SecurityManager: authentication disabled; ui acls disabled; users  with view permissions: Set(dell); groups with view permissions: Set(); users  with modify permissions: Set(dell); groups with modify permissions: Set()
23/08/14 21:26:24 INFO Utils: Successfully started service 'sparkMaster' on port 7077.
23/08/14 21:26:25 INFO Master: Starting Spark master at spark://0.0.0.0:7077
23/08/14 21:26:25 INFO Master: Running Spark version 3.3.1
23/08/14 21:26:25 INFO Utils: Successfully started service 'MasterUI' on port 8080.
23/08/14 21:26:25 INFO MasterWebUI: Bound MasterWebUI to 0.0.0.0, and started at http://dell-Vostro-3558tion.lan:8080
23/08/14 21:26:26 INFO Master: I have been elected leader! New state: ALIVE
23/08/14 21:26:29 INFO Master: Registering worker 192.168.1.184:34187 with 4 cores, 6.7 GiB RAM
23/08/14 21:26:51 INFO Master: Registering app Filtrado
23/08/14 21:26:51 INFO Master: Registered app Filtrado with ID app-20230814212651-0000
23/08/14 21:26:51 INFO Master: Application app-20230814212651-0000 requested to set total executors to 1.
23/08/14 21:26:51 INFO Master: Launching executor app-20230814212651-0000/0 on worker worker-20230814212628-192.168.1.184-34187
23/08/14 21:28:26 INFO Master: Received unregister request from application app-20230814212651-0000
23/08/14 21:28:26 INFO Master: Removing app app-20230814212651-0000
23/08/14 21:28:26 INFO Master: 127.0.0.1:35456 got disassociated, removing it.
23/08/14 21:28:26 INFO Master: dell-Vostro-3558tion.lan:37079 got disassociated, removing it.
23/08/14 21:28:27 WARN Master: Got status update for unknown executor app-20230814212651-0000/0
23/08/14 21:30:28 INFO Master: Registering app Filtrado
23/08/14 21:30:28 INFO Master: Registered app Filtrado with ID app-20230814213028-0001
23/08/14 21:30:28 INFO Master: Application app-20230814213028-0001 requested to set total executors to 1.
23/08/14 21:30:28 INFO Master: Launching executor app-20230814213028-0001/0 on worker worker-20230814212628-192.168.1.184-34187
23/08/14 21:30:58 INFO Master: Received unregister request from application app-20230814213028-0001
23/08/14 21:30:58 INFO Master: Removing app app-20230814213028-0001
23/08/14 21:30:58 INFO Master: 127.0.0.1:36176 got disassociated, removing it.
23/08/14 21:30:58 INFO Master: dell-Vostro-3558tion.lan:35473 got disassociated, removing it.
23/08/14 21:30:58 WARN Master: Got status update for unknown executor app-20230814213028-0001/0
23/08/14 21:31:04 INFO Master: 127.0.0.1:37608 got disassociated, removing it.
23/08/14 21:31:04 INFO Master: 192.168.1.184:34187 got disassociated, removing it.
23/08/14 21:31:04 INFO Master: Removing worker worker-20230814212628-192.168.1.184-34187 on 192.168.1.184:34187
23/08/14 21:31:04 INFO Master: Telling app of lost worker: worker-20230814212628-192.168.1.184-34187
23/08/14 21:31:13 ERROR Master: RECEIVED SIGNAL TERM
